{
    "_id": "8NKe8N5NsULPShPX",
    "content": "<p><span class=\"fontstyle0\">One of your greatest influences was a sapient undead creature, such as a ghost, lich, graveknight, or vampire. Through this strange relationship, you learned of its mortal life, giving you perspective on your own life. </span></p>\n<p><span class=\"fontstyle0\">Add a Constitution </span><span class=\"fontstyle0\">ability boost to your background options.</span> <br style=\"font-style: normal; font-variant: normal; font-weight: normal; letter-spacing: normal; line-height: normal; orphans: 2; text-align: -webkit-auto; text-indent: 0px; text-transform: none; white-space: normal; widows: 2; word-spacing: 0px; -webkit-text-size-adjust: auto; -webkit-text-stroke-width: 0px;\" /></p>\n<p></p>",
    "flags": {},
    "name": "The Dead One",
    "permission": {
        "default": 0
    }
}
