{
    "_id": "bTLmJMATrrtq8NuT",
    "data": {
        "baseItem": null,
        "brokenThreshold": {
            "value": 0
        },
        "bulkCapacity": {
            "value": ""
        },
        "collapsed": {
            "value": false
        },
        "containerId": {
            "value": ""
        },
        "description": {
            "value": "<p>This amulet is made from the scales of five ancient dragons. You gain resistance 5 to acid, cold, electricity, fire, and poison. If you take damage of one of these types from a dragon's Breath Weapon, the amulet begins to glow brightly; for the next 10 minutes, your resistance against that type of damage increases to 20. If you are subjected to a dragon's frightful presence, you can roll your saving throw twice and use the higher result to determine the aura's effects. This is a fortune effect.</p>\n<p><strong>Activate</strong> <span class=\"pf2-icon\">D</span> command; <strong>Frequency</strong> once per day; <strong>Effect</strong> You exude an aura that terrifies all foes in a 60-foot radius, as the frightful presence ability with a <span data-pf2-check=\"will\" data-pf2-dc=\"34\" data-pf2-traits=\"enchantment,magical\" data-pf2-label=\"Dragonscale Amulet DC\" data-pf2-show-dc=\"gm\">Will</span> save.</p>"
        },
        "equipped": {
            "value": false
        },
        "equippedBulk": {
            "value": ""
        },
        "hardness": {
            "value": 0
        },
        "hp": {
            "value": 0
        },
        "identification": {
            "misidentified": {},
            "status": "identified",
            "unidentified": {
                "data": {
                    "description": {
                        "value": ""
                    }
                },
                "img": "",
                "name": ""
            }
        },
        "invested": {
            "value": false
        },
        "level": {
            "value": 15
        },
        "maxHp": {
            "value": 0
        },
        "negateBulk": {
            "value": ""
        },
        "preciousMaterial": {
            "value": ""
        },
        "preciousMaterialGrade": {
            "value": ""
        },
        "price": {
            "value": "5,800 gp"
        },
        "quantity": {
            "value": 1
        },
        "rules": [],
        "size": {
            "value": "med"
        },
        "source": {
            "value": "Pathfinder #148: Fires of the Haunted City"
        },
        "stackGroup": {
            "value": ""
        },
        "traits": {
            "custom": "",
            "rarity": {
                "value": "rare"
            },
            "value": [
                "enchantment",
                "invested",
                "magical"
            ]
        },
        "usage": {
            "value": "worn"
        },
        "weight": {
            "value": "-"
        }
    },
    "effects": [],
    "flags": {},
    "img": "systems/pf2e/icons/equipment/worn-items/other-worn-items/dragonscale-amulet.webp",
    "name": "Dragonscale Amulet",
    "type": "equipment"
}
