{
    "_id": "dIUmjoLjlcrKgXbH",
    "data": {
        "MAP": {
            "value": ""
        },
        "baseItem": "spear",
        "bonus": {
            "value": 0
        },
        "bonusDamage": {
            "value": 0
        },
        "brokenThreshold": {
            "value": 0
        },
        "bulkCapacity": {
            "value": ""
        },
        "category": "simple",
        "collapsed": {
            "value": false
        },
        "containerId": {
            "value": null
        },
        "damage": {
            "damageType": "piercing",
            "dice": 1,
            "die": "d6",
            "value": ""
        },
        "description": {
            "value": "<p>Each of these golden spears was forged in the days of old Mzali, when the sun kings ruled the city. The majority of these weapons are lost, most likely buried with warriors in tombs and temples sealed by Walkena's decrees. Walkena retains a single golden blade, which he grants to his Master of Spears.</p>\n<p>This <em>+2 greater striking returning spear</em> is coated in brilliant gold, and beautiful engravings run along the shaft, depicting the rising and setting of the sun against Mzali's skyline. The spear glows with the effects of 4th-level <em>@Compendium[pf2e.spells-srd.Light]{Light}</em>. You can suppress or resume this light by using an action, which has the concentrate trait. When you hit a creature with the spear, it takes 1d6 additional fire damage. When you critically hit a creature with the spear, the creature takes [[/r {1d8}[persistent,fire]]] @Compendium[pf2e.conditionitems.Persistent Damage]{Persistent Fire Damage} and [[/r {1d8}[persistent,bleed]]] @Compendium[pf2e.conditionitems.Persistent Damage]{Persistent Bleed Damage} as its blood boils away. Unlike normal when taking two types of persistent damage, a creature needs only a single successful flat check to remove both the fire and bleed damage.</p>\n<hr />\n<p><strong>Activate</strong> <span class=\"pf2-icon\">r</span> envision;</p>\n<p><strong>Frequency</strong> once per day;</p>\n<p><strong>Trigger</strong> You critically hit a creature with the weapon;</p>\n<p><strong>Effect</strong> You call upon the spear's light to guide the creature away from violence. The creature must choose one of the following options:</p>\n<ul>\n<li>The creature surrenders, immediately receiving the critical failure effects of <em>@Compendium[pf2e.spells-srd.Calm Emotions]{Calm Emotions}</em> and <em>@Compendium[pf2e.spells-srd.Paralyze]{Paralyze}</em>.</li>\n<li>The weapon casts 7th-level <em>@Compendium[pf2e.spells-srd.Blindness]{Blindness}</em> on the creature with a <span data-pf2-check=\"fortitude\" data-pf2-traits=\"incapacitation,necromancy\" data-pf2-label=\"Blindness DC\" data-pf2-dc=\"34\">DC of 34</span>.</li>\n</ul>\n<p>Regardless of the choice, the spear loses its ability to glow with light until your next daily preparations.</p>\n<hr />\n<p><strong>Activate</strong> <span class=\"pf2-icon\">2</span> envision, Interact;</p>\n<p><strong>Frequency</strong> once per day;</p>\n<p><strong>Effect</strong> The spear casts 7th-level <em>@Compendium[pf2e.spells-srd.Elemental Form]{Elemental Form}</em> on you, choosing fire as the form's trait. The spear loses its additional fire damage until your next daily preparations.</p>"
        },
        "equipped": {
            "value": false
        },
        "equippedBulk": {
            "value": ""
        },
        "group": "spear",
        "hands": {
            "value": false
        },
        "hardness": {
            "value": 0
        },
        "hp": {
            "value": 0
        },
        "identification": {
            "misidentified": {},
            "status": "identified",
            "unidentified": {
                "data": {
                    "description": {
                        "value": ""
                    }
                },
                "img": "",
                "name": ""
            }
        },
        "invested": {
            "value": null
        },
        "level": {
            "value": 15
        },
        "maxHp": {
            "value": 0
        },
        "negateBulk": {
            "value": "0"
        },
        "potencyRune": {
            "value": 2
        },
        "preciousMaterial": {
            "value": null
        },
        "preciousMaterialGrade": {
            "value": null
        },
        "price": {
            "value": "6500 gp"
        },
        "property1": {
            "critDamage": "",
            "critDamageType": "",
            "critDice": 0,
            "critDie": "",
            "criticalConditionType": "",
            "criticalConditionValue": null,
            "damageType": "",
            "dice": 0,
            "die": "",
            "strikeConditionType": "",
            "strikeConditionValue": null,
            "value": ""
        },
        "propertyRune1": {
            "value": "returning"
        },
        "propertyRune2": {
            "value": null
        },
        "propertyRune3": {
            "value": null
        },
        "propertyRune4": {
            "value": null
        },
        "quantity": {
            "value": 1
        },
        "range": null,
        "reload": {
            "value": ""
        },
        "rules": [
            {
                "key": "ToggleProperty",
                "label": "You have cast elemental form using the Golden Blade of Mzali",
                "property": "flags.pf2e.rollOptions.all.used-elemental-form"
            },
            {
                "damageType": "fire",
                "diceNumber": 1,
                "dieSize": "d6",
                "key": "DamageDice",
                "predicate": {
                    "not": [
                        "used-elemental-form"
                    ]
                },
                "selector": "{item|_id}-damage"
            },
            {
                "key": "Note",
                "outcome": [
                    "criticalSuccess"
                ],
                "selector": "{item|_id}-damage",
                "text": "<p class='compact-text'><strong>{item|name}</strong> When you critically hit a creature with the spear, the creature takes [[/r {1d8}[persistent,fire]]] @Compendium[pf2e.conditionitems.Persistent Damage]{Persistent Fire Damage} and [[/r {1d8}[persistent,bleed]]] @Compendium[pf2e.conditionitems.Persistent Damage]{Persistent Bleed Damage} as its blood boils away. Unlike normal when taking two types of persistent damage, a creature needs only a single successful flat check to remove both the fire and bleed damage.</p>"
            }
        ],
        "size": {
            "value": "med"
        },
        "source": {
            "value": "Pathfinder #172: Secrets of the Temple-City"
        },
        "specific": {
            "material": null,
            "price": "0",
            "runes": {
                "potency": 2,
                "striking": "greaterStriking"
            },
            "value": true
        },
        "splashDamage": {
            "value": 0
        },
        "stackGroup": {
            "value": ""
        },
        "strikingRune": {
            "value": "greaterStriking"
        },
        "traits": {
            "custom": "",
            "rarity": {
                "value": "rare"
            },
            "value": [
                "evocation",
                "fire",
                "light",
                "magical",
                "thrown-20"
            ]
        },
        "usage": {
            "value": "held-in-one-hand"
        },
        "weight": {
            "value": "1"
        }
    },
    "effects": [],
    "flags": {},
    "img": "systems/pf2e/icons/default-icons/weapon.svg",
    "name": "Golden Blade of Mzali",
    "type": "weapon"
}
