{
    "_id": "1pglC9PQx6yOgcKL",
    "data": {
        "baseItem": null,
        "brokenThreshold": {
            "value": 0
        },
        "bulkCapacity": {
            "value": "10"
        },
        "capacity": {
            "type": "weight",
            "value": 0,
            "weightless": false
        },
        "collapsed": {
            "value": false
        },
        "containerId": {
            "value": null
        },
        "currency": {
            "cp": 0,
            "gp": 0,
            "pp": 0,
            "sp": 0
        },
        "description": {
            "value": "<p>This loose robe has wide, voluminous sleeves that each contain an extradimensional space. These spaces each function as a @Compendium[pf2e.equipment-srd.Bag of Holding (Type I)]{Bag of Holding} that can hold up to 5 Bulk of items (for a total of 10 Bulk), though no individual item can be of more than 1 Bulk; the sleeves grow slightly heavy as you reach maximum capacity. You can add or remove an item from a sleeve with a single hand free as an Interact action.</p>\n<p>If a sleeve is completely empty, you can place your own familiar into that extradimensional space. It can survive comfortably in your sleeve for up to 1 hour, after which it begins to <em>suffocate</em>. While in your sleeve, it can't be affected or targeted by any effects, but you don't benefit from any master abilities. A familiar can exit the sleeve of its own volition with a single action that has the <em>manipulate </em>and <em>move</em> traits. You can't place any other creature into your sleeves, nor can you place your familiar in a sleeve if it's larger than Tiny. If your familiar is in your sleeve, you can't place any items in the sleeve.</p>"
        },
        "equipped": {
            "value": false
        },
        "equippedBulk": {
            "value": ""
        },
        "hardness": {
            "value": 0
        },
        "hp": {
            "value": 0
        },
        "identification": {
            "misidentified": {},
            "status": "identified",
            "unidentified": {
                "data": {
                    "description": {
                        "value": ""
                    }
                },
                "img": "",
                "name": ""
            }
        },
        "level": {
            "value": 4
        },
        "maxHp": {
            "value": 0
        },
        "negateBulk": {
            "value": "10"
        },
        "preciousMaterial": {
            "value": null
        },
        "preciousMaterialGrade": {
            "value": null
        },
        "price": {
            "value": "100 gp"
        },
        "quantity": {
            "value": 1
        },
        "rules": [],
        "size": {
            "value": "med"
        },
        "source": {
            "value": "Pathfinder Advanced Player's Guide"
        },
        "stackGroup": {
            "value": ""
        },
        "stowing": true,
        "traits": {
            "custom": "",
            "rarity": {
                "value": "common"
            },
            "value": [
                "conjuration",
                "extradimensional",
                "invested",
                "magical"
            ]
        },
        "usage": {
            "value": "worngarment"
        },
        "weight": {
            "value": "L"
        }
    },
    "effects": [],
    "flags": {},
    "img": "systems/pf2e/icons/equipment/worn-items/other-worn-items/sleeves-of-storage.webp",
    "name": "Sleeves of Storage",
    "type": "backpack"
}
