{
    "_id": "gB9Qp85rpuNtPVGx",
    "data": {
        "activation": {
            "condition": "",
            "cost": 0,
            "type": ""
        },
        "activations": {
            "aqsug9mgkz9ar4cb": {
                "actionCost": {
                    "type": "action",
                    "value": 1
                },
                "components": {
                    "cast": false,
                    "command": false,
                    "envision": false,
                    "interact": true
                },
                "description": {
                    "value": ""
                },
                "frequency": {
                    "duration": null,
                    "max": 0,
                    "value": 0
                },
                "id": "aqsug9mgkz9ar4cb"
            }
        },
        "autoDestroy": {
            "_deprecated": true,
            "value": true
        },
        "autoUse": {
            "_deprecated": true,
            "value": true
        },
        "baseItem": null,
        "brokenThreshold": {
            "value": 0
        },
        "bulkCapacity": {
            "value": ""
        },
        "charges": {
            "_deprecated": true,
            "max": 0,
            "value": 0
        },
        "collapsed": {
            "value": false
        },
        "consumableType": {
            "value": "other"
        },
        "consume": {
            "_deprecated": true,
            "value": ""
        },
        "containerId": {
            "value": null
        },
        "description": {
            "value": "<p>You can toss sneezing powder at an adjacent creature as an Interact action. The target must attempt a <span data-pf2-check=\"fortitude\" data-pf2-traits=\"alchemical,consumable,inhaled\" data-pf2-label=\"Sneezing Powder DC\" data-pf2-dc=\"15\" data-pf2-show-dc=\"gm\">Fortitude</span> save to avoid sneezing. On a failed save, the creature sneezes uncontrollably, becoming @Compendium[pf2e.conditionitems.Slowed]{Slowed 1} for 1 round. On a critical failure, the creature is instead slowed 1 for 3 rounds.</p>"
        },
        "duration": {
            "units": "",
            "value": null
        },
        "equipped": {
            "value": false
        },
        "equippedBulk": {
            "value": ""
        },
        "hardness": {
            "value": 0
        },
        "hp": {
            "value": 0
        },
        "identification": {
            "misidentified": {},
            "status": "identified",
            "unidentified": {
                "data": {
                    "description": {
                        "value": ""
                    }
                },
                "img": "",
                "name": ""
            }
        },
        "level": {
            "value": 0
        },
        "maxHp": {
            "value": 0
        },
        "negateBulk": {
            "value": "0"
        },
        "preciousMaterial": {
            "value": null
        },
        "preciousMaterialGrade": {
            "value": null
        },
        "price": {
            "value": "7 gp"
        },
        "quantity": {
            "value": 1
        },
        "range": {
            "long": null,
            "units": "",
            "value": null
        },
        "rules": [],
        "size": {
            "value": "med"
        },
        "source": {
            "value": "Pathfinder Lost Omens: The Grand Bazaar"
        },
        "spell": {
            "data": null,
            "heightenedLevel": null
        },
        "stackGroup": {
            "value": ""
        },
        "target": {
            "type": "",
            "units": "",
            "value": null
        },
        "traits": {
            "custom": "",
            "rarity": {
                "value": "uncommon"
            },
            "value": [
                "alchemical",
                "consumable",
                "inhaled"
            ]
        },
        "usage": {
            "value": "held-in-two-hands"
        },
        "uses": {
            "autoDestroy": true,
            "autoUse": true,
            "max": 0,
            "per": null,
            "value": 0
        },
        "weight": {
            "value": "L"
        }
    },
    "effects": [],
    "flags": {},
    "img": "systems/pf2e/icons/default-icons/consumable.svg",
    "name": "Sneezing Powder",
    "type": "consumable"
}
