{
    "_id": "gUihlg28MEloIqE3",
    "data": {
        "abilities": {
            "cha": {
                "mod": 2
            },
            "con": {
                "mod": 0
            },
            "dex": {
                "mod": 6
            },
            "int": {
                "mod": 2
            },
            "str": {
                "mod": -5
            },
            "wis": {
                "mod": 4
            }
        },
        "attributes": {
            "ac": {
                "details": "",
                "value": 27
            },
            "allSaves": {
                "value": ""
            },
            "hp": {
                "details": "",
                "max": 50,
                "temp": 0,
                "value": 50
            },
            "initiative": {
                "ability": "perception"
            },
            "perception": {
                "value": 16
            },
            "shield": {
                "ac": 0,
                "brokenThreshold": 0,
                "hardness": 0,
                "max": 0,
                "value": 0
            },
            "speed": {
                "otherSpeeds": [
                    {
                        "label": "Fly",
                        "type": "fly",
                        "value": "50"
                    }
                ],
                "value": "0"
            }
        },
        "details": {
            "alignment": {
                "value": "CE"
            },
            "blurb": "",
            "creatureType": "Aberration",
            "level": {
                "value": 6
            },
            "privateNotes": "",
            "publicNotes": "<p>Malevolent balls of colored light, will-o'-wisps haunt lonely marshes and forests where they lure unsuspecting travelers into danger. Will-o'-wisps can vary the color and illumination they shed, and delight in mimicking bobbing lanterns or distant fires to draw lost or disoriented travelers off of safe trails. They can extinguish their illumination entirely to become invisible, and they enjoy doing so once their victims are wholly lost and have realized that the bobbing light in the distance isn't, in fact, leading them to safety. Even invisible, however, a will-o'-wisp rarely ventures far from its target, as it feasts upon the panic and dread felt by its victims.</p>\n<p>Beneath its glow, a will-o'-wisp's body is a spongy ball approximately 1 foot in diameter and weighing less than 5 pounds. Although most will-o'-wisps are merely translucent, featureless orbs, gaining definition only in the shifting illumination they create, a few have dark mottling that makes them resemble a skull when viewed closely. Will-o'-wisps have no need for mundane nourishment, and in fact lack the ability to consume matter of any kind; they find all the sustenance they need in the terror of nearby creatures. For this reason, they like to work alongside undead that produce terror in their victims. Will-o'-wisps are long-lived, if not effectively immortal, and they have good memories. A cowed or defeated will-o'-wisp can be a good source of lore and information, though acquiring such cooperation from such a sinister monster is no easy feat.</p>\n<p>Will-o'-wisps inhabit desolate swamps and forests and are generally active at twilight and after dark. They are therefore reluctant to lead victims into immediately fatal areas such as deadfalls, but instead prefer hazards where their victims suffer over a long time, such as pockets of stale or poisonous air, patches of quicksand, and dens of bigger monsters. According to will-o'-wisps, different types of fear have subtle differences in flavor. The lurking dread in the pit of the stomach that gnaws at those who slowly become aware of the fact that they're lost produces a much different taste than the sudden stark terror of imminent death in the face of a towering monster. Because of this, will-o'-wisps try to vary the ways in which they induce terror in their prey, to ensure they don't tire of certain flavors of fear.</p>\n<hr />\n<p>These desert-based will-o'-wisps deal fire damage rather than electricity and delight in setting their victims aflame, relishing the resulting screams that echo across the landscape. They can quench their glow like other will-o'-wisps, but the nearer they remain to their burning victims, the more obvious their heat shimmer appears in the air.</p>",
            "source": {
                "value": "Pathfinder #164: Hands of the Devil"
            }
        },
        "resources": {},
        "saves": {
            "fortitude": {
                "saveDetail": "",
                "value": 10
            },
            "reflex": {
                "saveDetail": "",
                "value": 16
            },
            "will": {
                "saveDetail": "",
                "value": 14
            }
        },
        "traits": {
            "attitude": {
                "value": "hostile"
            },
            "ci": [],
            "di": {
                "custom": "",
                "value": [
                    "magic"
                ]
            },
            "dr": [],
            "dv": [],
            "languages": {
                "custom": "",
                "selected": [],
                "value": [
                    "aklo",
                    "common"
                ]
            },
            "rarity": {
                "value": "common"
            },
            "senses": {
                "value": "darkvision"
            },
            "size": {
                "value": "sm"
            },
            "traits": {
                "custom": "",
                "value": [
                    "aberration",
                    "air"
                ]
            }
        }
    },
    "effects": [],
    "flags": {},
    "img": "systems/pf2e/icons/default-icons/npc.svg",
    "items": [
        {
            "_id": "2rAKighB6Ywhk5s3",
            "data": {
                "attack": {
                    "value": ""
                },
                "attackEffects": {
                    "custom": "",
                    "value": [
                        "light-the-living-wick"
                    ]
                },
                "bonus": {
                    "value": 17
                },
                "damageRolls": {
                    "jtguda2tjozvfz78bzs3": {
                        "damage": "2d4+4",
                        "damageType": "fire"
                    }
                },
                "description": {
                    "value": ""
                },
                "rules": [],
                "slug": null,
                "source": {
                    "value": ""
                },
                "traits": {
                    "custom": "",
                    "rarity": {
                        "value": "common"
                    },
                    "value": [
                        "fire",
                        "magical"
                    ]
                },
                "weaponType": {
                    "value": "melee"
                }
            },
            "effects": [],
            "flags": {},
            "img": "systems/pf2e/icons/default-icons/melee.svg",
            "name": "Flare",
            "sort": 100000,
            "type": "melee"
        },
        {
            "_id": "51r9xhJpaBdZxkK3",
            "data": {
                "actionCategory": {
                    "value": "interaction"
                },
                "actionType": {
                    "value": "passive"
                },
                "actions": {
                    "value": null
                },
                "description": {
                    "value": "<p>@Localize[PF2E.NPC.Abilities.Glossary.Darkvision]</p>"
                },
                "requirements": {
                    "value": ""
                },
                "rules": [],
                "slug": "darkvision",
                "source": {
                    "value": ""
                },
                "traits": {
                    "custom": "",
                    "rarity": {
                        "value": "common"
                    },
                    "value": []
                },
                "trigger": {
                    "value": ""
                },
                "weapon": {
                    "value": ""
                }
            },
            "effects": [],
            "flags": {
                "core": {
                    "sourceId": "Compendium.pf2e.bestiary-ability-glossary-srd.qCCLZhnp2HhP3Ex6"
                }
            },
            "img": "systems/pf2e/icons/actions/Passive.webp",
            "name": "Darkvision",
            "sort": 200000,
            "type": "action"
        },
        {
            "_id": "wChn2PEw9GYziq2n",
            "data": {
                "actionCategory": {
                    "value": "defensive"
                },
                "actionType": {
                    "value": "passive"
                },
                "actions": {
                    "value": null
                },
                "description": {
                    "value": "<p>@Template[type:emanation|distance:20]{20 feet} @Compendium[pf2e.bestiary-ability-glossary-srd.Aura]{Aura}</p>\n<p>A will-o'-wisp is itself naturally invisible, but glows with a colored light, casting bright light in the aura and making it visible.</p>"
                },
                "requirements": {
                    "value": ""
                },
                "rules": [],
                "slug": null,
                "source": {
                    "value": ""
                },
                "traits": {
                    "custom": "",
                    "rarity": {
                        "value": "common"
                    },
                    "value": [
                        "aura",
                        "light"
                    ]
                },
                "trigger": {
                    "value": ""
                },
                "weapon": {
                    "value": ""
                }
            },
            "effects": [],
            "flags": {},
            "img": "systems/pf2e/icons/actions/Passive.webp",
            "name": "Glow",
            "sort": 300000,
            "type": "action"
        },
        {
            "_id": "3Eksrmh390T4SrP7",
            "data": {
                "actionCategory": {
                    "value": "defensive"
                },
                "actionType": {
                    "value": "passive"
                },
                "actions": {
                    "value": null
                },
                "description": {
                    "value": "<p>A will-o'-wisp is immune to all spells except <em>@Compendium[pf2e.spells-srd.Faerie Fire]{Faerie Fire}</em>, <em>@Compendium[pf2e.spells-srd.Glitterdust]{Glitterdust}</em>, <em>@Compendium[pf2e.spells-srd.Magic Missile]{Magic Missile}</em>, and <em>@Compendium[pf2e.spells-srd.Maze]{Maze}</em>.</p>"
                },
                "requirements": {
                    "value": ""
                },
                "rules": [],
                "slug": null,
                "source": {
                    "value": ""
                },
                "traits": {
                    "custom": "",
                    "rarity": {
                        "value": "common"
                    },
                    "value": []
                },
                "trigger": {
                    "value": ""
                },
                "weapon": {
                    "value": ""
                }
            },
            "effects": [],
            "flags": {},
            "img": "systems/pf2e/icons/actions/Passive.webp",
            "name": "Magic Immunity",
            "sort": 400000,
            "type": "action"
        },
        {
            "_id": "yDdnC4S3nrhfHYil",
            "data": {
                "actionCategory": {
                    "value": "offensive"
                },
                "actionType": {
                    "value": "action"
                },
                "actions": {
                    "value": 1
                },
                "description": {
                    "value": "<p>The dune candle extinguishes its glow, becoming @Compendium[pf2e.conditionitems.Invisible]{Invisible}. It can end this effect with another use of this action. Its body reflects creatures on fire (but not other fires) while it's invisible.</p>\n<p>As a result, when any creature within 20 feet of the dune candle is taking @Compendium[pf2e.conditionitems.Persistent Damage]{Persistent Fire Damage}, the dune candle is @Compendium[pf2e.conditionitems.Hidden]{Hidden} to observers rather than @Compendium[pf2e.conditionitems.Undetected]{Undetected}.</p>"
                },
                "requirements": {
                    "value": ""
                },
                "rules": [],
                "slug": null,
                "source": {
                    "value": ""
                },
                "traits": {
                    "custom": "",
                    "rarity": {
                        "value": "common"
                    },
                    "value": [
                        "concentrate"
                    ]
                },
                "trigger": {
                    "value": ""
                },
                "weapon": {
                    "value": ""
                }
            },
            "effects": [],
            "flags": {},
            "img": "systems/pf2e/icons/actions/OneAction.webp",
            "name": "Heat Mirage",
            "sort": 500000,
            "type": "action"
        },
        {
            "_id": "QJJWPGE3n8ZduC9D",
            "data": {
                "actionCategory": {
                    "value": "offensive"
                },
                "actionType": {
                    "value": "passive"
                },
                "actions": {
                    "value": null
                },
                "description": {
                    "value": "<p>A creature damaged by a dune candle's flare Strike must succeed at a <span data-pf2-check=\"fortitude\" data-pf2-traits=\"arcane,evocation\" data-pf2-label=\"Light the Living Wick DC\" data-pf2-dc=\"24\" data-pf2-show-dc=\"gm\">Will</span> save<em data-visibility=\"gm\"> or catch on fire, taking [[/r 1d4 #persistent fire]] @Compendium[pf2e.conditionitems.Persistent Damage]{Persistent Fire Damage}</em>.</p>\n<p><em data-visibility=\"gm\">If the creature is already taking persistent fire damage, a failed save increases the persistent fire damage by 1d4.</em></p>"
                },
                "requirements": {
                    "value": ""
                },
                "rules": [],
                "slug": null,
                "source": {
                    "value": ""
                },
                "traits": {
                    "custom": "",
                    "rarity": {
                        "value": "common"
                    },
                    "value": [
                        "arcane",
                        "evocation"
                    ]
                },
                "trigger": {
                    "value": ""
                },
                "weapon": {
                    "value": ""
                }
            },
            "effects": [],
            "flags": {},
            "img": "systems/pf2e/icons/actions/Passive.webp",
            "name": "Light the Living Wick",
            "sort": 600000,
            "type": "action"
        },
        {
            "_id": "X2yn2MMfpvq1n5pe",
            "data": {
                "description": {
                    "value": ""
                },
                "item": {
                    "value": 0
                },
                "mod": {
                    "value": 18
                },
                "proficient": {
                    "value": 0
                },
                "rules": [],
                "slug": null,
                "source": {
                    "value": ""
                },
                "traits": {
                    "custom": "",
                    "rarity": {
                        "value": "common"
                    },
                    "value": []
                }
            },
            "effects": [],
            "flags": {},
            "img": "systems/pf2e/icons/default-icons/lore.svg",
            "name": "Acrobatics",
            "sort": 700000,
            "type": "lore"
        },
        {
            "_id": "smpDyRgoCURI6Otr",
            "data": {
                "description": {
                    "value": ""
                },
                "item": {
                    "value": 0
                },
                "mod": {
                    "value": 12
                },
                "proficient": {
                    "value": 0
                },
                "rules": [],
                "slug": null,
                "source": {
                    "value": ""
                },
                "traits": {
                    "custom": "",
                    "rarity": {
                        "value": "common"
                    },
                    "value": []
                }
            },
            "effects": [],
            "flags": {},
            "img": "systems/pf2e/icons/default-icons/lore.svg",
            "name": "Deception",
            "sort": 800000,
            "type": "lore"
        },
        {
            "_id": "o5ZowKCSH7katdBS",
            "data": {
                "description": {
                    "value": ""
                },
                "item": {
                    "value": 0
                },
                "mod": {
                    "value": 12
                },
                "proficient": {
                    "value": 0
                },
                "rules": [],
                "slug": null,
                "source": {
                    "value": ""
                },
                "traits": {
                    "custom": "",
                    "rarity": {
                        "value": "common"
                    },
                    "value": []
                }
            },
            "effects": [],
            "flags": {},
            "img": "systems/pf2e/icons/default-icons/lore.svg",
            "name": "Intimidation",
            "sort": 900000,
            "type": "lore"
        },
        {
            "_id": "dgC9LAHvEPLznmzF",
            "data": {
                "description": {
                    "value": ""
                },
                "item": {
                    "value": 0
                },
                "mod": {
                    "value": 16
                },
                "proficient": {
                    "value": 0
                },
                "rules": [],
                "slug": null,
                "source": {
                    "value": ""
                },
                "traits": {
                    "custom": "",
                    "rarity": {
                        "value": "common"
                    },
                    "value": []
                }
            },
            "effects": [],
            "flags": {},
            "img": "systems/pf2e/icons/default-icons/lore.svg",
            "name": "Stealth",
            "sort": 1000000,
            "type": "lore"
        }
    ],
    "name": "Dune Candle",
    "token": {
        "disposition": -1,
        "height": 1,
        "img": "systems/pf2e/icons/default-icons/npc.svg",
        "name": "Dune Candle",
        "width": 1
    },
    "type": "npc"
}
