{
    "_id": "StqA0Lpk26G4Ux1l",
    "data": {
        "abilities": {
            "cha": {
                "mod": 4
            },
            "con": {
                "mod": 3
            },
            "dex": {
                "mod": 5
            },
            "int": {
                "mod": 1
            },
            "str": {
                "mod": 2
            },
            "wis": {
                "mod": 3
            }
        },
        "attributes": {
            "ac": {
                "details": "",
                "value": 22
            },
            "allSaves": {
                "value": ""
            },
            "hp": {
                "details": "",
                "max": 75,
                "temp": 0,
                "value": 75
            },
            "initiative": {
                "ability": "perception"
            },
            "perception": {
                "value": 12
            },
            "shield": {
                "ac": 0,
                "brokenThreshold": "0",
                "hardness": 0,
                "max": "0",
                "value": 0
            },
            "speed": {
                "otherSpeeds": [],
                "value": "25"
            }
        },
        "details": {
            "alignment": {
                "value": "LE"
            },
            "blurb": "",
            "creatureType": "",
            "level": {
                "value": 2
            },
            "privateNotes": "",
            "publicNotes": "",
            "source": {
                "value": "Pathfinder Society: Season 2"
            }
        },
        "resources": {},
        "saves": {
            "fortitude": {
                "saveDetail": "",
                "value": 9
            },
            "reflex": {
                "saveDetail": "",
                "value": 13
            },
            "will": {
                "saveDetail": "",
                "value": 12
            }
        },
        "traits": {
            "ci": [],
            "di": {
                "custom": "",
                "value": []
            },
            "dr": [],
            "dv": [],
            "languages": {
                "custom": "Shark Commune (150ft)",
                "selected": [],
                "value": [
                    "aquan",
                    "common"
                ]
            },
            "rarity": {
                "value": "uncommon"
            },
            "senses": {
                "value": "darkvision, wavesense 30ft"
            },
            "size": {
                "value": "med"
            },
            "traits": {
                "custom": "",
                "value": [
                    "amphibious",
                    "humanoid",
                    "sea devil"
                ]
            }
        }
    },
    "effects": [],
    "flags": {},
    "img": "systems/pf2e/icons/default-icons/npc.svg",
    "items": [
        {
            "_id": "zDKrTLcf6Tjd4AwJ",
            "data": {
                "attack": {
                    "value": ""
                },
                "attackEffects": {
                    "value": []
                },
                "bonus": {
                    "value": 15
                },
                "damageRolls": {
                    "cyvesw8kgwfcjingby60uv": {
                        "damage": "2d6",
                        "damageType": "precision"
                    },
                    "geq5ooeocri2uw8gvfiu6": {
                        "damage": "2d8+3",
                        "damageType": "piercing"
                    }
                },
                "description": {
                    "value": ""
                },
                "rules": [],
                "slug": null,
                "source": {
                    "value": ""
                },
                "traits": {
                    "custom": "",
                    "rarity": {
                        "value": "common"
                    },
                    "value": []
                },
                "weaponType": {
                    "value": "melee"
                }
            },
            "effects": [],
            "flags": {},
            "img": "systems/pf2e/icons/default-icons/melee.svg",
            "name": "Jaws",
            "sort": 100000,
            "type": "melee"
        },
        {
            "_id": "aVXDwK4mNVHOKuJd",
            "data": {
                "attack": {
                    "value": ""
                },
                "attackEffects": {
                    "value": []
                },
                "bonus": {
                    "value": 11
                },
                "damageRolls": {
                    "shgr43plhtjjmvjh9s7pm": {
                        "damage": "2d6",
                        "damageType": "precision"
                    },
                    "vcli6ektm5laxsg0hjcfa": {
                        "damage": "2d4+3",
                        "damageType": "slashing"
                    }
                },
                "description": {
                    "value": ""
                },
                "rules": [],
                "slug": null,
                "source": {
                    "value": ""
                },
                "traits": {
                    "custom": "",
                    "rarity": {
                        "value": "common"
                    },
                    "value": [
                        "agile",
                        "versatile-p"
                    ]
                },
                "weaponType": {
                    "value": "melee"
                }
            },
            "effects": [],
            "flags": {},
            "img": "systems/pf2e/icons/default-icons/melee.svg",
            "name": "Scalpel",
            "sort": 200000,
            "type": "melee"
        },
        {
            "_id": "CE6qvmo0zUHT641d",
            "data": {
                "actionCategory": {
                    "value": "defensive"
                },
                "actionType": {
                    "value": "reaction"
                },
                "actions": {
                    "value": null
                },
                "description": {
                    "value": "<p data-visibility=\"gm\"><strong>Trigger</strong><span class=\"fontstyle2\">An ally ends a move action adjacent to Sythi. </span></p>\n<p><strong>Effect</strong><span class=\"fontstyle2\">Sythi hides behind his ally. He Steps to another square adjacent to the triggering ally and gains a +2 circumstance bonus to his AC against the next attack that targets him. (Sythi only.)</span></p>"
                },
                "requirements": {
                    "value": ""
                },
                "rules": [],
                "slug": null,
                "source": {
                    "value": ""
                },
                "traits": {
                    "custom": "",
                    "rarity": {
                        "value": "common"
                    },
                    "value": []
                },
                "trigger": {
                    "value": ""
                },
                "weapon": {
                    "value": ""
                }
            },
            "effects": [],
            "flags": {},
            "img": "systems/pf2e/icons/actions/Reaction.webp",
            "name": "Sythi: Nervous Retreat",
            "sort": 300000,
            "type": "action"
        },
        {
            "_id": "JvRIHya9f8NVg95E",
            "data": {
                "actionCategory": {
                    "value": "offensive"
                },
                "actionType": {
                    "value": "passive"
                },
                "actions": {
                    "value": null
                },
                "description": {
                    "value": "<p>When the sea devil deals piercing or slashing damage, it also deals [[/r 1d4 #persistent bleed]] @Compendium[pf2e.conditionitems.Persistent Damage]{Persistent Bleed Damage} if the target was flat-footed or if the attack was a critical hit.</p>"
                },
                "requirements": {
                    "value": ""
                },
                "rules": [],
                "slug": null,
                "source": {
                    "value": ""
                },
                "traits": {
                    "custom": "",
                    "rarity": {
                        "value": "common"
                    },
                    "value": []
                },
                "trigger": {
                    "value": ""
                },
                "weapon": {
                    "value": ""
                }
            },
            "effects": [],
            "flags": {},
            "img": "systems/pf2e/icons/actions/Passive.webp",
            "name": "Bloodletting",
            "sort": 400000,
            "type": "action"
        },
        {
            "_id": "Fi9w21xip3Dxsry6",
            "data": {
                "actionCategory": {
                    "value": "offensive"
                },
                "actionType": {
                    "value": "passive"
                },
                "actions": {
                    "value": null
                },
                "description": {
                    "value": "<p>Rahla's scalpel is coated with a disorienting agent. The first creature she successfully hits with a scalpel strike must succeed on a <span data-pf2-check=\"fortitude\" data-pf2-dc=\"24\" data-pf2-label=\"Rahla: Applied Anesthesia DC\" data-pf2-show-dc=\"gm\">Fortitude</span> save or be sickened 1; this is a poison effect. (Rahla only.)</p>"
                },
                "requirements": {
                    "value": ""
                },
                "rules": [],
                "slug": null,
                "source": {
                    "value": ""
                },
                "traits": {
                    "custom": "",
                    "rarity": {
                        "value": "common"
                    },
                    "value": []
                },
                "trigger": {
                    "value": ""
                },
                "weapon": {
                    "value": ""
                }
            },
            "effects": [],
            "flags": {},
            "img": "systems/pf2e/icons/actions/Passive.webp",
            "name": "Rahla: Applied Anesthesia",
            "sort": 500000,
            "type": "action"
        },
        {
            "_id": "kifMfGaob9mMEDFB",
            "data": {
                "actionCategory": {
                    "value": ""
                },
                "actionType": {
                    "value": "passive"
                },
                "actions": {
                    "value": null
                },
                "description": {
                    "value": "<p>The sea devil can communicate telepathically with sharks within range. It can communicate only simple concepts like \"come,\" \"guard,\" or \"attack.\"</p>"
                },
                "requirements": {
                    "value": ""
                },
                "rules": [],
                "slug": null,
                "source": {
                    "value": ""
                },
                "traits": {
                    "custom": "Telepathy",
                    "rarity": {
                        "value": "common"
                    },
                    "value": [
                        "mental"
                    ]
                },
                "trigger": {
                    "value": ""
                },
                "weapon": {
                    "value": ""
                }
            },
            "effects": [],
            "flags": {},
            "img": "systems/pf2e/icons/actions/Passive.webp",
            "name": "Shark Commune",
            "sort": 600000,
            "type": "action"
        },
        {
            "_id": "IXTvncC4IXwo9AA5",
            "data": {
                "actionCategory": {
                    "value": ""
                },
                "actionType": {
                    "value": "free"
                },
                "actions": {
                    "value": null
                },
                "description": {
                    "value": "<p><strong>Requirements</strong><span class=\"fontstyle2\">The sea devil is not fatigued or already in a frenzy. </span></p>\n<p data-visibility=\"gm\"><strong>Trigger</strong><span class=\"fontstyle2\">The sea devil deals bleed damage to a living creature. </span></p>\n<p><strong>Effect</strong><span class=\"fontstyle2\">The sea devil flies into a frenzy that lasts 1 minute. While frenzied, the sea devil gains a +1 status bonus to attack rolls with its claws and jaws, gains a +4 status bonus to damage rolls with its claws and jaws, gains 15 temporary HP until the end of the frenzy, and takes a -2 status penalty to AC. The sea devil can't voluntarily stop its frenzy. After its frenzy, the sea devil is fatigued.</span></p>"
                },
                "requirements": {
                    "value": ""
                },
                "rules": [],
                "slug": null,
                "source": {
                    "value": ""
                },
                "traits": {
                    "custom": "",
                    "rarity": {
                        "value": "common"
                    },
                    "value": [
                        "rage"
                    ]
                },
                "trigger": {
                    "value": ""
                },
                "weapon": {
                    "value": ""
                }
            },
            "effects": [],
            "flags": {},
            "img": "systems/pf2e/icons/actions/FreeAction.webp",
            "name": "Blood Frenzy",
            "sort": 700000,
            "type": "action"
        },
        {
            "_id": "V725DltsiUGNUBXs",
            "data": {
                "actionCategory": {
                    "value": ""
                },
                "actionType": {
                    "value": "passive"
                },
                "actions": {
                    "value": null
                },
                "description": {
                    "value": "<p>Odru's faith extends her wavesense to a range of 60 feet and allows it to function equally well in clouds of water droplets or vapor, such as mist. (Odru only.)</p>"
                },
                "requirements": {
                    "value": ""
                },
                "rules": [],
                "slug": null,
                "source": {
                    "value": ""
                },
                "traits": {
                    "custom": "",
                    "rarity": {
                        "value": "common"
                    },
                    "value": []
                },
                "trigger": {
                    "value": ""
                },
                "weapon": {
                    "value": ""
                }
            },
            "effects": [],
            "flags": {},
            "img": "systems/pf2e/icons/actions/Passive.webp",
            "name": "Odru: Wind and Wavesense",
            "sort": 800000,
            "type": "action"
        },
        {
            "_id": "jTOSoA7A82Bi29JW",
            "data": {
                "description": {
                    "value": ""
                },
                "item": {
                    "value": 0
                },
                "mod": {
                    "value": 13
                },
                "proficient": {
                    "value": 0
                },
                "rules": [],
                "slug": null,
                "source": {
                    "value": ""
                },
                "traits": {
                    "custom": "",
                    "rarity": {
                        "value": "common"
                    },
                    "value": []
                }
            },
            "effects": [],
            "flags": {},
            "img": "systems/pf2e/icons/default-icons/lore.svg",
            "name": "Acrobatics",
            "sort": 900000,
            "type": "lore"
        },
        {
            "_id": "8Vc4jeAs2sANAXou",
            "data": {
                "description": {
                    "value": ""
                },
                "item": {
                    "value": 0
                },
                "mod": {
                    "value": 11
                },
                "proficient": {
                    "value": 0
                },
                "rules": [],
                "slug": null,
                "source": {
                    "value": ""
                },
                "traits": {
                    "custom": "",
                    "rarity": {
                        "value": "common"
                    },
                    "value": []
                }
            },
            "effects": [],
            "flags": {},
            "img": "systems/pf2e/icons/default-icons/lore.svg",
            "name": "Athletics",
            "sort": 1000000,
            "type": "lore"
        },
        {
            "_id": "zMkrUyvGHANInOOb",
            "data": {
                "description": {
                    "value": ""
                },
                "item": {
                    "value": 0
                },
                "mod": {
                    "value": 15
                },
                "proficient": {
                    "value": 0
                },
                "rules": [],
                "slug": null,
                "source": {
                    "value": ""
                },
                "traits": {
                    "custom": "",
                    "rarity": {
                        "value": "common"
                    },
                    "value": []
                }
            },
            "effects": [],
            "flags": {},
            "img": "systems/pf2e/icons/default-icons/lore.svg",
            "name": "Deception",
            "sort": 1100000,
            "type": "lore"
        },
        {
            "_id": "aR8eNHvXV1PYW3mv",
            "data": {
                "description": {
                    "value": ""
                },
                "item": {
                    "value": 0
                },
                "mod": {
                    "value": 11
                },
                "proficient": {
                    "value": 0
                },
                "rules": [],
                "slug": null,
                "source": {
                    "value": ""
                },
                "traits": {
                    "custom": "",
                    "rarity": {
                        "value": "common"
                    },
                    "value": []
                }
            },
            "effects": [],
            "flags": {},
            "img": "systems/pf2e/icons/default-icons/lore.svg",
            "name": "Intimidation",
            "sort": 1200000,
            "type": "lore"
        },
        {
            "_id": "sMirROpV3dbAldMx",
            "data": {
                "description": {
                    "value": ""
                },
                "item": {
                    "value": 0
                },
                "mod": {
                    "value": 13
                },
                "proficient": {
                    "value": 0
                },
                "rules": [],
                "slug": null,
                "source": {
                    "value": ""
                },
                "traits": {
                    "custom": "",
                    "rarity": {
                        "value": "common"
                    },
                    "value": []
                }
            },
            "effects": [],
            "flags": {},
            "img": "systems/pf2e/icons/default-icons/lore.svg",
            "name": "Medicine",
            "sort": 1300000,
            "type": "lore"
        },
        {
            "_id": "mSPRPN6lrM4CFmJc",
            "data": {
                "description": {
                    "value": ""
                },
                "item": {
                    "value": 0
                },
                "mod": {
                    "value": 13
                },
                "proficient": {
                    "value": 0
                },
                "rules": [],
                "slug": null,
                "source": {
                    "value": ""
                },
                "traits": {
                    "custom": "",
                    "rarity": {
                        "value": "common"
                    },
                    "value": []
                }
            },
            "effects": [],
            "flags": {},
            "img": "systems/pf2e/icons/default-icons/lore.svg",
            "name": "Stealth",
            "sort": 1400000,
            "type": "lore"
        }
    ],
    "name": "The Saboteur (5-6)",
    "token": {
        "disposition": -1,
        "height": 1,
        "img": "systems/pf2e/icons/default-icons/npc.svg",
        "name": "The Saboteur",
        "width": 1
    },
    "type": "npc"
}
