{
    "_id": "l7WhZMoYlQC8lELj",
    "data": {
        "attributes": {
            "ac": {
                "value": 0
            },
            "hardness": 0,
            "hasHealth": true,
            "hp": {
                "details": "",
                "max": 10,
                "temp": 0,
                "tempmax": 0,
                "value": 10
            },
            "stealth": {
                "details": "(Legendary)",
                "value": 40
            }
        },
        "creatureType": "",
        "customModifiers": {},
        "details": {
            "description": "A massive storm stirs in the skies above Breachill and Citadel Altaerein. As specific events begin during the three waves of the manifestation's retribution, the dragonstorm wreaks localized havoc.",
            "disable": "The dragonstorm can't be disabled-only endured. It ends only once the attack on Breachill and Citadel Altaerein is over.",
            "isComplex": false,
            "level": {
                "value": 18
            },
            "reset": "",
            "routine": ""
        },
        "saves": {
            "fortitude": {
                "saveDetail": "",
                "value": 0
            },
            "reflex": {
                "saveDetail": "",
                "value": 0
            },
            "will": {
                "saveDetail": "",
                "value": 0
            }
        },
        "source": {
            "value": ""
        },
        "statusEffects": [],
        "traits": {
            "ci": [],
            "di": {
                "custom": "",
                "selected": {},
                "value": []
            },
            "dr": [],
            "dv": [],
            "rarity": {
                "value": "common"
            },
            "size": {
                "value": "med"
            },
            "traits": {
                "custom": "Rare",
                "value": [
                    "environmental",
                    "magical"
                ]
            }
        }
    },
    "effects": [],
    "flags": {},
    "img": "systems/pf2e/icons/default-icons/hazard.svg",
    "items": [
        {
            "_id": "XzC7Tpe9v9HjnSor",
            "data": {
                "actionCategory": {
                    "value": ""
                },
                "actionType": {
                    "value": "reaction"
                },
                "actions": {
                    "value": null
                },
                "description": {
                    "value": "<p data-visibility=\"gm\"><strong>Trigger</strong>: A new wave begins;</p>\n<p><strong>Effect</strong>: Roll [[/r 1d10]] to determine which effect manifests from the following possibilities. The placement of these effects is guided by Dahak's will, and they should manifest in the most detrimental locations possible to the PCs.</p>"
                },
                "requirements": {
                    "value": ""
                },
                "rules": [],
                "slug": null,
                "source": {
                    "value": ""
                },
                "traits": {
                    "custom": "",
                    "rarity": {
                        "value": "common"
                    },
                    "selected": {
                        "air": "Air"
                    },
                    "value": [
                        "air"
                    ]
                },
                "trigger": {
                    "value": ""
                },
                "weapon": {
                    "value": ""
                }
            },
            "effects": [],
            "flags": {},
            "img": "systems/pf2e/icons/actions/Reaction.webp",
            "name": "Localized Dragonstorm",
            "sort": 100000,
            "type": "action"
        },
        {
            "_id": "0dYMOi8x5GT5a1Yq",
            "data": {
                "actionCategory": {
                    "value": ""
                },
                "actionType": {
                    "value": "passive"
                },
                "actions": {
                    "value": null
                },
                "description": {
                    "value": "<p>A torrent of acid drenches creatures in a 20-foot burst. Creatures in the area take [[/r {6d10}[acid]]]{6d10 acid damage} (<span data-pf2-check=\"reflex\" data-pf2-dc=\"42\" data-pf2-traits=\"acid,damaging-effect\" data-pf2-label=\"1-2 Acid Rain DC\" data-pf2-show-dc=\"gm\">basic Reflex</span> save). Creatures that critically fail also take [[/r 5 #persistent acid]] @Compendium[pf2e.conditionitems.Persistent Damage]{Persistent Acid Damage}.</p>"
                },
                "requirements": {
                    "value": ""
                },
                "rules": [],
                "slug": null,
                "source": {
                    "value": ""
                },
                "traits": {
                    "custom": "",
                    "rarity": {
                        "value": "common"
                    },
                    "selected": {
                        "acid": "Acid"
                    },
                    "value": [
                        "acid"
                    ]
                },
                "trigger": {
                    "value": ""
                },
                "weapon": {
                    "value": ""
                }
            },
            "effects": [],
            "flags": {},
            "img": "systems/pf2e/icons/actions/Passive.webp",
            "name": "1-2 Acid Rain",
            "sort": 200000,
            "type": "action"
        },
        {
            "_id": "2tkYDAIULPFGgxZg",
            "data": {
                "actionCategory": {
                    "value": ""
                },
                "actionType": {
                    "value": "passive"
                },
                "actions": {
                    "value": null
                },
                "description": {
                    "value": "<p>A barrage of freezing wind and hail assaults all creatures in a 20-foot burst. Creatures in the area take [[/r {3d10}[cold]]]{3d10 cold damage} and [[/r {3d10}[bludgeoning]]]{3d10 bludgeoning damage} (<span data-pf2-check=\"reflex\" data-pf2-dc=\"42\" data-pf2-traits=\"cold,damaging-effect\" data-pf2-label=\"3-4 Freezing Wind DC\" data-pf2-show-dc=\"gm\">basic Reflex</span> save). Creatures that critically fail are @Compendium[pf2e.conditionitems.Slowed]{Slowed 1} for 1 round.</p>"
                },
                "requirements": {
                    "value": ""
                },
                "rules": [],
                "slug": null,
                "source": {
                    "value": ""
                },
                "traits": {
                    "custom": "",
                    "rarity": {
                        "value": "common"
                    },
                    "selected": {
                        "cold": "Cold"
                    },
                    "value": [
                        "cold"
                    ]
                },
                "trigger": {
                    "value": ""
                },
                "weapon": {
                    "value": ""
                }
            },
            "effects": [],
            "flags": {},
            "img": "systems/pf2e/icons/actions/Passive.webp",
            "name": "3-4 Freezing Wind",
            "sort": 300000,
            "type": "action"
        },
        {
            "_id": "tmioSSIeBsfcu9eY",
            "data": {
                "actionCategory": {
                    "value": ""
                },
                "actionType": {
                    "value": "passive"
                },
                "actions": {
                    "value": null
                },
                "description": {
                    "value": "<p>Several bolts of lightning strike all creatures in a 20-foot burst. Creatures in the area take [[/r {6d10}[electricity]]]{6d10 electricity damage} (<span data-pf2-check=\"reflex\" data-pf2-dc=\"42\" data-pf2-traits=\"electricity,damaging-effect\" data-pf2-label=\"5-6 Bolts of Lightning DC\" data-pf2-show-dc=\"gm\">basic Reflex</span> save). Creatures that critically fail their saves become @Compendium[pf2e.conditionitems.Blinded]{Blinded} and @Compendium[pf2e.conditionitems.Deafened]{Deafened} for 1 round.</p>"
                },
                "requirements": {
                    "value": ""
                },
                "rules": [],
                "slug": null,
                "source": {
                    "value": ""
                },
                "traits": {
                    "custom": "",
                    "rarity": {
                        "value": "common"
                    },
                    "selected": {
                        "electricity": "Electricity"
                    },
                    "value": [
                        "electricity"
                    ]
                },
                "trigger": {
                    "value": ""
                },
                "weapon": {
                    "value": ""
                }
            },
            "effects": [],
            "flags": {},
            "img": "systems/pf2e/icons/actions/Passive.webp",
            "name": "5-6 Bolts of Lightning",
            "sort": 400000,
            "type": "action"
        },
        {
            "_id": "xN7xuZd6V7GrLGii",
            "data": {
                "actionCategory": {
                    "value": ""
                },
                "actionType": {
                    "value": "passive"
                },
                "actions": {
                    "value": null
                },
                "description": {
                    "value": "<p>Gouts of flame fall on all creatures in a 20-foot burst. Creatures in the area take [[/r {6d10}[fire]]]{6d10 fire damage} (<span data-pf2-check=\"reflex\" data-pf2-dc=\"42\" data-pf2-traits=\"fire,damaging-effect\" data-pf2-label=\"7-8 Flaming Vortex DC\" data-pf2-show-dc=\"gm\">basic Reflex</span> save). Creatures that critically fail their saves also take [[/r 5 #persistent fire]] @Compendium[pf2e.conditionitems.Persistent Damage]{Persistent Fire Damage}.</p>"
                },
                "requirements": {
                    "value": ""
                },
                "rules": [],
                "slug": null,
                "source": {
                    "value": ""
                },
                "traits": {
                    "custom": "",
                    "rarity": {
                        "value": "common"
                    },
                    "selected": {
                        "fire": "Fire"
                    },
                    "value": [
                        "fire"
                    ]
                },
                "trigger": {
                    "value": ""
                },
                "weapon": {
                    "value": ""
                }
            },
            "effects": [],
            "flags": {},
            "img": "systems/pf2e/icons/actions/Passive.webp",
            "name": "7-8 Flaming Vortex",
            "sort": 500000,
            "type": "action"
        },
        {
            "_id": "yRzCy4eBcJG8ydmJ",
            "data": {
                "actionCategory": {
                    "value": ""
                },
                "actionType": {
                    "value": "passive"
                },
                "actions": {
                    "value": null
                },
                "description": {
                    "value": "<p>Poisonous mist rolls forth, covering a 20-foot burst for 1 round. Creatures within the mist become @Compendium[pf2e.conditionitems.Concealed]{Concealed}, and creatures outside it become concealed to creatures within it. Creatures within the mist take [[/r {6d10}[poison]]]{6d10 poison damage} (<span data-pf2-check=\"fortitude\" data-pf2-dc=\"42\" data-pf2-traits=\"poison,damaging-effect\" data-pf2-label=\"9-10 Poison Miasma DC\" data-pf2-show-dc=\"gm\">basic Fortitude</span> save). Creatures that critically fail their saves become @Compendium[pf2e.conditionitems.Enfeebled]{Enfeebled 2}.</p>"
                },
                "requirements": {
                    "value": ""
                },
                "rules": [],
                "slug": null,
                "source": {
                    "value": ""
                },
                "traits": {
                    "custom": "",
                    "rarity": {
                        "value": "common"
                    },
                    "selected": {
                        "poison": "Poison"
                    },
                    "value": [
                        "poison"
                    ]
                },
                "trigger": {
                    "value": ""
                },
                "weapon": {
                    "value": ""
                }
            },
            "effects": [],
            "flags": {},
            "img": "systems/pf2e/icons/actions/Passive.webp",
            "name": "9-10 Poison Miasma",
            "sort": 600000,
            "type": "action"
        }
    ],
    "name": "Dragonstorm",
    "token": {
        "disposition": 0,
        "height": 1,
        "img": "systems/pf2e/icons/default-icons/hazard.svg",
        "name": "Dragonstorm",
        "width": 1
    },
    "type": "hazard"
}
