{
    "_id": "EaNgK8fG3Fur9uzp",
    "content": "<table class=\"pf2-table\">\n<thead>\n<tr>\n<th>\n<h3><strong>Name</strong></h3>\n</th>\n<th>\n<h3><strong>Crit Effect</strong></h3>\n</th>\n<th>\n<h3><strong>Type</strong></h3>\n</th>\n</tr>\n</thead>\n<tbody>\n<tr>\n<td>And stay Down</td>\n<td>Normal damage. The target is knocked prone and stunned 2.</td>\n<td>\n<h3>Bludgeoning</h3>\n</td>\n</tr>\n<tr>\n<td>Ventilated</td>\n<td>Triple damage.</td>\n<td>\n<h3>Piercing</h3>\n</td>\n</tr>\n<tr>\n<td>Knockback</td>\n<td>Push the target up to 10 feet.</td>\n<td>\n<h3>Slashing</h3>\n</td>\n</tr>\n<tr>\n<td>Frozen</td>\n<td>If this is a cold bomb or spell, the target takes triple damage and is slowed 2 for 1 round. Any other bomb or spell deals double damage.</td>\n<td>\n<h3>Bomb or Spell</h3>\n</td>\n</tr>\n</tbody>\n</table>\n<h3 style=\"text-align: left;\"> </h3>",
    "flags": {},
    "name": "Critical Hit Deck #17",
    "permission": {
        "default": 0
    }
}
