{
    "_id": "A0gsgMjgDpkOXtYp",
    "content": "<table class=\"pf2-table\">\n<thead>\n<tr>\n<th>\n<h3><strong>Name</strong></h3>\n</th>\n<th>\n<h3><strong>Crit Effect</strong></h3>\n</th>\n<th>\n<h3><strong>Type</strong></h3>\n</th>\n</tr>\n</thead>\n<tbody>\n<tr>\n<td>\n<h3>Crushed Toe</h3>\n</td>\n<td>\n<h3>Normal damage. The target is clumsy 2 and takes a -10-foot status penalty to land Speed. Both effects last until healed.</h3>\n</td>\n<td>\n<h3>Bludgeoning</h3>\n</td>\n</tr>\n<tr>\n<td>\n<h3>Stinger</h3>\n</td>\n<td>\n<h3>Normal damage. The target is sickened 3.</h3>\n</td>\n<td>\n<h3>Piercing</h3>\n</td>\n</tr>\n<tr>\n<td>\n<h3>Missing Digits</h3>\n</td>\n<td>\n<h3>Normal damage. The target loses 1d4 fingers on one hand and becomes clumsy 1 until subject to regeneration spell or similar effect.</h3>\n</td>\n<td>\n<h3>Slashing</h3>\n</td>\n</tr>\n<tr>\n<td>\n<h3>Strange Goo</h3>\n</td>\n<td>\n<h3>Normal damage and the target is restrained, using your class DC as the DC to Escape.</h3>\n</td>\n<td>\n<h3>Bomb or Spell</h3>\n</td>\n</tr>\n</tbody>\n</table>\n<h3 style=\"text-align: left;\"> </h3>",
    "flags": {},
    "name": "Critical Hit Deck #12",
    "permission": {
        "default": 0
    }
}
