{
    "_id": "eVEZLDyvu2tqiYZn",
    "content": "<table class=\"pf2-table\">\n<thead>\n<tr>\n<th>\n<h3><strong>Name</strong></h3>\n</th>\n<th>\n<h3><strong>Crit Effect</strong></h3>\n</th>\n<th>\n<h3><strong>Type</strong></h3>\n</th>\n</tr>\n</thead>\n<tbody>\n<tr>\n<td>\n<h3>Skull Crush</h3>\n</td>\n<td>\n<h3>The target is stupefied 3 until healed.</h3>\n</td>\n<td>\n<h3>Bludgeoning</h3>\n</td>\n</tr>\n<tr>\n<td>\n<h3>hand Wound</h3>\n</td>\n<td>\n<h3>Until healed, the target is clumsy 2 and can't use one of its hands (determined randomly by the GM).</h3>\n</td>\n<td>\n<h3>Piercing</h3>\n</td>\n</tr>\n<tr>\n<td>\n<h3>Broad Swipe</h3>\n</td>\n<td>\n<h3>The target takes 1d4 persistent bleed damage.</h3>\n</td>\n<td>\n<h3>Slashing</h3>\n</td>\n</tr>\n<tr>\n<td>\n<h3>Lingering Damage</h3>\n</td>\n<td>\n<h3>The target takes 1d6 persistent damage of the same type as the bomb or spell's damage.</h3>\n</td>\n<td>\n<h3>Bomb or Spell</h3>\n</td>\n</tr>\n</tbody>\n</table>\n<h3 style=\"text-align: left;\"> </h3>",
    "flags": {},
    "name": "Critical Hit Deck #28",
    "permission": {
        "default": 0
    }
}
