{
    "_id": "Ps9VYxI2zJPG6PEV",
    "content": "<table class=\"pf2-table\">\n<thead>\n<tr>\n<th>\n<h3><strong>Name</strong></h3>\n</th>\n<th>\n<h3><strong>Crit Effect</strong></h3>\n</th>\n<th>\n<h3><strong>Type</strong></h3>\n</th>\n</tr>\n</thead>\n<tbody>\n<tr>\n<td>Wide Open</td>\n<td>You are flat-footed until the end of your next turn.</td>\n<td>\n<h3>Melee</h3>\n</td>\n</tr>\n<tr>\n<td>Cracked</td>\n<td>The ranged weapon (not the ammunition) you are using takes 1d6 damage, ignoring Hardness.</td>\n<td>\n<h3>Ranged</h3>\n</td>\n</tr>\n<tr>\n<td>Fist meet Face</td>\n<td>You critically hit yourself with the attack.</td>\n<td>\n<h3>Unarmed</h3>\n</td>\n</tr>\n<tr>\n<td>Distance Rift</td>\n<td>You are teleported to the nearest space adjacent to your spell's target.</td>\n<td>\n<h3>Spell</h3>\n</td>\n</tr>\n</tbody>\n</table>\n<h3 style=\"text-align: left;\"> </h3>",
    "flags": {},
    "name": "Critical Fumble Deck #22",
    "permission": {
        "default": 0
    }
}
