{
    "_id": "QR3e1uCNURvxDzbV",
    "content": "<table class=\"pf2-table\">\n<thead>\n<tr>\n<th>\n<h3><strong>Name</strong></h3>\n</th>\n<th>\n<h3><strong>Crit Effect</strong></h3>\n</th>\n<th>\n<h3><strong>Type</strong></h3>\n</th>\n</tr>\n</thead>\n<tbody>\n<tr>\n<td>\n<h3>Tiring Blow</h3>\n</td>\n<td>\n<h3>The target is fatigued.</h3>\n</td>\n<td>\n<h3>Bludgeoning</h3>\n</td>\n</tr>\n<tr>\n<td>\n<h3>Leg Wound</h3>\n</td>\n<td>\n<h3>The target takes a -5-foot status penalty to its land Speed until healed.</h3>\n</td>\n<td>\n<h3>Piercing</h3>\n</td>\n</tr>\n<tr>\n<td>\n<h3>Spun Around</h3>\n</td>\n<td>\n<h3>The target is flat-footed until the end of its next turn.</h3>\n</td>\n<td>\n<h3>Slashing</h3>\n</td>\n</tr>\n<tr>\n<td>\n<h3>Time Vortex</h3>\n</td>\n<td>\n<h3>If this is a spell, normal damage and the target vanished and reappears [[/r 1d4 #rounds]]{1d4 rounds} later. The target can use no actions, and any effects it has with durations do not pass while it's gone.</h3>\n</td>\n<td>\n<h3>Bomb or Spell</h3>\n</td>\n</tr>\n</tbody>\n</table>\n<h3 style=\"text-align: left;\"> </h3>",
    "flags": {},
    "name": "Critical Hit Deck #50",
    "permission": {
        "default": 0
    }
}
