{
    "_id": "izvfZ561JTdeyh6i",
    "data": {
        "actionCategory": {
            "value": "offensive"
        },
        "actionType": {
            "value": "action"
        },
        "actions": {
            "value": 3
        },
        "description": {
            "value": "<p><strong>Cost</strong> 3 batches of infused reagents;</p>\n<p><strong>Effect</strong> Chaos fills a <span data-pf2-effect-area=\"burst\" data-pf2-distance=\"20\" data-pf2-traits=\"fire, sonic, visual\">20-foot burst</span> within 120 feet. All creatures in the area takes [[/r {3d6}[fire] + {3d6}[sonic]]]{3d6 fire damage and 3d6 sonic damage} and must attempt a Fortitude save. A goblin jubilee display costs 3 batches of infused reagents, rather than 1.</p>\n<hr />\n<p><strong>Critical Success</strong> The creature is unaffected.</p>\n<p><strong>Success</strong> The creature is @Compendium[pf2e.conditionitems.Dazzled]{Dazzled} and @Compendium[pf2e.conditionitems.Deafened]{Deafened} until the end of its next turn and takes half damage.</p>\n<p><strong>Failure</strong> The creature is dazzled and deafened for 1 minute and takes full damage.</p>\n<p><strong>Critical Failure</strong> The creature is @Compendium[pf2e.conditionitems.Blinded]{Blinded} for 1 round, dazzled and deafened for 1 minute, and takes double damage.</p>"
        },
        "requirements": {
            "value": ""
        },
        "rules": [],
        "source": {
            "value": ""
        },
        "traits": {
            "custom": "",
            "rarity": {
                "value": "common"
            },
            "value": [
                "fire",
                "sonic",
                "visual"
            ]
        },
        "trigger": {
            "value": ""
        }
    },
    "effects": [],
    "flags": {},
    "img": "systems/pf2e/icons/actions/ThreeActions.webp",
    "name": "Goblin Jubilee",
    "type": "action"
}
