{
    "_id": "QDW9H8XLIjuW2fE4",
    "data": {
        "actionCategory": {
            "value": "offensive"
        },
        "actionType": {
            "value": "action"
        },
        "actions": {
            "value": 2
        },
        "description": {
            "value": "<p><strong>Frequency</strong> until recharged (see below)</p>\n<hr />\n<p>You channel a spell into a punch or sword thrust to deliver a combined attack. You Cast a Spell that takes 1 or 2 actions to cast and requires a spell attack roll. The effects of the spell don't occur immediately but are imbued into your attack instead. Make a melee Strike with a weapon or unarmed attack. Your spell is coupled with your attack, using your attack roll result to determine the effects of both the Strike and the spell. This counts as two attacks for your multiple attack penalty, but you don't apply the penalty until after you've completed the Spellstrike. The infusion of spell energy grants your Strike the arcane trait, making it magical.</p>\n<p>After you use Spellstrike, you can't do so again until you recharge your Spellstrike as a single action, which has the concentrate trait. You also recharge your Spellstrike when you cast a conflux spell that takes at least 1 action to cast; casting a focus spell of another type doesn't recharge your Spellstrike.</p>"
        },
        "requirements": {
            "value": ""
        },
        "rules": [],
        "source": {
            "value": ""
        },
        "traits": {
            "custom": "",
            "rarity": {
                "value": "common"
            },
            "value": [
                "magus"
            ]
        },
        "trigger": {
            "value": ""
        },
        "weapon": {
            "value": ""
        }
    },
    "effects": [],
    "flags": {},
    "img": "systems/pf2e/icons/actions/TwoActions.webp",
    "name": "Spellstrike",
    "type": "action"
}
