{
    "_id": "SbYcOry1cxbndSve",
    "data": {
        "description": {
            "value": "<p>You animate the silkspinner's shield. Eight spider legs sprout from the shield's rim, granting you a climb Speed of 25 feet until the end of your next turn.</p>"
        },
        "duration": {
            "expiry": "turn-end",
            "sustained": false,
            "unit": "rounds",
            "value": 1
        },
        "level": {
            "value": 1
        },
        "rules": [
            {
                "key": "BaseSpeed",
                "selector": "climb",
                "value": 25
            }
        ],
        "source": {
            "value": ""
        },
        "start": {
            "initiative": null,
            "value": 0
        },
        "target": null,
        "tokenIcon": {
            "show": false
        },
        "traits": {
            "custom": "",
            "rarity": {
                "value": "common"
            },
            "value": []
        }
    },
    "effects": [],
    "flags": {},
    "img": "systems/pf2e/icons/default-icons/effect.svg",
    "name": "Effect: Silkspinner's Shield (Climb)",
    "type": "effect"
}
