{
    "_id": "E4B02mJmNexQLa8F",
    "data": {
        "description": {
            "value": "<p>Granted by @Compendium[pf2e.equipment-srd.Inspiring Spotlight]{Inspiring Spotlight}.</p>\n<p>Automatically applied effects:</p>\n<ul>\n<li>+1 item bonus to saving throws</li>\n<li>+1 item bonus to Charisma-based skill checks (Diplomacy, Deception, Intimidation, Performance)</li>\n</ul>"
        },
        "duration": {
            "expiry": "turn-start",
            "sustained": false,
            "unit": "minutes",
            "value": 1
        },
        "level": {
            "value": 9
        },
        "rules": [
            {
                "key": "FlatModifier",
                "selector": "saving-throw",
                "type": "item",
                "value": 1
            },
            {
                "key": "FlatModifier",
                "selector": "deception",
                "type": "item",
                "value": 1
            },
            {
                "key": "FlatModifier",
                "selector": "diplomacy",
                "type": "item",
                "value": 1
            },
            {
                "key": "FlatModifier",
                "selector": "intimidation",
                "type": "item",
                "value": 1
            },
            {
                "key": "FlatModifier",
                "selector": "performance",
                "type": "item",
                "value": 1
            }
        ],
        "source": {
            "value": ""
        },
        "start": {
            "initiative": null,
            "value": 0
        },
        "target": null,
        "tokenIcon": {
            "show": true
        },
        "traits": {
            "custom": "",
            "rarity": {
                "value": "common"
            },
            "value": []
        }
    },
    "effects": [],
    "flags": {},
    "img": "systems/pf2e/icons/equipment/held-items/inspiring-spotlight.webp",
    "name": "Effect: Inspiring Spotlight",
    "type": "effect"
}
