{
    "_id": "zRmAXj7FSlrMfDeA",
    "content": "<h1>Bastet (The Sly Enchantress) [CN]</h1><p>Bastet is the patron of rogues and bards. She is particularly popular among women, and most of her clerics are female. They usually keep cats as pets, and when these cats die, they are mummified and buried with their owners.</p><p></span><strong>Edicts</strong> Learn secrets, tempt others into revelry, kill harmful snakes and evil spirits, heal diseases</p><p><strong>Anathema</strong> Kill or abuse a house cat, abandon a child, choose to marry</p><p><strong>Follower Alignments</strong> CG, N, CN</span></p><p></span></p><h2>Devotee Benefits</h2><div><div><strong>Divine Ability</strong> Intelligence or Charisma</div><div><strong>Divine Font</strong> heal</div><div><strong>Divine Skill</strong> Deception</div><div><strong>Favored Weapon</strong> claw or tekko-kagi</div><div><strong>Domains</strong> nature, passion, protection, trickery</div><div><strong>Cleric Spells</strong> 1st: pest form (cats only), 3rd: animal vision, 4th: private sanctum</div></div>",
    "flags": {},
    "name": "Bastet",
    "permission": {
        "default": 0
    }
}
