{
    "_id": "WvoMr86bSSYxXKtI",
    "content": "<h1>Hastur (The King in Yellow) [CE]</h1><p><strong>Hastur</strong> is a Great Old One who, though confined to the city of Carcosa on a planet orbiting a faraway star, is nevertheless in the midst of a transformation into a true Outer God. He works toward this feat through his avatar, the King in Yellow, which can manifest anywhere in the universe the light from Carcosa's sun can be seen. The King in Yellow appears as a humanoid figure draped in yellow clothing, but there is nothing within the clothes save a shapeless, horrifying presence. Hastur himself is also referred to as Him Who Is Not To Be Named, or simply the Unspeakable.</p><p>Self-indulgence and nihilism are at the heart of Hastur's worship, and he is popular among debauched artists and nobles who recognize no purpose to life other than gratifying their own increasingly grotesque and outlandish tastes. Cults of Hastur are united in their use of the Yellow Sign, a triskelion design that allows Hastur to observe and possess those who gaze upon it. The presence of the Yellow Sign among a city's graffiti is a foreboding indication that Hastur's attention has been drawn there, and these settlements soon find themselves under attack either by Hastur himself-who seeks to draw cities into Carcosa, fueling his transformation into an Outer God-or by @Compendium[pf2e.deities.Xhamen-Dor]{Xhamen-Dor}, a parasitic deity spawned by Hastur as he walked Carcosa's sewers.</p><p><strong>Edicts</strong> Spread Hastur's Yellow Sign, hide the true nature of your worship, promulgate the play The King in Yellow</p><p><strong>Anathema</strong> None</p><p><strong>Follower Alignments</strong> NE, CE</span></p><p></span></p><h2>Devotee Benefits</h2><div><div><strong>Divine Ability</strong> Intelligence or Charisma</div><div><strong>Divine Font</strong> harm</div><div><strong>Divine Skill</strong> Deception</div><div><strong>Favored Weapon</strong> rapier</div><div><strong>Domains</strong> glyph, secrecy, void, wealth</div><div><strong>Cleric Spells</strong> 1st: illusory disguise, 4th: confusion, 5th: hallucination</div></div>",
    "flags": {},
    "name": "Hastur",
    "permission": {
        "default": 0
    }
}
