{
    "_id": "gsFaxWHbZmc1moY6",
    "content": "<h1>Nalinivati (The Serpent's Kiss) [N]</h1><p><strong>Edicts</strong> Seek out magic and use it, use poison, heal poisons, bear or adopt children, raise snakes</p><p><strong>Anathema</strong> Kill a harmless snake or swan, spurn friends due to jealousy or romantic competition, betray your offspring, separate lovers</p><p><strong>Follower Alignments</strong> NG, LN, N, NE</span></p><p></span></p><h2>Devotee Benefits</h2><div><div><strong>Divine Ability</strong> Wisdom or Charisma</div><div><strong>Divine Font</strong> harm or heal</div><div><strong>Divine Skill</strong> Arcana</div><div><strong>Favored Weapon</strong> jaws or urumi</div><div><strong>Domains</strong> glyph, magic, passion, wyrmkin</div><div><strong>Cleric Spells</strong> 1st: charm, 2nd: invisibility, 3rd: lightning bolt, 4th: reflective scales, 5th: subconscious suggestion, 6th: mislead, 7th: contingency, 8th: scintillating pattern, 9th: storm of vengeance</div></div>",
    "flags": {},
    "name": "Nalinivati",
    "permission": {
        "default": 0
    }
}
