{
    "_id": "xTD0XFaguBX6QQ2L",
    "content": "<h1>Selket (Mistress of the Beautiful House) [CG]</h1><p><strong>Edicts</strong> Avenge the wronged, protect the dead and the vulnerable, use poison and suffocation, heal others</p><p><strong>Anathema</strong> Poison someone you didn't intend to, harm a creature as punishment for a different creature's crime, desecrate a corpse</p><p><strong>Follower Alignments</strong> NG, CG, CN</span></p><p></span></p><h2>Devotee Benefits</h2><div><div><strong>Divine Ability</strong> Dexterity or Wisdom</div><div><strong>Divine Font</strong> heal</div><div><strong>Divine Skill</strong> Medicine</div><div><strong>Favored Weapon</strong> whip</div><div><strong>Domains</strong> healing, magic, nature, protection</div><div><strong>Cleric Spells</strong> 1st: soothe, 3rd: paralyze, 6th: purple worm sting</div></div>",
    "flags": {},
    "name": "Selket",
    "permission": {
        "default": 0
    }
}
