{
    "_id": "iEt6idGIEPXY2HzV",
    "content": "<h1>Ydajisk (Mother of Tongues) [CN]</h1><p>The protean lord of language evolution, lost words, and slang, Ydajisk manifests as a protean with six arms and a cobra's hood, surrounded by a cloud of drifting sounds, symbols, shapes, and myriad other sensory experiences that shift endlessly in and out of existence. Closer inspection reveals that their body is made from interlacing strands of poetic protean script. Ydajisk is also called the Mother of Tongues, though like all proteans, their gender changes as they will. Followers of Ydajisk are wanderers, reviving dead languages from ancient ruins, chronicling the dying tongues of cultures in decline, and discovering or inventing new words. All such knowledge acquired by agents of the Mother of Tongues passes into Ydajisk's realm, the Library of Stolen Words, where it is transcribed into books or stored in magical containers, alongside scrolls and tomes considered long lost by mortal scholars.</p><p><strong>Edicts</strong> Create using words, chronicle languages and prevent them from dying, help language evolve</p><p><strong>Anathema</strong> Ban or discourage a language, explain a secret language or slang to outsiders, destroy literary works</p><p><strong>Areas of Concern</strong> language evolution, lost words, and slang</p><p><strong>Follower Alignments</strong> CG, CN, CE</span></p><h2>Devotee Benefits</h2><div><div><strong>Divine Ability</strong> Intelligence or Charisma</div><div><strong>Divine Font</strong> harm or heal</div><div><strong>Divine Skill</strong> Society</div><div><strong>Favored Weapon</strong> jaws or greatclub</div><div><strong>Domains</strong> change, glyph, knowledge, trickery</div><div><strong>Cleric Spells</strong> 1st: message rune, 2nd: abyssal plague (blistering invective (Advanced Player's Guide, coming soon)), 4th: glibness</div></div>",
    "flags": {},
    "name": "Ydajisk",
    "permission": {
        "default": 0
    }
}
