{
    "_id": "ch3BWG3Z4kDEmuZW",
    "data": {
        "actionCategory": {
            "value": ""
        },
        "actionType": {
            "value": "passive"
        },
        "actions": {
            "value": null
        },
        "description": {
            "value": "<p>Although you may not even be aware, the alghollthus your ancestors once served maintain a stranglehold on the deepest, tethered parts of your mind.</p>\n<p>You receive a +2 circumstance bonus to Will saves against mental effects that would make you controlled, and if you roll a success against such an effect, you get a critical success instead.</p>\n<p>However, you gain none of these benefits against effects originating from alghollthus and instead take a –2 circumstance penalty against mental effects from alghollthus.</p>"
        },
        "featType": {
            "value": "ancestry"
        },
        "level": {
            "value": 1
        },
        "location": "",
        "prerequisites": {
            "value": []
        },
        "rules": [
            {
                "key": "FlatModifier",
                "label": "Alghollthu Bound (vs. mental effects that control from non-alghollthu)",
                "predicate": {
                    "all": [
                        "mental",
                        "controlled"
                    ],
                    "not": [
                        "alghollthu"
                    ]
                },
                "selector": "will",
                "type": "circumstance",
                "value": 2
            },
            {
                "key": "FlatModifier",
                "label": "Alghollthu Bound (vs. mental effect from alghollthu)",
                "predicate": {
                    "all": [
                        "mental",
                        "alghollthu"
                    ]
                },
                "selector": "will",
                "type": "circumstance",
                "value": -2
            },
            {
                "key": "Note",
                "predicate": {
                    "all": [
                        "mental"
                    ]
                },
                "selector": "will",
                "text": "<p class='compact-text'><strong>{item|name}</strong> When you roll a success on a save against an mental effect that would control you, you get a critical success instead. This benefit does not apply against effects originating from alghollthus. </p>"
            },
            {
                "adjustment": {
                    "success": "one-degree-better"
                },
                "key": "AdjustDegreeOfSuccess",
                "predicate": {
                    "all": [
                        "mental",
                        "controlled"
                    ],
                    "not": [
                        "alghollthu"
                    ]
                },
                "selector": "will"
            }
        ],
        "source": {
            "value": "Azarketi Ancestry Web Supplement"
        },
        "traits": {
            "custom": "",
            "rarity": {
                "value": "common"
            },
            "value": [
                "azarketi"
            ]
        }
    },
    "effects": [],
    "flags": {},
    "img": "systems/pf2e/icons/default-icons/feats.webp",
    "name": "Alghollthu Bound",
    "type": "feat"
}
