{
    "_id": "PIVC14saumGNKWbo",
    "data": {
        "actionCategory": {
            "value": ""
        },
        "actionType": {
            "value": "passive"
        },
        "actions": {
            "value": null
        },
        "description": {
            "value": "<p>By putting composition to paper, you can create a source of stirring words or song that others can read and understand.</p>\n<p>You spend 10 minutes and 1 Focus Point to transpose a composition spell on a special scroll that you or another creature can later activate. This composition spell must take a single action to cast. If the chosen composition spell requires a Performance check as part of the casting, the GM rolls this check as a secret check when you annotate your score.</p>\n<p>If you have <em>@Compendium[pf2e.spells-srd.Inspire Heroics]{Inspire Heroics}</em> or <em>@Compendium[pf2e.spells-srd.Lingering Composition]{Lingering Composition}</em> and the chosen composition spell allows, you can also use one of those spells to modify the annotated composition, with the GM rolling the secret Performance check. If you do, you spend an additional Focus Point, even if the secret check fails.</p>\n<p>Any creature that can read the language you used when annotating your composition can Activate the Item by spending a single action, which has the concentrate trait. This produces the effects of the composition as though the activating creature had @Compendium[pf2e.actionspf2e.Cast a Spell]{Cast the Spell}.</p>\n<p>A composition you create this way loses its power the next time you make your daily preparations. While the composition is in your possession, you can render it inert using a single action that has the concentrate trait. You can't regain the Focus Points you spent to create the annotated composition until it is activated or loses its magic.</p>"
        },
        "featType": {
            "value": "class"
        },
        "level": {
            "value": 10
        },
        "prerequisites": {
            "value": []
        },
        "rules": [],
        "source": {
            "value": "Pathfinder Advanced Player's Guide"
        },
        "traits": {
            "custom": "",
            "rarity": {
                "value": "common"
            },
            "value": [
                "bard",
                "exploration",
                "linguistic"
            ]
        }
    },
    "effects": [],
    "flags": {},
    "img": "systems/pf2e/icons/features/feats/feats.webp",
    "name": "Annotate Composition",
    "type": "feat"
}
