{
    "_id": "l11OWMFUixCcRYGm",
    "data": {
        "actionCategory": {
            "value": ""
        },
        "actionType": {
            "value": "passive"
        },
        "actions": {
            "value": null
        },
        "description": {
            "value": "<p><strong>Frequency</strong> once per day</p>\n<hr />\n<p>If you and up to four other creatures are in contact with a body of water deep enough for you to fully submerge, you can spend 10 minutes adapting the creatures to that specific body of water. This allows them to breathe normally while within that body of water and protects them from deep ocean pressure. These effects last until the creatures are no longer in contact with that body of water or until you use this ability again, whichever comes first for each creature.</p>"
        },
        "featType": {
            "value": "ancestry"
        },
        "level": {
            "value": 13
        },
        "location": "",
        "prerequisites": {
            "value": []
        },
        "rules": [],
        "source": {
            "value": "Pathfinder Lost Omens: Ancestry Guide"
        },
        "traits": {
            "custom": "",
            "rarity": {
                "value": "common"
            },
            "value": [
                "azarketi",
                "concentrate",
                "primal",
                "transmutation",
                "water"
            ]
        }
    },
    "effects": [],
    "flags": {},
    "img": "systems/pf2e/icons/default-icons/feats.webp",
    "name": "Aquatic Adaptation",
    "type": "feat"
}
