{
    "_id": "kKoqqXOTdRYROmVV",
    "data": {
        "actionCategory": {
            "value": ""
        },
        "actionType": {
            "value": "reaction"
        },
        "actions": {
            "value": null
        },
        "description": {
            "value": "<p><strong>Trigger</strong> An ally within 30 feet would become @Compendium[pf2e.conditionitems.Frightened]{Frightened}, @Compendium[pf2e.conditionitems.Drained]{Drained}, @Compendium[pf2e.conditionitems.Enfeebled]{Enfeebled}, @Compendium[pf2e.conditionitems.Sickened]{Sickened}, or @Compendium[pf2e.conditionitems.Stupefied]{Stupefied}.</p>\n<hr />\n<p>You exude peace and protection, lessening a harmful condition as it falls upon an ally. Reduce the value of the condition your ally would take by 1 (to a minimum of 0). If the ally takes more than one condition at the same time, choose one to reduce.</p>"
        },
        "featType": {
            "value": "archetype"
        },
        "level": {
            "value": 12
        },
        "prerequisites": {
            "value": [
                {
                    "value": "Blessed One Dedication"
                }
            ]
        },
        "rules": [],
        "source": {
            "value": "Pathfinder Advanced Player's Guide"
        },
        "traits": {
            "custom": "",
            "rarity": {
                "value": "common"
            },
            "value": [
                "archetype"
            ]
        }
    },
    "effects": [],
    "flags": {},
    "img": "systems/pf2e/icons/features/feats/feats.webp",
    "name": "Blessed Denial",
    "type": "feat"
}
