{
    "_id": "fvYwsHM9O1twQa5N",
    "data": {
        "actionCategory": {
            "value": ""
        },
        "actionType": {
            "value": "passive"
        },
        "actions": {
            "value": null
        },
        "description": {
            "value": "<p><strong>Frequency</strong> once per day</p>\n<hr />\n<p>You have learned rites or meditations that enable you to perceive minor, invisible spirits within a place.</p>\n<p>Choose Nature, Occultism, or Religion when you select this feat.</p>\n<p>Nature allows you to contact the spirits of nature that form leshies, who are born of pure life essence rather than spiritual energy and can answer questions about natural features like the location of nearby water or plant life. Religion reveals the presence of angelic, demonic, or other spirits in service to divine beings, who provide information about sources of powerful positive or negative energy, sacred or profane influences, or the presence of undead. Occultism allows you to contact lingering spirits, psychic echoes of the departed dead, and spirits from beyond reality, who tell you about things like strange auras, effects, or the presence of unnatural occult beings.</p>\n<p>Spend 10 minutes and attempt a check to @Compendium[pf2e.actionspf2e.Recall Knowledge (Lore)]{Recall Knowledge} with the chosen skill; the DC is determined by the GM (usually a very high DC for the level of the highest-level creature you might encounter in the area). If you're legendary in the chosen skill, you can use this feat once per hour, instead of only once per day, but you can't use it again on any area that overlaps a previous area.</p>\n<hr />\n<p><strong>Critical Success</strong> The spirits reveal themselves to you and have a helpful attitude toward you. Only you can perceive these spirits. They answer three simple questions about the environment within 100 feet of you, depending on the skill you chose and thus the type of spirits you contact. Their answers are almost always a single word, and their knowledge is limited to within their area of interest.</p>\n<p><strong>Success</strong> As with a critical success, but the spirits are indifferent to you and answer only one question.</p>\n<p><strong>Failure</strong> You are unable to contact the spirits of this place.</p>\n<p><strong>Critical Failure</strong> You contact one or more malevolent spirits.</p>\n<p>They are hostile toward you, though they may not immediately appear so. They answer up to three questions but give you information that is harmful to you in some way, as determined by the GM.</p>\n<p><strong>Special</strong> You can select this feat multiple times, each time picking a different skill in which you have the master proficiency rank. You can use this feat with each skill once per day (or once per hour, if you're legendary).</p>"
        },
        "featType": {
            "value": "skill"
        },
        "level": {
            "value": 7
        },
        "prerequisites": {
            "value": [
                {
                    "value": "master in Nature, Occultism, or Religion"
                }
            ]
        },
        "rules": [],
        "source": {
            "value": "Pathfinder Advanced Player's Guide"
        },
        "traits": {
            "custom": "",
            "rarity": {
                "value": "common"
            },
            "value": [
                "general",
                "secret",
                "skill"
            ]
        }
    },
    "effects": [],
    "flags": {},
    "img": "systems/pf2e/icons/features/feats/feats.webp",
    "name": "Consult The Spirits",
    "type": "feat"
}
