{
    "_id": "ajesR7y0jWzqjAgc",
    "data": {
        "actionCategory": {
            "value": ""
        },
        "actionType": {
            "value": "action"
        },
        "actions": {
            "value": 1
        },
        "description": {
            "value": "<p>As you use your magic to manipulate air or water, you divert some of its currents to form a barrier around you.</p>\n<p>If your next action is to @Compendium[pf2e.actionspf2e.Cast a Spell]{Cast a Spell} with the air or water trait, until the start of your next turn, you gain a +1 circumstance bonus to AC or a +2 circumstance bonus against ranged attacks. This effect has the air or water trait, or both, depending on the traits of the spell you cast.</p>\n<p>You also gain a +1 circumstance bonus to all saves against effects with the air trait, water trait, or both until the start of your next turn, depending on the spell's traits.</p>\n<p>@Compendium[pf2e.feat-effects.Effect: Current Spell (Air)]{Effect: Current Spell (Air)}</p>\n<p>@Compendium[pf2e.feat-effects.Effect: Current Spell (Water)]{Effect: Current Spell (Water)}</p>"
        },
        "featType": {
            "value": "class"
        },
        "level": {
            "value": 6
        },
        "location": "",
        "prerequisites": {
            "value": []
        },
        "rules": [],
        "source": {
            "value": "Pathfinder Advanced Player's Guide"
        },
        "traits": {
            "custom": "",
            "rarity": {
                "value": "common"
            },
            "value": [
                "abjuration",
                "concentrate",
                "druid",
                "metamagic"
            ]
        }
    },
    "effects": [],
    "flags": {},
    "img": "systems/pf2e/icons/features/feats/feats.webp",
    "name": "Current Spell",
    "type": "feat"
}
