{
    "_id": "xlparPCGhkgjdhx2",
    "data": {
        "actionCategory": {
            "value": "defensive"
        },
        "actionType": {
            "value": "action"
        },
        "actions": {
            "value": 1
        },
        "description": {
            "value": "<p>Your eidolon blocks attacks against you. After your eidolon uses this action, you gain a +2 circumstance bonus to AC until the beginning of your next turn. This bonus applies only while you're within your eidolon's reach (in most cases, this means your eidolon is adjacent to you or in your space).</p>"
        },
        "featType": {
            "value": "class"
        },
        "level": {
            "value": 4
        },
        "location": "",
        "prerequisites": {
            "value": []
        },
        "rules": [],
        "source": {
            "value": ""
        },
        "traits": {
            "custom": "",
            "rarity": {
                "value": "common"
            },
            "value": [
                "eidolon",
                "evolution",
                "summoner"
            ]
        }
    },
    "effects": [],
    "flags": {},
    "img": "systems/pf2e/icons/default-icons/feat.svg",
    "name": "Defend Summoner",
    "type": "feat"
}
