{
    "_id": "UJ8AqzkkDqRCMNFW",
    "data": {
        "actionCategory": {
            "value": ""
        },
        "actionType": {
            "value": "passive"
        },
        "actions": {
            "value": null
        },
        "description": {
            "value": "<p>You are either naturally calm and collected in the face of imminent danger, or you are very good at faking it. At the end of your turn, reduce your @Compendium[pf2e.conditionitems.Frightened]{Frightened} condition by 2 instead of 1.</p>"
        },
        "featType": {
            "value": "ancestry"
        },
        "level": {
            "value": 1
        },
        "prerequisites": {
            "value": []
        },
        "rules": [],
        "source": {
            "value": "Pathfinder Advanced Player's Guide"
        },
        "traits": {
            "custom": "",
            "rarity": {
                "value": "common"
            },
            "value": [
                "dwarf"
            ]
        }
    },
    "effects": [],
    "flags": {},
    "img": "systems/pf2e/icons/features/feats/feats.webp",
    "name": "Dwarven Doughtiness",
    "type": "feat"
}
