{
    "_id": "OEwNLolzBarx8icm",
    "data": {
        "actionCategory": {
            "value": ""
        },
        "actionType": {
            "value": "action"
        },
        "actions": {
            "value": 1
        },
        "description": {
            "value": "<p><strong>Requirements</strong> You are in @Compendium[pf2e.feats-srd.Rain of Embers Stance]{Rain of Embers Stance} and have a target @Compendium[pf2e.conditionitems.Grabbed]{Grabbed} or @Compendium[pf2e.conditionitems.Restrained]{Restrained}.</p>\n<hr />\n<p>You lift your enemy into the air before bringing them crashing down with a fiery detonation. Roll an Athletics check against your target's Fortitude DC. You take a -1 circumstance penalty to your check if the target is one size larger than you and a -3 circumstance penalty if it's larger than that. You gain a +1 circumstance bonus to your check if the target is one size smaller than you and a +3 circumstance bonus if it's smaller than that.</p>\n<hr />\n<p><strong>Critical Success</strong> The target takes <a class=\"inline-roll roll\" title=\"fire\" data-mode=\"roll\" data-flavor=\"fire\" data-formula=\"12d6\"><i class=\"fas fa-dice-d20\"></i> 12d6</a> fire damage and falls @Compendium[pf2e.conditionitems.Prone]{Prone} in an unoccupied adjacent square of your choice. The target is no longer grabbed. The target and any creature adjacent to it also each take [[/r 1d6 #persistent fire]] @Compendium[pf2e.conditionitems.Persistent Damage]{Persistent Fire Damage}.</p>\n<p><strong>Success</strong> As critical success, but the target takes <a class=\"inline-roll roll\" title=\"fire\" data-mode=\"roll\" data-flavor=\"fire\" data-formula=\"6d6\"><i class=\"fas fa-dice-d20\"></i> 6d6</a> fire damage instead of 12d6, and creatures don't take persistent fire damage.</p>\n<p><strong>Failure</strong> The target is no longer grabbed.</p>\n<p><strong>Critical Failure</strong> As failure, but you fall prone.</p>"
        },
        "featType": {
            "value": "class"
        },
        "level": {
            "value": 14
        },
        "prerequisites": {
            "value": [
                {
                    "value": "Blazing Talon Surge"
                }
            ]
        },
        "rules": [],
        "source": {
            "value": "Pathfinder Lost Omens: Pathfinder Society Guide"
        },
        "traits": {
            "custom": "",
            "rarity": {
                "value": "common"
            },
            "value": [
                "fire",
                "monk"
            ]
        }
    },
    "effects": [],
    "flags": {},
    "img": "systems/pf2e/icons/features/feats/feats.webp",
    "name": "Explosive Death Drop",
    "type": "feat"
}
