{
    "_id": "aoz9dCq2NynyUYEf",
    "data": {
        "actionCategory": {
            "value": ""
        },
        "actionType": {
            "value": "passive"
        },
        "actions": {
            "value": null
        },
        "description": {
            "value": "<p>You know how to fight in formation with your brethren. When you are adjacent to at least two hobgoblin allies, you gain a +1 circumstance bonus to AC and saving throws. This bonus increases to +2 on Reflex saves against area effects.</p>\n<p>@Compendium[pf2e.feat-effects.Effect: Formation Training]{Effect: Formation Training}</p>"
        },
        "featType": {
            "value": "ancestry"
        },
        "level": {
            "value": 5
        },
        "location": "",
        "prerequisites": {
            "value": [
                {
                    "value": "trained in all martial weapons"
                }
            ]
        },
        "rules": [],
        "source": {
            "value": "Pathfinder Lost Omens: Character Guide"
        },
        "traits": {
            "custom": "",
            "rarity": {
                "value": "common"
            },
            "value": [
                "hobgoblin"
            ]
        }
    },
    "effects": [],
    "flags": {},
    "img": "systems/pf2e/icons/features/feats/feats.webp",
    "name": "Formation Training",
    "type": "feat"
}
