{
    "_id": "jG9YwAAvNbCShumf",
    "data": {
        "actionCategory": {
            "value": ""
        },
        "actionType": {
            "value": "passive"
        },
        "actions": {
            "value": null
        },
        "description": {
            "value": "<p>You can react whenever a foe leaves a gap in their defenses. At the start of each enemy's turn, you gain an extra reaction you can use only during that turn to perform an @Compendium[pf2e.classfeatures.Opportune Riposte]{Opportune Riposte}, or an @Compendium[pf2e.classfeatures.Attack of Opportunity]{Attack of Opportunity} if you have that reaction.</p>"
        },
        "featType": {
            "value": "class"
        },
        "level": {
            "value": 20
        },
        "prerequisites": {
            "value": []
        },
        "rules": [],
        "source": {
            "value": "Pathfinder Advanced Player's Guide"
        },
        "traits": {
            "custom": "",
            "rarity": {
                "value": "common"
            },
            "value": [
                "swashbuckler"
            ]
        }
    },
    "effects": [],
    "flags": {},
    "img": "systems/pf2e/icons/features/feats/feats.webp",
    "name": "Inexhaustible Countermoves",
    "type": "feat"
}
