{
    "_id": "Q6EkzXkbMuuk8f7c",
    "data": {
        "actionCategory": {
            "value": ""
        },
        "actionType": {
            "value": "passive"
        },
        "actions": {
            "value": null
        },
        "description": {
            "value": "<p>You've trained with the weapons of the Bright Lions. You gain access to @Compendium[pf2e.equipment-srd.Lion Scythe]{Lion Scythes} and @Compendium[pf2e.equipment-srd.Sun Sling]{Sun Slings}. Whenever you gain a class feature that grants you expert or greater proficiency in certain weapons, you also gain that proficiency rank with lion scythes and sun slings.</p>"
        },
        "featType": {
            "value": "archetype"
        },
        "level": {
            "value": 4
        },
        "location": "",
        "prerequisites": {
            "value": [
                {
                    "value": "Bright Lion Dedication"
                }
            ]
        },
        "rules": [],
        "source": {
            "value": "Pathfinder #172: Secrets of the Temple-City"
        },
        "traits": {
            "custom": "",
            "rarity": {
                "value": "common"
            },
            "value": [
                "archetype"
            ]
        }
    },
    "effects": [],
    "flags": {},
    "img": "systems/pf2e/icons/features/feats/feats.webp",
    "name": "Lion's Might",
    "type": "feat"
}
