{
    "_id": "TxKWgxor49xntDlU",
    "data": {
        "actionCategory": {
            "value": ""
        },
        "actionType": {
            "value": "passive"
        },
        "actions": {
            "value": null
        },
        "description": {
            "value": "<p>You cast spells like a magus, gaining a spellbook with four common arcane cantrips of your choice. You gain the Cast a Spell activity. You can prepare two cantrips each day from your spellbook. Each time you gain a spell slot of a new level from the magus archetype, add a spell of that level or lower to your spellbook. You're trained in arcane spell attack rolls and spell DCs. Your key spellcasting ability for magus archetype spells is Intelligence, and they are arcane magus spells. You become trained in Arcana; if you were already trained in Arcana, you instead become trained in a skill of your choice. You become trained in simple weapons.</p>\n<hr />\n<p><strong>Special</strong> You can't select another dedication feat until you have gained two other feats from the magus archetype.</p>"
        },
        "featType": {
            "value": "archetype"
        },
        "level": {
            "value": 2
        },
        "location": "",
        "prerequisites": {
            "value": [
                {
                    "value": "Strength or Dexterity 14"
                },
                {
                    "value": "Intelligence 14"
                }
            ]
        },
        "rules": [
            {
                "key": "ActiveEffectLike",
                "mode": "upgrade",
                "path": "data.proficiencies.traditions.arcane.rank",
                "value": 1
            }
        ],
        "source": {
            "value": ""
        },
        "traits": {
            "custom": "",
            "rarity": {
                "value": "common"
            },
            "value": [
                "archetype",
                "dedication",
                "multiclass"
            ]
        }
    },
    "effects": [],
    "flags": {},
    "img": "systems/pf2e/icons/default-icons/feat.svg",
    "name": "Magus Dedication",
    "type": "feat"
}
