{
    "_id": "6GO3dtFJnsNnSwWz",
    "data": {
        "actionCategory": {
            "value": ""
        },
        "actionType": {
            "value": "passive"
        },
        "actions": {
            "value": null
        },
        "description": {
            "value": "<p>Kassi has taught you not only how to apply medicines with your medical skills but how to craft them as well. When you @Compendium[pf2e.actionspf2e.Craft]{Craft} healer's kits, vaccines, addiction suppressants, antidotes, antiplagues, elixirs of life, or other non-magical medical or healing items, you can use Medicine instead of Crafting.</p>"
        },
        "featType": {
            "value": "skill"
        },
        "level": {
            "value": 1
        },
        "prerequisites": {
            "value": [
                {
                    "value": "trained in Medicine"
                }
            ]
        },
        "rules": [],
        "source": {
            "value": ""
        },
        "traits": {
            "custom": "",
            "rarity": {
                "value": "rare"
            },
            "selected": {
                "general": "General",
                "skill": "Skill"
            },
            "value": [
                "general",
                "skill"
            ]
        }
    },
    "effects": [],
    "flags": {},
    "img": "systems/pf2e/icons/features/feats/feats.webp",
    "name": "Medical Researcher",
    "type": "feat"
}
