{
    "_id": "Ek3nCIFRreqnSxAQ",
    "data": {
        "actionCategory": {
            "value": ""
        },
        "actionType": {
            "value": "passive"
        },
        "actions": {
            "value": null
        },
        "description": {
            "value": "<p>Your mystery holds unknowable depths of magic not always associated with the divine. You can have one spell in your spell repertoire not on the divine spell list, in addition to spells you've added to your spell list from feats like Divine Access. You cast that spell as a divine spell.</p>\n<p>You can swap which spell you add and from which tradition as you could any other oracle spell, but you can't use this feat to have more than one spell from another tradition in your spell repertoire at the same time.</p>"
        },
        "featType": {
            "value": "class"
        },
        "level": {
            "value": 14
        },
        "prerequisites": {
            "value": []
        },
        "rules": [],
        "source": {
            "value": "Pathfinder Advanced Player's Guide"
        },
        "traits": {
            "custom": "",
            "rarity": {
                "value": "common"
            },
            "value": [
                "oracle"
            ]
        }
    },
    "effects": [],
    "flags": {},
    "img": "systems/pf2e/icons/features/feats/feats.webp",
    "name": "Mysterious Repertoire",
    "type": "feat"
}
