{
    "_id": "Y8c8hAyjNAiqgxAO",
    "data": {
        "actionCategory": {
            "value": ""
        },
        "actionType": {
            "value": "passive"
        },
        "actions": {
            "value": null
        },
        "description": {
            "value": "<p>You've learned special tricks to survive underwater. You gain the trained proficiency rank in Survival.</p>\n<p>When in an aquatic environment, if you roll a critical failure on a Survival skill check to @Compendium[pf2e.actionspf2e.Sense Direction]{Sense Direction} or @Compendium[pf2e.actionspf2e.Subsist]{Subsist}, you get a failure instead.</p>"
        },
        "featType": {
            "value": "ancestry"
        },
        "level": {
            "value": 1
        },
        "location": "",
        "prerequisites": {
            "value": []
        },
        "rules": [
            {
                "key": "Note",
                "predicate": {
                    "all": [
                        "terrain:aquatic"
                    ],
                    "any": [
                        "action:sense-direction",
                        "action:subsist"
                    ]
                },
                "selector": "survival",
                "text": "<p class='compact-text'><strong>{item|name}</strong> When in an aquatic environment, if you roll a critical failure on a Survival skill check to Sense Direction or Subsist, you get a failure instead.</p>"
            },
            {
                "adjustment": {
                    "criticalFailure": "one-degree-better"
                },
                "key": "AdjustDegreeOfSuccess",
                "predicate": {
                    "all": [
                        "terrain:aquatic"
                    ],
                    "any": [
                        "action:sense-direction",
                        "action:subsist"
                    ]
                },
                "selector": "survival"
            },
            {
                "key": "ActiveEffectLike",
                "mode": "upgrade",
                "path": "data.skills.sur.rank",
                "value": 1
            }
        ],
        "source": {
            "value": "Pathfinder Lost Omens: Ancestry Guide"
        },
        "traits": {
            "custom": "",
            "rarity": {
                "value": "common"
            },
            "value": [
                "azarketi"
            ]
        }
    },
    "effects": [],
    "flags": {},
    "img": "systems/pf2e/icons/default-icons/feats.webp",
    "name": "Pelagic Aptitude",
    "type": "feat"
}
