{
    "_id": "OtM4pvPeIeEEdpuS",
    "data": {
        "actionCategory": {
            "value": ""
        },
        "actionType": {
            "value": "reaction"
        },
        "actions": {
            "value": null
        },
        "description": {
            "value": "<p><strong>Requirements</strong> You have @Compendium[pf2e.actionspf2e.Spin Tale]{Spun a Tale}.</p>\n<p><strong>Trigger</strong> The villain of the tale you've spun makes an attack roll with a given weapon or unarmed attack, uses a particular special ability (such as a Breath Weapon), or Casts a Spell against the hero, and they used that same attack, special ability, or spell against the hero on the previous turn.</p>\n<hr />\n<p>Heroes learn from their previous failures, often succeeding on the third attempt. You narrate a tale of the hero's success, granting them a +2 circumstance bonus to their AC or saving throw against the triggering effect. If the villain has used the same effect against the hero on both of their last two turns, and you used Rule of Three on that effect last turn as well, the bonus increases to +4.</p>"
        },
        "featType": {
            "value": "archetype"
        },
        "level": {
            "value": 8
        },
        "location": "",
        "prerequisites": {
            "value": [
                {
                    "value": "Folklorist Dedication"
                }
            ]
        },
        "rules": [],
        "source": {
            "value": "Pathfinder #170: Spoken on the Song Wind"
        },
        "traits": {
            "custom": "",
            "rarity": {
                "value": "common"
            },
            "value": [
                "archetype",
                "auditory",
                "linguistic",
                "magical"
            ]
        }
    },
    "effects": [],
    "flags": {},
    "img": "systems/pf2e/icons/default-icons/feat.svg",
    "name": "Rule of Three",
    "type": "feat"
}
