{
    "_id": "N4wCUZH2KG6FoGqh",
    "data": {
        "actionCategory": {
            "value": ""
        },
        "actionType": {
            "value": "passive"
        },
        "actions": {
            "value": null
        },
        "description": {
            "value": "<p>The plans you make include your allies as well as yourself. When you hit a creature with an attack on which you substituted your attack roll due to @Compendium[pf2e.actionspf2e.Devise a Stratagem]{Devise a Strategem}, designate one ally.</p>\n<p>The creature you hit is @Compendium[pf2e.conditionitems.Flat-Footed]{Flat-Footed} to that ally on the next attack the designated ally makes against that creature before the start of your next turn.</p>"
        },
        "featType": {
            "value": "class"
        },
        "level": {
            "value": 2
        },
        "location": "",
        "prerequisites": {
            "value": []
        },
        "rules": [],
        "source": {
            "value": "Pathfinder Advanced Player's Guide"
        },
        "traits": {
            "custom": "",
            "rarity": {
                "value": "common"
            },
            "value": [
                "investigator"
            ]
        }
    },
    "effects": [],
    "flags": {},
    "img": "systems/pf2e/icons/features/feats/feats.webp",
    "name": "Shared Stratagem",
    "type": "feat"
}
