{
    "_id": "gv7PJVrnODu3qYB0",
    "data": {
        "actionCategory": {
            "value": ""
        },
        "actionType": {
            "value": "passive"
        },
        "actions": {
            "value": null
        },
        "description": {
            "value": "<p>During your daily preparations, you can magically fuse a shield into your favorite book, where it appears as an elaborate bookmark. While the two are fused, the book shares the Hardness, Hit Points, and Broken Threshold of the shield, and it can be used to @Compendium[pf2e.feats-srd.Shield Block]{Shield Block} if you have that reaction, with a requirement of \"You have Raised the Tome\" instead of the usual requirements.</p>\n<p>You can switch the fused item's form from a book to a shield with a book-shaped motif as a single action, which has the concentrate trait. When the item is in book form, you can read the book and Raise the Tome, and when it's in shield form, you can Raise the Shield, Activate it, and gain any other benefits or effects the shield normally has (such as a @Compendium[pf2e.equipment-srd.Spellguard Shield]{Spellguard Shield's} bonus to saving throws against magic).</p>\n<p>The fusion lasts until your next daily preparations.</p>"
        },
        "featType": {
            "value": "class"
        },
        "level": {
            "value": 6
        },
        "location": "",
        "prerequisites": {
            "value": [
                {
                    "value": "Raise a Tome"
                }
            ]
        },
        "rules": [],
        "source": {
            "value": ""
        },
        "traits": {
            "custom": "",
            "rarity": {
                "value": "common"
            },
            "value": [
                "arcane",
                "magus",
                "transmutation"
            ]
        }
    },
    "effects": [],
    "flags": {},
    "img": "systems/pf2e/icons/features/feats/feats.webp",
    "name": "Shielded Tome",
    "type": "feat"
}
