{
    "_id": "8DIzXO1YpsU3DpJw",
    "data": {
        "actionCategory": {
            "value": ""
        },
        "actionType": {
            "value": "passive"
        },
        "actions": {
            "value": null
        },
        "description": {
            "value": "<p>Your expertise makes your snares more powerful, and you can place them quickly and efficiently.</p>\n<p>Each day during your daily preparations, you can prepare three snares from your formula book for quick deployment; if the snare normally takes 1 minute to @Compendium[pf2e.actionspf2e.Craft]{Craft}, you can Craft it with 3 Interact actions. Snares prepared in this way don't cost you any resources to Craft. The number of snares you can prepare this way increases to four if you are a master in Crafting, and to five if you are legendary.</p>\n<p>When you Craft and deploy a snare that deals damage, any creature that critically fails its saving throw against the snare's initial effect and takes damage becomes flat-footed until the end of its next turn.</p>"
        },
        "featType": {
            "value": "ancestry"
        },
        "level": {
            "value": 5
        },
        "prerequisites": {
            "value": [
                {
                    "value": "expert in Crafting"
                },
                {
                    "value": "Snare Crafting"
                }
            ]
        },
        "rules": [
            {
                "isDailyPrep": false,
                "isPrepared": true,
                "key": "CraftingEntry",
                "name": "Snare Crafting",
                "requiredTraits": [
                    [
                        "snare"
                    ]
                ],
                "selector": "snareCrafting"
            },
            {
                "key": "ActiveEffectLike",
                "mode": "add",
                "path": "data.crafting.entries.snareCrafting.maxSlots",
                "value": {
                    "brackets": [
                        {
                            "end": 2,
                            "start": 2,
                            "value": 3
                        },
                        {
                            "end": 3,
                            "start": 3,
                            "value": 4
                        },
                        {
                            "start": 4,
                            "value": 5
                        }
                    ],
                    "field": "actor|data.skills.cra.rank"
                }
            }
        ],
        "source": {
            "value": "Pathfinder Advanced Player's Guide"
        },
        "traits": {
            "custom": "",
            "rarity": {
                "value": "common"
            },
            "value": [
                "kobold"
            ]
        }
    },
    "effects": [],
    "flags": {},
    "img": "systems/pf2e/icons/features/feats/feats.webp",
    "name": "Snare Genius",
    "type": "feat"
}
