{
    "_id": "CoVBrlyMToANvt2v",
    "data": {
        "actionCategory": {
            "value": ""
        },
        "actionType": {
            "value": "passive"
        },
        "actions": {
            "value": null
        },
        "description": {
            "value": "<p>You can selectively stop your bleeding with ease. Reduce the DC of flat checks to stop @Compendium[pf2e.conditionitems.Persistent Damage]{Persistent Bleed Damage} you have from 15 to 10, and you can use a single action that has the concentrate trait to gain an early flat check without physically binding the wounds. You recover naturally from the @Compendium[pf2e.conditionitems.Drained]{Drained} condition twice as quickly as normal.</p>"
        },
        "featType": {
            "value": "archetype"
        },
        "level": {
            "value": 6
        },
        "prerequisites": {
            "value": [
                {
                    "value": "Ka Stone Ritual"
                }
            ]
        },
        "rules": [],
        "source": {
            "value": "Pathfinder Lost Omens: World Guide"
        },
        "traits": {
            "custom": "",
            "rarity": {
                "value": "common"
            },
            "value": [
                "archetype"
            ]
        }
    },
    "effects": [],
    "flags": {},
    "img": "systems/pf2e/icons/features/feats/feats.webp",
    "name": "Stone Blood",
    "type": "feat"
}
