{
    "_id": "mSDKKRgK6sRMjqQo",
    "data": {
        "actionCategory": {
            "value": "interaction"
        },
        "actionType": {
            "value": "reaction"
        },
        "actions": {
            "value": null
        },
        "description": {
            "value": "<p><strong>Trigger</strong> You or your eidolon take damage from a foe or hazard.</p>\n<p><strong>Requirements</strong> Your eidolon is manifested more than 5 feet away.</p>\n<p>In a moment of danger, you call your eidolon to your side. Your eidolon teleports to an open space adjacent to you.</p>\n<hr />\n<p><strong>Special</strong> This feat has the trait matching your eidolon's tradition (arcane, divine, occult, or primal).</p>"
        },
        "featType": {
            "value": "class"
        },
        "level": {
            "value": 12
        },
        "location": "",
        "prerequisites": {
            "value": []
        },
        "rules": [],
        "source": {
            "value": ""
        },
        "traits": {
            "custom": "",
            "rarity": {
                "value": "common"
            },
            "value": [
                "concentrate",
                "conjuration",
                "summoner",
                "teleportation"
            ]
        }
    },
    "effects": [],
    "flags": {},
    "img": "systems/pf2e/icons/default-icons/feat.svg",
    "name": "Summoner's Call",
    "type": "feat"
}
