{
    "_id": "2FJwXMTJycSZY80Q",
    "data": {
        "actionCategory": {
            "value": ""
        },
        "actionType": {
            "value": "reaction"
        },
        "actions": {
            "value": null
        },
        "description": {
            "value": "<p><strong>Trigger</strong> An ally succeeds at a ranged @Compendium[pf2e.actionspf2e.Strike]{Strike} against an opponent within your weapon's first range increment.</p>\n<p><strong>Requirements</strong> You have a ranged or thrown weapon in hand.</p>\n<hr />\n<p>You capitalize on your ally's attack to create a coordinated barrage.</p>\n<p>Make a ranged Strike with a -2 penalty against the opponent targeted by the triggering attack. This Strike doesn't count toward your multiple attack penalty, and your multiple attack penalty doesn't apply to this Strike.</p>\n<p>If this Strike is successful, combine the damage from the attack with the damage from your ally's attack for the purpose of resistances and weaknesses.</p>"
        },
        "featType": {
            "value": "archetype"
        },
        "level": {
            "value": 14
        },
        "prerequisites": {
            "value": [
                {
                    "value": "Marshal Dedication"
                }
            ]
        },
        "rules": [],
        "source": {
            "value": "Pathfinder Advanced Player's Guide"
        },
        "traits": {
            "custom": "",
            "rarity": {
                "value": "common"
            },
            "value": [
                "archetype",
                "manipulate"
            ]
        }
    },
    "effects": [],
    "flags": {},
    "img": "systems/pf2e/icons/features/feats/feats.webp",
    "name": "Target Of Opportunity",
    "type": "feat"
}
