{
    "_id": "M5195FvfCN3X7gi9",
    "data": {
        "actionCategory": {
            "value": ""
        },
        "actionType": {
            "value": "passive"
        },
        "actions": {
            "value": null
        },
        "description": {
            "value": "<p>You have particularly long, jagged tusks perfect for tearing meat from bone. You gain a tusks unarmed attack that deals [[/r {1d6}[piercing]]]{1d6 piercing damage}. Your tusks are in the brawling group and have the finesse and unarmed traits.</p>\n<p><strong>Special</strong> You can take this feat only at 1st level, and you can't retrain into this feat. You can retrain out of this feat only through drastic measures such as breaking or filing your tusks.</p>"
        },
        "featType": {
            "value": "ancestry"
        },
        "level": {
            "value": 1
        },
        "location": "",
        "prerequisites": {
            "value": []
        },
        "rules": [
            {
                "category": "unarmed",
                "damage": {
                    "base": {
                        "damageType": "piercing",
                        "dice": 1,
                        "die": "d6"
                    }
                },
                "group": "brawling",
                "key": "Strike",
                "label": "Tusks",
                "range": null,
                "traits": [
                    "unarmed",
                    "finesse"
                ]
            }
        ],
        "source": {
            "value": ""
        },
        "traits": {
            "custom": "",
            "rarity": {
                "value": "common"
            },
            "value": [
                "orc"
            ]
        }
    },
    "effects": [],
    "flags": {},
    "img": "systems/pf2e/icons/features/feats/feats.webp",
    "name": "Tusks (Orc)",
    "type": "feat"
}
