{
    "_id": "TzBP8yiZQHNhei1V",
    "data": {
        "actionCategory": {
            "value": ""
        },
        "actionType": {
            "value": "action"
        },
        "actions": {
            "value": 2
        },
        "description": {
            "value": "<p>You frighten a foe into moving where you want them, traditionally demanding they walk the plank. Attempt to @Compendium[pf2e.actionspf2e.Demoralize]{Demoralize} an opponent; this check gains the incapacitation trait.</p>\n<p>On a success, in addition to the normal effects, you can also force the target to @Compendium[pf2e.actionspf2e.Stride]{Stride} up to its Speed. You choose the path the target takes, and it does so as part of your Walk the Plank action. You can't force the target to move into a harmful space (one where it will take damage, fall, provoke reactions, or similar) unless the result of your check to @Compendium[pf2e.actionspf2e.Demoralize]{Demoralize} was a critical success.</p>\n<p>The target then becomes temporarily immune to Walk the Plank for 24 hours.</p>"
        },
        "featType": {
            "value": "archetype"
        },
        "level": {
            "value": 8
        },
        "prerequisites": {
            "value": [
                {
                    "value": "Pirate Dedication"
                }
            ]
        },
        "rules": [],
        "source": {
            "value": "Pathfinder Advanced Player's Guide"
        },
        "traits": {
            "custom": "",
            "rarity": {
                "value": "common"
            },
            "value": [
                "archetype"
            ]
        }
    },
    "effects": [],
    "flags": {},
    "img": "systems/pf2e/icons/features/feats/feats.webp",
    "name": "Walk The Plank",
    "type": "feat"
}
