{
    "_id": "30Xdyvplx7MfX1nA",
    "data": {
        "actionCategory": {
            "value": ""
        },
        "actionType": {
            "value": "passive"
        },
        "actions": {
            "value": null
        },
        "description": {
            "value": "<p><strong>Moderate Boon</strong>: You are counted as family among Torag and his followers.</p>\n<p>You gain the effects of a single dwarf ancestry feat of Torag's choice, even if you are not a dwarf, as long as you maintain Torag's blessing.</p>"
        },
        "featType": {
            "value": "deityboon"
        },
        "level": {
            "value": 0
        },
        "prerequisites": {
            "value": []
        },
        "rules": [],
        "source": {
            "value": ""
        },
        "traits": {
            "custom": "",
            "rarity": {
                "value": "common"
            },
            "selected": {},
            "value": []
        }
    },
    "effects": [],
    "flags": {},
    "img": "systems/pf2e/icons/deity/Torag.webp",
    "name": "Torag - Moderate Boon",
    "type": "feat"
}
