{
    "_id": "jp88SCE3VCRAyE6x",
    "data": {
        "description": {
            "value": "<p>Drawing upon the deepest wells of magic in an elemental plane, you transform into a spectacular elemental. You can choose between an air elemental, earth elemental, fire elemental, or water elemental. Your battle form is Gargantuan, and you must have enough space to expand into or the spell is lost. While in this form, you gain the elemental trait and the trait for the element you choose. You can Dismiss the spell.</p>\n<p>You gain the following statistics and abilities regardless of which battle form you choose:</p>\n<ul>\n<li>AC = 25 + your level. Ignore your armor's check penalty and Speed reduction.</li>\n<li>30 temporary Hit Points.</li>\n<li>Darkvision.</li>\n<li>One or more attacks specific to the battle form you choose, which are the only attacks you can use. You're trained with them. Your attack modifier is +34, and you use the listed damage. These attacks are Dexterity based if you choose an air or fire elemental, or Strength based if you choose an earth or water elemental. (This distinction doesn't change the statistics, but matters for the enfeebled and clumsy conditions, for example). If your unarmed attack modifier is higher, you can use it instead.</li>\n<li>Acrobatics modifier of +36 for air or fire elemental or Athletics modifier of +36 for earth or water elemental, unless your own modifier is higher.</li>\n</ul>\n<p>You also gain specific abilities based on the type of elemental you choose:</p>\n<ul>\n<li><strong>Earth Elemental</strong> 30 feet, burrow 20 feet; resistance 5 to physical;\n<ul>\n<li><strong>Spike Stones</strong> (aura, earth) 30 feet. The area is difficult terrain and hazardous terrain. A creature without the earth trait that moves on the ground in the area takes 5 piercing damage for every square of that area it moves into;</li>\n<li><strong>Rocky Toughness</strong> You gain 40 temporary Hit Points when you choose this form instead of 30;</li>\n<li><strong>Melee</strong> <span class=\"pf2-icon\">1</span> fist (reach 25 feet), <strong>Damage</strong> 3d12+15 bludgeoning;</li>\n<li><strong>Ranged</strong> <span class=\"pf2-icon\">1</span> rock (range increment 40 feet), <strong>Damage</strong> 4d8+6 bludgeoning.</li>\n</ul>\n</li>\n</ul>"
        },
        "duration": {
            "expiry": "turn-start",
            "sustained": false,
            "unit": "minutes",
            "value": 1
        },
        "level": {
            "value": 1
        },
        "rules": [
            {
                "hasHands": true,
                "key": "BattleForm",
                "overrides": {
                    "armorClass": {
                        "modifier": "25 + @details.level.value"
                    },
                    "resistances": [
                        {
                            "type": "physical",
                            "value": 5
                        }
                    ],
                    "senses": {
                        "darkvision": {}
                    },
                    "size": "grg",
                    "skills": {
                        "ath": {
                            "modifier": 23
                        }
                    },
                    "speeds": {
                        "burrow": 20,
                        "land": 30
                    },
                    "strikes": {
                        "fist": {
                            "ability": "str",
                            "baseType": "fist",
                            "category": "unarmed",
                            "damage": {
                                "damageType": "bludgeoning",
                                "dice": 3,
                                "die": "d12",
                                "modifier": 15
                            },
                            "group": "brawling",
                            "label": "PF2E.Weapon.Base.fist",
                            "modifier": 34,
                            "traits": [
                                "unarmed",
                                "reach-25"
                            ]
                        },
                        "rock": {
                            "ability": "str",
                            "category": "unarmed",
                            "damage": {
                                "damageType": "bludgeoning",
                                "dice": 4,
                                "die": "d8",
                                "modifier": 6
                            },
                            "group": "brawling",
                            "modifier": 34,
                            "traits": [
                                "range-increment-40"
                            ]
                        }
                    },
                    "tempHP": 40,
                    "traits": [
                        "elemental",
                        "earth"
                    ]
                }
            }
        ],
        "source": {
            "value": "Pathfinder Secrets of Magic"
        },
        "start": {
            "initiative": null,
            "value": 0
        },
        "target": null,
        "tokenIcon": {
            "show": true
        },
        "traits": {
            "custom": "",
            "rarity": {
                "value": "common"
            },
            "value": []
        }
    },
    "effects": [],
    "flags": {},
    "img": "systems/pf2e/icons/spells/element-embodied.webp",
    "name": "Spell Effect: Element Embodied (Earth)",
    "type": "effect"
}
