{
    "_id": "8ecGfjmxnBY3WWao",
    "data": {
        "description": {
            "value": "<p>You create numerous phantom copies of your weapon arm, hiding your true movements and rendering your attacks unpredictable. You gain a +2 status bonus to Deception checks. If you're untrained in Deception, you can use the Feint action anyway, and add your level as your proficiency bonus despite being untrained.</p>"
        },
        "duration": {
            "expiry": "turn-start",
            "sustained": false,
            "unit": "minutes",
            "value": 1
        },
        "level": {
            "value": 1
        },
        "rules": [
            {
                "key": "FlatModifier",
                "name": "thicket-of-knives-proficiency",
                "selector": "deception",
                "type": "proficiency",
                "value": "@details.level.value"
            },
            {
                "key": "FlatModifier",
                "name": "thicket-of-knives-status",
                "selector": "deception",
                "type": "status",
                "value": 2
            }
        ],
        "source": {
            "value": ""
        },
        "start": {
            "initiative": null,
            "value": 0
        },
        "target": null,
        "tokenIcon": {
            "show": true
        },
        "traits": {
            "custom": "",
            "rarity": {
                "value": "common"
            },
            "value": []
        }
    },
    "effects": [],
    "flags": {},
    "img": "systems/pf2e/icons/spells/thicket-of-knives.webp",
    "name": "Spell Effect: Thicket of Knives",
    "type": "effect"
}
