{
    "_id": "xPVOvWNJORvm8EwP",
    "data": {
        "description": {
            "value": "<p>You take death and wrap it about you like a cloak-your colors wash out and your skin grows cold to the touch. Your heartbeat, breathing, and similar life functions become very difficult to detect. Senses such as lifesense detect you as undead unless a creature succeeds at a Perception check against the spell's DC, and on a failed check, they don't detect you at all if they only sense living creatures. Detection spells that specifically sense living creatures must succeed at a counteract check against <em>mimic undead</em> to detect you. You gain a +4 status bonus to Impersonate an undead but physically intact version of yourself and can add your level as your proficiency bonus even if you're untrained. You don't gain these benefits to Impersonate any other sort of undead. Mindless undead usually don't have a reason to even attempt the Perception check to notice your Impersonation unless you interact with them in some way.</p>"
        },
        "duration": {
            "expiry": "turn-start",
            "sustained": false,
            "unit": "minutes",
            "value": 10
        },
        "level": {
            "value": 2
        },
        "rules": [
            {
                "key": "FlatModifier",
                "label": "Mimic Undead",
                "name": "mimic-undead-status",
                "predicate": {
                    "all": [
                        "action:impersonate",
                        "impersonateUndead"
                    ]
                },
                "selector": "deception",
                "type": "status",
                "value": 4
            },
            {
                "key": "FlatModifier",
                "label": "Mimic Undead",
                "name": "mimic-undead-proficiency",
                "predicate": {
                    "all": [
                        "action:impersonate",
                        "impersonateUndead"
                    ]
                },
                "selector": "deception",
                "type": "proficiency",
                "value": "@details.level.value"
            }
        ],
        "source": {
            "value": ""
        },
        "start": {
            "initiative": null,
            "value": 0
        },
        "target": null,
        "tokenIcon": {
            "show": true
        },
        "traits": {
            "custom": "",
            "rarity": {
                "value": "common"
            },
            "value": []
        }
    },
    "effects": [],
    "flags": {},
    "img": "systems/pf2e/icons/spells/mimic-undead.webp",
    "name": "Spell Effect: Mimic Undead",
    "type": "effect"
}
