{
    "_id": "sccNh8j1PKLHCKh1",
    "data": {
        "description": {
            "value": "<p>Invoking the celestial realms, you transform into a Small angel battle form. While in this form, you gain the angel and celestial traits. You have hands in this battle form and can use manipulate actions. You can Dismiss the spell.</p>\n<p>You gain the following statistics and abilities regardless of the form that you choose:</p>\n<ul>\n<li>AC = 22 + your level. Ignore your armor check's penalty and Speed reduction.</li>\n<li>40 temporary Hit Points and weakness 10 to evil damage.</li>\n<li>Darkvision.</li>\n<li>One or more attacks specific to the battle form you choose. You're trained with them. Your attack modifier is +25, and you use the listed damage. Melee attacks are Strength based (for the purpose of the enfeebled condition, for example), and ranged attacks are Dexterity based. If your attack modifier is higher for the given unarmed attack or weapon, you can use it instead.</li>\n<li>Athletics modifier of +25, unless your own modifier is higher.</li>\n</ul>\n<p>You also gain specific abilities based on the type of angel you choose:</p>\n<ul>\n<li><strong>Choral</strong> Speed 30 feet, fly 40 feet; +1 status bonus to AC and saves against sonic and auditory;\n<ul>\n<li><strong>Melee</strong> <span class=\"pf2-icon\">1</span> fist (agile), <strong>Damage</strong> 2d6+12 bludgeoning plus 1d6 good;</li>\n<li><strong>Ranged</strong> <span class=\"pf2-icon\">1</span> piercing hymn (range 90 feet), <strong>Damage</strong> 1d6+12 sonic plus 1d6 good, and @Compendium[pf2e.conditionitems.Deafened]{Deafened} for 1 round on a critical hit.</li>\n</ul>\n</li>\n</ul>\n<hr />\n<p><strong>Heightened (9th)</strong> Your battle form is Large. You must have space to expand, or the spell is lost. You instead gain 60 temporary Hit Points, weakness 15 to evil damage, attack modifier +30, damage bonus +20, and Athletics +33.</p>"
        },
        "duration": {
            "expiry": "turn-start",
            "sustained": false,
            "unit": "minutes",
            "value": 1
        },
        "level": {
            "value": 7
        },
        "rules": [
            {
                "hasHands": true,
                "key": "BattleForm",
                "overrides": {
                    "senses": {
                        "darkvision": {}
                    },
                    "speeds": {
                        "fly": 40,
                        "land": 30
                    },
                    "strikes": {
                        "fist": {
                            "ability": "str",
                            "baseType": "fist",
                            "category": "unarmed",
                            "damage": {
                                "damageType": "bludgeoning",
                                "dice": 2,
                                "die": "d6"
                            },
                            "group": "brawling",
                            "label": "PF2E.Weapon.Base.fist",
                            "traits": [
                                "agile",
                                "unarmed"
                            ]
                        },
                        "piercing-hymn": {
                            "ability": "str",
                            "baseType": "strike",
                            "category": "ranged",
                            "damage": {
                                "damageType": "sonic",
                                "dice": 1,
                                "die": "d6"
                            },
                            "group": "brawling",
                            "range": "range-90",
                            "traits": [
                                "range-90"
                            ]
                        }
                    },
                    "traits": [
                        "angel",
                        "celestial"
                    ],
                    "weaknesses": [
                        {
                            "type": "evil",
                            "value": "10+ 5*floor((@item.level.value -7)/2)"
                        }
                    ]
                },
                "value": {
                    "brackets": [
                        {
                            "end": 8,
                            "start": 7,
                            "value": {
                                "armorClass": {
                                    "modifier": "22 + @details.level.value"
                                },
                                "size": "med",
                                "skills": {
                                    "ath": {
                                        "modifier": 9
                                    }
                                },
                                "strikes": {
                                    "fist": {
                                        "ability": "str",
                                        "baseType": "fist",
                                        "category": "unarmed",
                                        "damage": {
                                            "damageType": "bludgeoning",
                                            "dice": 2,
                                            "die": "d6",
                                            "modifier": 12
                                        },
                                        "group": "brawling",
                                        "img": null,
                                        "label": "PF2E.Weapon.Base.fist",
                                        "modifier": 25,
                                        "traits": [
                                            "agile",
                                            "unarmed"
                                        ]
                                    },
                                    "piercing-hymn": {
                                        "ability": "str",
                                        "baseType": "strike",
                                        "category": "ranged",
                                        "damage": {
                                            "damageType": "sonic",
                                            "dice": 1,
                                            "die": "d6",
                                            "modifier": 12
                                        },
                                        "group": "brawling",
                                        "label": "Piercing Hymn",
                                        "modifier": 25,
                                        "range": "range-90",
                                        "traits": [
                                            "range-90"
                                        ]
                                    }
                                },
                                "tempHP": 40
                            }
                        },
                        {
                            "start": 9,
                            "value": {
                                "size": "lg",
                                "skills": {
                                    "ath": {
                                        "modifier": 33
                                    }
                                },
                                "strikes": {
                                    "fist": {
                                        "damage": {
                                            "modifier": 20
                                        },
                                        "modifier": 30
                                    },
                                    "piercing-hymn": {
                                        "damage": {
                                            "modifier": 20
                                        },
                                        "modifier": 30
                                    }
                                },
                                "tempHP": 60
                            }
                        }
                    ],
                    "field": "item|data.level.value"
                }
            },
            {
                "damageType": "good",
                "diceNumber": 1,
                "dieSize": "d6",
                "key": "DamageDice",
                "predicate": {
                    "all": [
                        "battle-form"
                    ]
                },
                "selector": "fist-damage"
            },
            {
                "damageType": "good",
                "diceNumber": 1,
                "dieSize": "d6",
                "key": "DamageDice",
                "predicate": {
                    "all": [
                        "battle-form"
                    ]
                },
                "selector": "piercing-hymn-damage"
            },
            {
                "key": "Note",
                "outcome": [
                    "criticalSuccess"
                ],
                "selector": "piercing-hymn-damage",
                "text": "<p class='compact-text'><strong>Piercing Hymn</strong>@Compendium[pf2e.conditionitems.Deafened]{Deafened} for 1 round on a critical hit</p>"
            }
        ],
        "source": {
            "value": "Pathfinder Secrets of Magic"
        },
        "start": {
            "initiative": null,
            "value": 0
        },
        "target": null,
        "tokenIcon": {
            "show": true
        },
        "traits": {
            "custom": "",
            "rarity": {
                "value": "common"
            },
            "value": []
        }
    },
    "effects": [],
    "flags": {},
    "img": "systems/pf2e/icons/spells/angel-form.webp",
    "name": "Spell Effect: Angel Form (Choral)",
    "type": "effect"
}
