{
    "_id": "qRLRrHf0kzaJ7xt0",
    "data": {
        "actionCategory": {
            "value": ""
        },
        "actionType": {
            "value": "passive"
        },
        "actions": {
            "value": null
        },
        "description": {
            "value": "<p>Whether you're a professional duelist or a pistol-twirling entertainer, you have quick feet and quicker hands that never seem to let you down, and an equally sharp wit and tongue that jab your foes. You might leave a hand free or cultivate the ambidexterity for twin weapons. Either way, you stay close enough to your enemies to leverage your superior reflexes while leaving enough space to safely fire.</p>\n<p><strong>Slinger's Reload</strong> Raconteur's Reload</p>\n<p><strong>Deeds</strong> <em>Initial</em> Ten Paces; <em>Advanced</em> Pistolero's Retort; <em>Greater</em> Grim Swagger</p>\n<p><strong>Way Skill</strong> choose Deception or Intimidation</p>"
        },
        "featType": {
            "value": "classfeature"
        },
        "level": {
            "value": 1
        },
        "location": "",
        "prerequisites": {
            "value": []
        },
        "rules": [],
        "source": {
            "value": ""
        },
        "traits": {
            "custom": "",
            "rarity": {
                "value": "common"
            },
            "value": [
                "gunslinger"
            ]
        }
    },
    "effects": [],
    "flags": {},
    "img": "systems/pf2e/icons/features/classes/way-of-the-pistolero.webp",
    "name": "Way of the Pistolero",
    "type": "feat"
}
