{
    "_id": "pJiD1DAiCFdVvnys",
    "data": {
        "abilities": {
            "cha": {
                "mod": -1
            },
            "con": {
                "mod": 2
            },
            "dex": {
                "mod": 3
            },
            "int": {
                "mod": -5
            },
            "str": {
                "mod": 2
            },
            "wis": {
                "mod": 1
            }
        },
        "attributes": {
            "ac": {
                "details": "",
                "value": 16
            },
            "allSaves": {
                "value": ""
            },
            "hp": {
                "details": "",
                "max": 16,
                "temp": 0,
                "value": 16
            },
            "initiative": {
                "ability": "perception"
            },
            "perception": {
                "value": 5
            },
            "shield": {
                "ac": 0,
                "brokenThreshold": 0,
                "hardness": 0,
                "max": 0,
                "value": 0
            },
            "speed": {
                "otherSpeeds": [
                    {
                        "label": "Fly",
                        "type": "fly",
                        "value": "40"
                    }
                ],
                "value": "20"
            }
        },
        "details": {
            "alignment": {
                "value": "N"
            },
            "blurb": "",
            "creatureType": "",
            "level": {
                "value": 0
            },
            "privateNotes": "",
            "publicNotes": "<p>Worker bees, exclusively female, exist to feed and defend a hive. They have no qualms about sacrificing their lives when confronting intruders in their territory. Worker bees can fight singly, in small groups, or in swarms of dozens. Giant worker bees inject a venom with their stings, but this venom is rarely dangerous except to people sensitive to it. Other worker bees have no stinger and only bite their enemies.</p>\n<hr />\n<p>Like their smaller counterparts, giant bees are highly territorial. Many types of giant bees construct hives in caves or abandoned buildings and are quick to attack creatures that they deem a threat to the single fertile queen, who almost never leaves the hive. Although most common in warm biomes with lots of vegetation, some giant bees live in arid or cold environments and are solitary rather than hive-dwelling.</p>",
            "source": {
                "value": "Pathfinder #169: Kindled Magic"
            }
        },
        "resources": {},
        "saves": {
            "fortitude": {
                "saveDetail": "",
                "value": 6
            },
            "reflex": {
                "saveDetail": "",
                "value": 9
            },
            "will": {
                "saveDetail": "",
                "value": 3
            }
        },
        "traits": {
            "ci": [],
            "di": {
                "custom": "",
                "value": []
            },
            "dr": [],
            "dv": [],
            "languages": {
                "custom": "",
                "selected": [],
                "value": []
            },
            "rarity": {
                "value": "common"
            },
            "senses": {
                "value": "darkvision"
            },
            "size": {
                "value": "med"
            },
            "traits": {
                "custom": "",
                "value": [
                    "animal"
                ]
            }
        }
    },
    "effects": [],
    "flags": {},
    "img": "systems/pf2e/icons/default-icons/npc.svg",
    "items": [
        {
            "_id": "49smTbIWsORh5zoo",
            "data": {
                "attack": {
                    "value": ""
                },
                "attackEffects": {
                    "value": []
                },
                "bonus": {
                    "value": 8
                },
                "damageRolls": {
                    "mwm4w0zkg8eqfhqg19tc": {
                        "damage": "1d4+2",
                        "damageType": "piercing"
                    }
                },
                "description": {
                    "value": ""
                },
                "rules": [],
                "slug": null,
                "source": {
                    "value": ""
                },
                "traits": {
                    "custom": "",
                    "rarity": {
                        "value": "common"
                    },
                    "value": [
                        "deadly-d6",
                        "finesse"
                    ]
                },
                "weaponType": {
                    "value": "melee"
                }
            },
            "effects": [],
            "flags": {},
            "img": "systems/pf2e/icons/default-icons/melee.svg",
            "name": "Stinger",
            "sort": 100000,
            "type": "melee"
        },
        {
            "_id": "0GQdJnJuxaJANZdq",
            "data": {
                "attack": {
                    "value": ""
                },
                "attackEffects": {
                    "value": []
                },
                "bonus": {
                    "value": 8
                },
                "damageRolls": {
                    "n342y4mowzo621own4k1": {
                        "damage": "1d4+2",
                        "damageType": "piercing"
                    }
                },
                "description": {
                    "value": ""
                },
                "rules": [],
                "slug": null,
                "source": {
                    "value": ""
                },
                "traits": {
                    "custom": "",
                    "rarity": {
                        "value": "common"
                    },
                    "value": [
                        "agile",
                        "finesse"
                    ]
                },
                "weaponType": {
                    "value": "melee"
                }
            },
            "effects": [],
            "flags": {},
            "img": "systems/pf2e/icons/default-icons/melee.svg",
            "name": "Mandibles",
            "sort": 200000,
            "type": "melee"
        },
        {
            "_id": "moZOLN7dnQJpQJNs",
            "data": {
                "actionCategory": {
                    "value": "interaction"
                },
                "actionType": {
                    "value": "passive"
                },
                "actions": {
                    "value": null
                },
                "description": {
                    "value": "<p>@Localize[PF2E.NPC.Abilities.Glossary.Darkvision]</p>"
                },
                "requirements": {
                    "value": ""
                },
                "rules": [],
                "slug": "darkvision",
                "source": {
                    "value": ""
                },
                "traits": {
                    "custom": "",
                    "rarity": {
                        "value": "common"
                    },
                    "value": []
                },
                "trigger": {
                    "value": ""
                },
                "weapon": {
                    "value": ""
                }
            },
            "effects": [],
            "flags": {
                "core": {
                    "sourceId": "Compendium.pf2e.bestiary-ability-glossary-srd.qCCLZhnp2HhP3Ex6"
                }
            },
            "img": "systems/pf2e/icons/actions/Passive.webp",
            "name": "Darkvision",
            "sort": 300000,
            "type": "action"
        },
        {
            "_id": "dFTKJqIDWOKokYpx",
            "data": {
                "actionCategory": {
                    "value": "interaction"
                },
                "actionType": {
                    "value": "passive"
                },
                "actions": {
                    "value": null
                },
                "description": {
                    "value": "<p>A giant bee is @Compendium[pf2e.conditionitems.Slowed]{Slowed 1} for 1 round if it starts its turn in heavy smoke.</p>"
                },
                "requirements": {
                    "value": ""
                },
                "rules": [],
                "slug": null,
                "source": {
                    "value": ""
                },
                "traits": {
                    "custom": "",
                    "rarity": {
                        "value": "common"
                    },
                    "value": []
                },
                "trigger": {
                    "value": ""
                },
                "weapon": {
                    "value": ""
                }
            },
            "effects": [],
            "flags": {},
            "img": "systems/pf2e/icons/actions/Passive.webp",
            "name": "Smoke Susceptibility",
            "sort": 400000,
            "type": "action"
        },
        {
            "_id": "Zmbt5ljQGtykmR1h",
            "data": {
                "description": {
                    "value": ""
                },
                "mod": {
                    "value": 6
                },
                "proficient": {
                    "value": 0
                },
                "rules": [],
                "slug": null,
                "source": {
                    "value": ""
                },
                "traits": {
                    "custom": "",
                    "rarity": {
                        "value": "common"
                    },
                    "value": []
                }
            },
            "effects": [],
            "flags": {},
            "img": "systems/pf2e/icons/default-icons/lore.svg",
            "name": "Acrobatics",
            "sort": 500000,
            "type": "lore"
        },
        {
            "_id": "RAgp1YFST9riNrTR",
            "data": {
                "description": {
                    "value": ""
                },
                "mod": {
                    "value": 5
                },
                "proficient": {
                    "value": 0
                },
                "rules": [],
                "slug": null,
                "source": {
                    "value": ""
                },
                "traits": {
                    "custom": "",
                    "rarity": {
                        "value": "common"
                    },
                    "value": []
                }
            },
            "effects": [],
            "flags": {},
            "img": "systems/pf2e/icons/default-icons/lore.svg",
            "name": "Athletics",
            "sort": 600000,
            "type": "lore"
        }
    ],
    "name": "Giant Worker Bee",
    "token": {
        "disposition": -1,
        "height": 1,
        "img": "systems/pf2e/icons/default-icons/npc.svg",
        "name": "Giant Worker Bee",
        "width": 1
    },
    "type": "npc"
}
