{
    "_id": "JCoILqEvwovT7tkj",
    "data": {
        "abilities": {
            "cha": {
                "mod": -2
            },
            "con": {
                "mod": 2
            },
            "dex": {
                "mod": 4
            },
            "int": {
                "mod": -3
            },
            "str": {
                "mod": 3
            },
            "wis": {
                "mod": 2
            }
        },
        "attributes": {
            "ac": {
                "details": "",
                "value": 20
            },
            "allSaves": {
                "value": ""
            },
            "hp": {
                "details": "",
                "max": 45,
                "temp": 0,
                "value": 45
            },
            "initiative": {
                "ability": "perception"
            },
            "perception": {
                "value": 9
            },
            "shield": {
                "ac": 0,
                "brokenThreshold": 0,
                "hardness": 0,
                "max": 0,
                "value": 0
            },
            "speed": {
                "otherSpeeds": [],
                "value": "25"
            }
        },
        "details": {
            "alignment": {
                "value": "N"
            },
            "blurb": "",
            "creatureType": "Beast",
            "level": {
                "value": 3
            },
            "privateNotes": "",
            "publicNotes": "<p>These notorious predators have an undeniable thirst for blood. Chupacabras prefer to prey upon the weak and slow, often hiding in wait and watching potential prey for long periods before attacking. Spry and stealthy, they most often make their homes in areas of high grass and protective rock, their slightly reflective scales allowing them to blend in well with such surroundings.</p>\n<p>Chupacabras prefer to eat lone travelers and farm animals (particularly goats), and leave little evidence of their presence apart from the grisly, blood-drained husks of their meals. Their tendency to stay out of sight combined with their naturally nocturnal activity often leads superstitious locals to conclude the worst, imagining that a particularly reckless vampire lives in the area.</p>\n<p>A typical chupacabra measures nearly 5-1/2 feet from its muzzle to the tip of its spiny tail, and it stands just under 4 feet tall. With their slight build and lightweight bones, most weigh close to 100 pounds. They mate rarely and only during the hottest months, with the females each producing a single egg that hatches into a tiny, dehydrated creature. The mother typically leaves helpless prey in her cave so the hatchling can immediately feed.</p>\n<p>Although chupacabras are typically solitary creatures, they have been known to form small gangs in bountiful areas. Members of these groups work well together, growing bold enough to attack larger animals, small herds, and otherwise more dangerous prey. Stories of chupacabras attacking travelers or laying siege to farmhouses typically stem from the hunting practices of such gangs. Regions where chupacabra activity like this is more common often have complex and colorful myths and tall tales about chupacabra capabilities or motive-and a few of the claims, such as that some chupacabras can fly, are all too true.</p>",
            "source": {
                "value": "Pathfinder Bestiary 2"
            }
        },
        "resources": {},
        "saves": {
            "fortitude": {
                "saveDetail": "",
                "value": 9
            },
            "reflex": {
                "saveDetail": "",
                "value": 11
            },
            "will": {
                "saveDetail": "",
                "value": 7
            }
        },
        "traits": {
            "attitude": {
                "value": "hostile"
            },
            "ci": [],
            "di": {
                "custom": "",
                "value": []
            },
            "dr": [],
            "dv": [],
            "languages": {
                "custom": "Can't Speak Any Language",
                "selected": [],
                "value": [
                    "aklo"
                ]
            },
            "rarity": {
                "value": "common"
            },
            "senses": {
                "value": "darkvision"
            },
            "size": {
                "value": "sm"
            },
            "traits": {
                "custom": "",
                "value": [
                    "beast"
                ]
            }
        }
    },
    "effects": [],
    "flags": {},
    "img": "systems/pf2e/icons/default-icons/npc.svg",
    "items": [
        {
            "_id": "t8m638wy4P8pa4PZ",
            "data": {
                "attack": {
                    "value": ""
                },
                "attackEffects": {
                    "custom": "",
                    "value": [
                        "grab"
                    ]
                },
                "bonus": {
                    "value": 11
                },
                "damageRolls": {
                    "bzogvfqg81qjurxuluev": {
                        "damage": "1d10+5",
                        "damageType": "piercing"
                    }
                },
                "description": {
                    "value": ""
                },
                "rules": [],
                "slug": null,
                "source": {
                    "value": ""
                },
                "traits": {
                    "custom": "",
                    "rarity": {
                        "value": "common"
                    },
                    "value": [
                        "finesse"
                    ]
                },
                "weaponType": {
                    "value": "melee"
                }
            },
            "effects": [],
            "flags": {},
            "img": "systems/pf2e/icons/default-icons/melee.svg",
            "name": "Jaws",
            "sort": 100000,
            "type": "melee"
        },
        {
            "_id": "npIgzch2HZkhFifI",
            "data": {
                "attack": {
                    "value": ""
                },
                "attackEffects": {
                    "value": []
                },
                "bonus": {
                    "value": 11
                },
                "damageRolls": {
                    "s3rtyn2pu29sh70nnc3u": {
                        "damage": "1d6+5",
                        "damageType": "slashing"
                    }
                },
                "description": {
                    "value": ""
                },
                "rules": [],
                "slug": null,
                "source": {
                    "value": ""
                },
                "traits": {
                    "custom": "",
                    "rarity": {
                        "value": "common"
                    },
                    "value": [
                        "agile",
                        "finesse"
                    ]
                },
                "weaponType": {
                    "value": "melee"
                }
            },
            "effects": [],
            "flags": {},
            "img": "systems/pf2e/icons/default-icons/melee.svg",
            "name": "Claw",
            "sort": 200000,
            "type": "melee"
        },
        {
            "_id": "XSrKkFryn35jFMnz",
            "data": {
                "actionCategory": {
                    "value": "interaction"
                },
                "actionType": {
                    "value": "passive"
                },
                "actions": {
                    "value": null
                },
                "description": {
                    "value": "<p>@Localize[PF2E.NPC.Abilities.Glossary.Darkvision]</p>"
                },
                "requirements": {
                    "value": ""
                },
                "rules": [],
                "slug": "darkvision",
                "source": {
                    "value": ""
                },
                "traits": {
                    "custom": "",
                    "rarity": {
                        "value": "common"
                    },
                    "value": []
                },
                "trigger": {
                    "value": ""
                },
                "weapon": {
                    "value": ""
                }
            },
            "effects": [],
            "flags": {
                "core": {
                    "sourceId": "Compendium.pf2e.bestiary-ability-glossary-srd.qCCLZhnp2HhP3Ex6"
                }
            },
            "img": "systems/pf2e/icons/actions/Passive.webp",
            "name": "Darkvision",
            "sort": 300000,
            "type": "action"
        },
        {
            "_id": "abGmJgduMKED2VeX",
            "data": {
                "actionCategory": {
                    "value": "offensive"
                },
                "actionType": {
                    "value": "action"
                },
                "actions": {
                    "value": 1
                },
                "description": {
                    "value": "<p><strong>Requirements</strong> The chupacabra has a creature @Compendium[pf2e.conditionitems.Grabbed]{Grabbed};</p>\n<p><strong>Effect</strong> The chupacabra sucks blood from the grabbed creature. The chupacabra gains the @Compendium[pf2e.conditionitems.Quickened]{Quickened} condition for 1 minute and can use the extra action only for Strike and Stride actions. A chupacabra can't use Chupar again while it is quickened in this way.</p>\n<p>A creature that has its blood drained by a chupacabra is @Compendium[pf2e.conditionitems.Drained]{Drained 1} until it receives healing (of any kind or amount).</p>"
                },
                "requirements": {
                    "value": ""
                },
                "rules": [],
                "slug": null,
                "source": {
                    "value": ""
                },
                "traits": {
                    "custom": "",
                    "rarity": {
                        "value": "common"
                    },
                    "value": []
                },
                "trigger": {
                    "value": ""
                },
                "weapon": {
                    "value": ""
                }
            },
            "effects": [],
            "flags": {},
            "img": "systems/pf2e/icons/actions/OneAction.webp",
            "name": "Chupar",
            "sort": 400000,
            "type": "action"
        },
        {
            "_id": "UmF9ATrgifYyt9He",
            "data": {
                "actionCategory": {
                    "value": "offensive"
                },
                "actionType": {
                    "value": "action"
                },
                "actions": {
                    "value": 1
                },
                "description": {
                    "value": "<p>The chupacabra Strides and makes a Strike at the end of that movement. If the chupacabra began this action @Compendium[pf2e.conditionitems.Hidden]{Hidden}, it remains hidden until after this ability's Strike.</p>"
                },
                "requirements": {
                    "value": ""
                },
                "rules": [],
                "slug": null,
                "source": {
                    "value": ""
                },
                "traits": {
                    "custom": "",
                    "rarity": {
                        "value": "common"
                    },
                    "value": []
                },
                "trigger": {
                    "value": ""
                },
                "weapon": {
                    "value": ""
                }
            },
            "effects": [],
            "flags": {},
            "img": "systems/pf2e/icons/actions/OneAction.webp",
            "name": "Pounce",
            "sort": 500000,
            "type": "action"
        },
        {
            "_id": "hegoW9J1eMFWn0I6",
            "data": {
                "actionCategory": {
                    "value": "offensive"
                },
                "actionType": {
                    "value": "action"
                },
                "actions": {
                    "value": 1
                },
                "description": {
                    "value": "<p>@Localize[PF2E.NPC.Abilities.Glossary.Grab]</p>"
                },
                "requirements": {
                    "value": ""
                },
                "rules": [],
                "slug": "grab",
                "source": {
                    "value": ""
                },
                "traits": {
                    "custom": "",
                    "rarity": {
                        "value": "common"
                    },
                    "value": []
                },
                "trigger": {
                    "value": ""
                },
                "weapon": {
                    "value": ""
                }
            },
            "effects": [],
            "flags": {
                "core": {
                    "sourceId": "Compendium.pf2e.bestiary-ability-glossary-srd.Tkd8sH4pwFIPzqTr"
                }
            },
            "img": "systems/pf2e/icons/actions/OneAction.webp",
            "name": "Grab",
            "sort": 600000,
            "type": "action"
        },
        {
            "_id": "OQE9ap0Mj3pykdzk",
            "data": {
                "description": {
                    "value": ""
                },
                "item": {
                    "value": 0
                },
                "mod": {
                    "value": 9
                },
                "proficient": {
                    "value": 0
                },
                "rules": [
                    {
                        "key": "FlatModifier",
                        "label": "To Leap",
                        "predicate": {
                            "all": [
                                "action:leap"
                            ]
                        },
                        "selector": "acrobatics",
                        "type": "untyped",
                        "value": 2
                    }
                ],
                "slug": null,
                "source": {
                    "value": ""
                },
                "traits": {
                    "custom": "",
                    "rarity": {
                        "value": "common"
                    },
                    "value": []
                },
                "variants": {
                    "0": {
                        "label": "+11 to Leap",
                        "options": "action:leap"
                    }
                }
            },
            "effects": [],
            "flags": {},
            "img": "systems/pf2e/icons/default-icons/lore.svg",
            "name": "Acrobatics",
            "sort": 700000,
            "type": "lore"
        },
        {
            "_id": "gfmpjwebcEUzSXoN",
            "data": {
                "description": {
                    "value": ""
                },
                "item": {
                    "value": 0
                },
                "mod": {
                    "value": 9
                },
                "proficient": {
                    "value": 0
                },
                "rules": [
                    {
                        "key": "FlatModifier",
                        "label": "In undergrowth or rocky terrain",
                        "predicate": {
                            "any": [
                                "terrain:undergrowth",
                                "terrain:rocky"
                            ]
                        },
                        "selector": "stealth",
                        "value": 2
                    }
                ],
                "slug": null,
                "source": {
                    "value": ""
                },
                "traits": {
                    "custom": "",
                    "rarity": {
                        "value": "common"
                    },
                    "value": []
                },
                "variants": {
                    "0": {
                        "label": "+11 in undergrowth or rocky areas",
                        "options": "terrain:undergrowth,terrain:rocky"
                    }
                }
            },
            "effects": [],
            "flags": {},
            "img": "systems/pf2e/icons/default-icons/lore.svg",
            "name": "Stealth",
            "sort": 800000,
            "type": "lore"
        }
    ],
    "name": "Chupacabra",
    "token": {
        "disposition": -1,
        "height": 1,
        "img": "systems/pf2e/icons/default-icons/npc.svg",
        "name": "Chupacabra",
        "width": 1
    },
    "type": "npc"
}
