{
    "_id": "cKu0rrZtEAFCosej",
    "data": {
        "abilities": {
            "cha": {
                "mod": -2
            },
            "con": {
                "mod": 2
            },
            "dex": {
                "mod": -2
            },
            "int": {
                "mod": -5
            },
            "str": {
                "mod": 3
            },
            "wis": {
                "mod": 0
            }
        },
        "attributes": {
            "ac": {
                "details": "",
                "value": 13
            },
            "allSaves": {
                "value": ""
            },
            "hp": {
                "details": "(negative healing)",
                "max": 26,
                "temp": 0,
                "value": 26
            },
            "initiative": {
                "ability": "perception"
            },
            "perception": {
                "value": 3
            },
            "shield": {
                "ac": 0,
                "brokenThreshold": 0,
                "hardness": 0,
                "max": 0,
                "value": 0
            },
            "speed": {
                "otherSpeeds": [],
                "value": "25"
            }
        },
        "details": {
            "alignment": {
                "value": "N"
            },
            "blurb": "",
            "creatureType": "Undead",
            "level": {
                "value": 1
            },
            "privateNotes": "",
            "publicNotes": "<p>A void zombie arises when a humanoid dies from an akata's void death affliction. This walking corpse is animated by a larval akata attached to the deceased creature's brain, using a grotesque feeding tendril that emerges from the corpse's mouth to drink blood from its victims.</p>\n<p>A void zombie typically exists for only a few months before it collapses and the larval akata crawls free from the motionless shell. When it feels the natural end of its unlife approaching, a void zombie finds a secluded place to vomit forth the nearly mature akata larva, then withers away. The disgorged larva metamorphizes into a full-grown akata several hours later, usually eating the corpse as its first meal.</p>\n<p>The name \"void zombie\" is something of a misnomer; though still compelled by necromantic energies, a void zombie is a host in the life cycle of a parasitic alien, not a mindless, reanimated corpse (despite their similar appearances). The fact that a typical void zombie shares the neutral alignment of the larval akata within, rather than the intrinsically evil nature of other zombies, has caused some scholars to push to reclassify them under other names. Suggestions have included \"void dead,\" \"akata spawn,\" or \"bloodwalker,\" but the visceral and compelling commonplace name has proven difficult to shed.</p>\n<p>The driving force behind a void zombie's violence rises from the ravenous hunger of the alien parasite that serves as the channel for its animating negative energies. Necromancers have tried often to duplicate the void zombie, but without a larval akata hosted within, the result is simply a zombie with missing jaws or, at best, one that moves faster than normal. Others have compared a captive void zombie to a captive yellow musk thrall  in an attempt to discover a potential link between the two- after all, both are animated bodies controlled by a parasitic outside force. Strangely, a void zombie becomes particularly violent when encountering a yellow musk thrall, making direct comparisons of the two creatures particularly difficult, or even dangerous. The fact that a void zombie, unlike a yellow musk thrall, is actually undead may hold some clues as to the source of this strange behavior.</p>",
            "source": {
                "value": "Pathfinder Bestiary 2"
            }
        },
        "resources": {},
        "saves": {
            "fortitude": {
                "saveDetail": "",
                "value": 7
            },
            "reflex": {
                "saveDetail": "",
                "value": 3
            },
            "will": {
                "saveDetail": "",
                "value": 5
            }
        },
        "traits": {
            "attitude": {
                "value": "hostile"
            },
            "ci": [],
            "di": {
                "custom": "",
                "value": [
                    "death effects",
                    "disease",
                    "paralyzed",
                    "poison"
                ]
            },
            "dr": [],
            "dv": [
                {
                    "label": "Salt Water",
                    "type": "salt water",
                    "value": "5"
                },
                {
                    "label": "Slashing",
                    "type": "slashing",
                    "value": "2"
                }
            ],
            "languages": {
                "custom": "",
                "selected": [],
                "value": []
            },
            "rarity": {
                "value": "rare"
            },
            "senses": {
                "value": "darkvision"
            },
            "size": {
                "value": "med"
            },
            "traits": {
                "custom": "",
                "value": [
                    "undead"
                ]
            }
        }
    },
    "effects": [],
    "flags": {},
    "img": "systems/pf2e/icons/default-icons/npc.svg",
    "items": [
        {
            "_id": "4eJg9N0UmfD2Yt6C",
            "data": {
                "attack": {
                    "value": ""
                },
                "attackEffects": {
                    "value": []
                },
                "bonus": {
                    "value": 8
                },
                "damageRolls": {
                    "xs5fzqhj1sbpq5t2kw2a": {
                        "damage": "1d6+3",
                        "damageType": "bludgeoning"
                    }
                },
                "description": {
                    "value": ""
                },
                "rules": [],
                "slug": null,
                "source": {
                    "value": ""
                },
                "traits": {
                    "custom": "",
                    "rarity": {
                        "value": "common"
                    },
                    "value": []
                },
                "weaponType": {
                    "value": "melee"
                }
            },
            "effects": [],
            "flags": {},
            "img": "systems/pf2e/icons/default-icons/melee.svg",
            "name": "Fist",
            "sort": 100000,
            "type": "melee"
        },
        {
            "_id": "newbZPBnDfEIJX5y",
            "data": {
                "attack": {
                    "value": ""
                },
                "attackEffects": {
                    "value": [
                        "feed-on-blood"
                    ]
                },
                "bonus": {
                    "value": 6
                },
                "damageRolls": {
                    "qn7bahapr9ob5e7l0mal": {
                        "damage": "1d4+3",
                        "damageType": "piercing"
                    }
                },
                "description": {
                    "value": ""
                },
                "rules": [],
                "slug": null,
                "source": {
                    "value": ""
                },
                "traits": {
                    "custom": "",
                    "rarity": {
                        "value": "common"
                    },
                    "value": [
                        "agile"
                    ]
                },
                "weaponType": {
                    "value": "melee"
                }
            },
            "effects": [],
            "flags": {},
            "img": "systems/pf2e/icons/default-icons/melee.svg",
            "name": "Feeding Tendril",
            "sort": 200000,
            "type": "melee"
        },
        {
            "_id": "boC55Edo1J7Heynq",
            "data": {
                "actionCategory": {
                    "value": "interaction"
                },
                "actionType": {
                    "value": "passive"
                },
                "actions": {
                    "value": null
                },
                "description": {
                    "value": "<p>@Localize[PF2E.NPC.Abilities.Glossary.Darkvision]</p>"
                },
                "requirements": {
                    "value": ""
                },
                "rules": [],
                "slug": "darkvision",
                "source": {
                    "value": ""
                },
                "traits": {
                    "custom": "",
                    "rarity": {
                        "value": "common"
                    },
                    "value": []
                },
                "trigger": {
                    "value": ""
                },
                "weapon": {
                    "value": ""
                }
            },
            "effects": [],
            "flags": {
                "core": {
                    "sourceId": "Compendium.pf2e.bestiary-ability-glossary-srd.qCCLZhnp2HhP3Ex6"
                }
            },
            "img": "systems/pf2e/icons/actions/Passive.webp",
            "name": "Darkvision",
            "sort": 300000,
            "type": "action"
        },
        {
            "_id": "W7bXRQuNuOabEMJg",
            "data": {
                "actionCategory": {
                    "value": "defensive"
                },
                "actionType": {
                    "value": "passive"
                },
                "actions": {
                    "value": null
                },
                "description": {
                    "value": "<p>@Localize[PF2E.NPC.Abilities.Glossary.NegativeHealing]</p>"
                },
                "requirements": {
                    "value": ""
                },
                "rules": [
                    {
                        "key": "ActiveEffectLike",
                        "mode": "override",
                        "path": "data.attributes.hp.negativeHealing",
                        "value": true
                    }
                ],
                "slug": "negative-healing",
                "source": {
                    "value": ""
                },
                "traits": {
                    "custom": "",
                    "rarity": {
                        "value": "common"
                    },
                    "value": []
                },
                "trigger": {
                    "value": ""
                },
                "weapon": {
                    "value": ""
                }
            },
            "effects": [],
            "flags": {
                "core": {
                    "sourceId": "Compendium.pf2e.bestiary-ability-glossary-srd.TTCw5NusiSSkJU1x"
                }
            },
            "img": "systems/pf2e/icons/actions/Passive.webp",
            "name": "Negative Healing",
            "sort": 400000,
            "type": "action"
        },
        {
            "_id": "mdEZdShzE63nlTQK",
            "data": {
                "actionCategory": {
                    "value": "defensive"
                },
                "actionType": {
                    "value": "passive"
                },
                "actions": {
                    "value": null
                },
                "description": {
                    "value": "<p>Salt water acts as an extremely strong acid on the larval akata inside the void zombie. Full immersion in salt water deals [[/r {4d6}[acid]]]{4d6 acid damage} per round. On any round in which the void zombie takes damage due to its salt water weakness, the larval akata retreats to the depths of the void zombie's body, causing the void zombie to become @Compendium[pf2e.conditionitems.Slowed]{Slowed 1} until the end of its next turn.</p>"
                },
                "requirements": {
                    "value": ""
                },
                "rules": [],
                "slug": null,
                "source": {
                    "value": ""
                },
                "traits": {
                    "custom": "",
                    "rarity": {
                        "value": "common"
                    },
                    "value": []
                },
                "trigger": {
                    "value": ""
                },
                "weapon": {
                    "value": ""
                }
            },
            "effects": [],
            "flags": {},
            "img": "systems/pf2e/icons/actions/Passive.webp",
            "name": "Salt Water Vulnerability",
            "sort": 500000,
            "type": "action"
        },
        {
            "_id": "19Ayra6rX2M49iPG",
            "data": {
                "actionCategory": {
                    "value": "offensive"
                },
                "actionType": {
                    "value": "action"
                },
                "actions": {
                    "value": 1
                },
                "description": {
                    "value": "<p><strong>Requirements</strong> The void zombie's previous action was a successful feeding tendril Strike against the target creature;</p>\n<p><strong>Effect</strong> The void zombie uses its feeding tendril to drain blood from the creature struck. The void zombie regains 4 Hit Points, and the creature is @Compendium[pf2e.conditionitems.Drained]{Drained 1} until it receives healing of any kind or amount.</p>"
                },
                "requirements": {
                    "value": ""
                },
                "rules": [],
                "slug": null,
                "source": {
                    "value": ""
                },
                "traits": {
                    "custom": "",
                    "rarity": {
                        "value": "common"
                    },
                    "value": []
                },
                "trigger": {
                    "value": ""
                },
                "weapon": {
                    "value": ""
                }
            },
            "effects": [],
            "flags": {},
            "img": "systems/pf2e/icons/actions/OneAction.webp",
            "name": "Feed on Blood",
            "sort": 600000,
            "type": "action"
        },
        {
            "_id": "PN5RGbC9La9O6468",
            "data": {
                "description": {
                    "value": ""
                },
                "item": {
                    "value": 0
                },
                "mod": {
                    "value": 6
                },
                "proficient": {
                    "value": 0
                },
                "rules": [],
                "slug": null,
                "source": {
                    "value": ""
                },
                "traits": {
                    "custom": "",
                    "rarity": {
                        "value": "common"
                    },
                    "value": []
                }
            },
            "effects": [],
            "flags": {},
            "img": "systems/pf2e/icons/default-icons/lore.svg",
            "name": "Athletics",
            "sort": 700000,
            "type": "lore"
        }
    ],
    "name": "Void Zombie",
    "token": {
        "disposition": -1,
        "height": 1,
        "img": "systems/pf2e/icons/default-icons/npc.svg",
        "name": "Void Zombie",
        "width": 1
    },
    "type": "npc"
}
