{
    "_id": "HStu2Yhw3iQER9tY",
    "data": {
        "ability": {
            "value": ""
        },
        "area": {
            "areaType": "",
            "value": ""
        },
        "autoHeightenLevel": {
            "value": null
        },
        "category": {
            "value": "spell"
        },
        "components": {
            "focus": false,
            "material": false,
            "somatic": false,
            "verbal": true
        },
        "cost": {
            "value": ""
        },
        "damage": {
            "value": {}
        },
        "description": {
            "value": "<p>You focus deeply on the link between you and your eidolon and boost the power of your eidolon's attacks. Your eidolon gains a +2 status bonus to damage rolls with its unarmed attacks. If your eidolon's Strikes deal more than one weapon damage die, the status bonus increases to 2 per weapon damage die, to a maximum of +8 with four weapon damage dice.</p>\n<hr />\n<ul>\n<li>@Compendium[pf2e.spell-effects.Spell Effect: Boost Eidolon (1 Die)]{Spell Effect: Boost Eidolon (1 Die)}</li>\n<li>@Compendium[pf2e.spell-effects.Spell Effect: Boost Eidolon (2 Dice)]{Spell Effect: Boost Eidolon (2 Dice)}</li>\n<li>@Compendium[pf2e.spell-effects.Spell Effect: Boost Eidolon (3 Dice)]{Spell Effect: Boost Eidolon (3 Dice)}</li>\n<li>@Compendium[pf2e.spell-effects.Spell Effect: Boost Eidolon (4 Dice)]{Spell Effect: Boost Eidolon (4 Dice)}</li>\n</ul>"
        },
        "duration": {
            "value": "1 round"
        },
        "hasCounteractCheck": {
            "value": false
        },
        "level": {
            "value": 1
        },
        "location": {
            "value": ""
        },
        "materials": {
            "value": ""
        },
        "range": {
            "value": ""
        },
        "rules": [],
        "save": {
            "basic": "",
            "value": ""
        },
        "school": {
            "value": "evocation"
        },
        "source": {
            "value": "Pathfinder Secrets of Magic"
        },
        "spellType": {
            "value": "utility"
        },
        "sustained": {
            "value": false
        },
        "target": {
            "value": "your eidolon"
        },
        "time": {
            "value": "1"
        },
        "traditions": {
            "value": []
        },
        "traits": {
            "custom": "",
            "rarity": {
                "value": "uncommon"
            },
            "value": [
                "cantrip",
                "summoner"
            ]
        }
    },
    "effects": [],
    "flags": {},
    "img": "systems/pf2e/icons/default-icons/spell.svg",
    "name": "Boost Eidolon",
    "type": "spell"
}
