{
    "_id": "QE9f3OxvvBThymD4",
    "data": {
        "ability": {
            "value": ""
        },
        "area": {
            "areaType": "emanation",
            "value": 15
        },
        "areasize": {
            "value": "15-foot emanation"
        },
        "category": {
            "value": "focus"
        },
        "components": {
            "material": false,
            "somatic": true,
            "verbal": true
        },
        "cost": {
            "value": ""
        },
        "damage": {
            "value": {}
        },
        "description": {
            "value": "<p>You force the Material and Ethereal Planes to partially overlap, creating a zone that causes incorporeal and spiritual entities to take on many of the aspects of corporeal creatures. Within the ectoplasmic interstice, incorporeal creatures cannot pass through solid objects or corporeal creatures, and they can manipulate and attempt Strength-based checks against physical creatures and objects. An incorporeal PC or other creature with a normal Strength modifier simply uses that modifier, but if the creature had a Strength modifier of -5, like most incorporeal monsters, it uses a +4 modifier instead, increasing its Athletics modifier by 9 accordingly. Attacks against creatures that are within the interstice overcome resistances as if they were by @Compendium[pf2e.equipment-srd.Ghost Touch]{Ghost Touch} weapons.</p>"
        },
        "duration": {
            "value": "sustained up to 1 minute"
        },
        "hasCounteractCheck": {
            "value": false
        },
        "level": {
            "value": 4
        },
        "location": {
            "value": ""
        },
        "materials": {
            "value": ""
        },
        "prepared": {
            "value": ""
        },
        "primarycheck": {
            "value": ""
        },
        "range": {
            "value": "30 feet"
        },
        "rules": [],
        "save": {
            "basic": "",
            "value": ""
        },
        "school": {
            "value": "necromancy"
        },
        "secondarycasters": {
            "value": ""
        },
        "secondarycheck": {
            "value": ""
        },
        "source": {
            "value": "Pathfinder Lost Omens: Gods & Magic"
        },
        "spellType": {
            "value": "utility"
        },
        "sustained": {
            "value": false
        },
        "target": {
            "value": ""
        },
        "time": {
            "value": "2"
        },
        "traditions": {
            "custom": "",
            "value": []
        },
        "traits": {
            "custom": "",
            "rarity": {
                "value": "uncommon"
            },
            "value": [
                "cleric"
            ]
        }
    },
    "effects": [],
    "flags": {},
    "img": "systems/pf2e/icons/spells/ectoplasmic-interstice.webp",
    "name": "Ectoplasmic Interstice",
    "type": "spell"
}
