{
    "_id": "zJQnkKEKbJqGB3iB",
    "data": {
        "ability": {
            "value": ""
        },
        "area": {
            "areaType": "",
            "value": ""
        },
        "areasize": {
            "value": ""
        },
        "category": {
            "value": "spell"
        },
        "components": {
            "material": false,
            "somatic": true,
            "verbal": true
        },
        "cost": {
            "value": ""
        },
        "damage": {
            "value": {}
        },
        "description": {
            "value": "<p>Your touch afflicts the target with goblin pox, an irritating allergenic rash. The target must attempt a Fortitude save.</p>\n<hr />\n<p><strong>Goblin Pox</strong> (disease) <strong>Level</strong> 1. Goblins and goblin dogs are immune.</p>\n<p><strong>Stage</strong> <strong>1</strong> @Compendium[pf2e.conditionitems.Sickened]{Sickened 1} (1 round);</p>\n<p><strong>Stage 2</strong> @Compendium[pf2e.conditionitems.Sickened]{Sickened 1} and @Compendium[pf2e.conditionitems.Slowed]{Slowed 1} (1 round);</p>\n<p><strong>Stage 3</strong> @Compendium[pf2e.conditionitems.Sickened]{Sickened 1} and the creature can't reduce its Sickened value below 1 (1 day)</p>\n<hr />\n<p><strong>Critical Success</strong> The target is unaffected.</p>\n<p><strong>Success</strong> The target is @Compendium[pf2e.conditionitems.Sickened]{Sickened 1}.</p>\n<p><strong>Failure</strong> The target is afflicted with goblin pox at stage 1.</p>\n<p><strong>Critical Failure</strong> The target is afflicted with goblin pox at stage 2.</p>"
        },
        "duration": {
            "value": ""
        },
        "hasCounteractCheck": {
            "value": false
        },
        "level": {
            "value": 1
        },
        "location": {
            "value": 147
        },
        "materials": {
            "value": ""
        },
        "prepared": {
            "value": ""
        },
        "primarycheck": {
            "value": ""
        },
        "range": {
            "value": "touch"
        },
        "rules": [],
        "save": {
            "basic": "",
            "value": "fortitude"
        },
        "school": {
            "value": "necromancy"
        },
        "secondarycasters": {
            "value": ""
        },
        "secondarycheck": {
            "value": ""
        },
        "source": {
            "value": "Pathfinder Core Rulebook"
        },
        "spellType": {
            "value": "save"
        },
        "sustained": {
            "value": false
        },
        "target": {
            "value": "1 creature"
        },
        "time": {
            "value": "2"
        },
        "traditions": {
            "value": [
                "arcane",
                "primal"
            ]
        },
        "traits": {
            "custom": "",
            "rarity": {
                "value": "common"
            },
            "value": [
                "disease"
            ]
        }
    },
    "effects": [],
    "flags": {},
    "img": "systems/pf2e/icons/spells/goblin-pox.webp",
    "name": "Goblin Pox",
    "type": "spell"
}
