{
    "_id": "VACvA5VRbddjt5s9",
    "data": {
        "ability": {
            "value": ""
        },
        "area": {
            "areaType": "",
            "value": ""
        },
        "autoHeightenLevel": {
            "value": null
        },
        "category": {
            "value": "spell"
        },
        "components": {
            "focus": false,
            "material": false,
            "somatic": true,
            "verbal": true
        },
        "cost": {
            "value": ""
        },
        "damage": {
            "value": {}
        },
        "description": {
            "value": "<p>With enchanted gusto, you encourage yourself to get things done and share your motivation with your allies. You gain a +1 status bonus to your choice of attack rolls, Will saves, or Charisma-based skill checks. During the spell's duration, an ally who observed you Casting this Spell and was within 30 feet when you did so can take a single action, which has the concentrate trait, to gain the same bonus you chose until the start of its next turn.</p>\n<p>Using this spell to influence someone in a social situation is typically considered a faux pas, negating the benefit on Charisma-based skills if the subject of the check observed you casting the spell.</p>\n<p>@Compendium[pf2e.spell-effects.Spell Effect: Infectious Enthusiasm (Attack)]{Spell Effect: Infectious Enthusiasm (Attack)}</p>\n<p>@Compendium[pf2e.spell-effects.Spell Effect: Infectious Enthusiasm (Charisma Based)]{Spell Effect: Infectious Enthusiasm (Charisma Based)}</p>\n<p>@Compendium[pf2e.spell-effects.Spell Effect: Infectious Enthusiasm (Will Saves)]{Spell Effect: Infectious Enthusiasm (Will Saves)}</p>"
        },
        "duration": {
            "value": "1 round"
        },
        "hasCounteractCheck": {
            "value": false
        },
        "level": {
            "value": 1
        },
        "location": {
            "value": ""
        },
        "materials": {
            "value": ""
        },
        "range": {
            "value": ""
        },
        "rules": [],
        "save": {
            "basic": "",
            "value": ""
        },
        "school": {
            "value": "enchantment"
        },
        "source": {
            "value": "Pathfinder Secrets of Magic"
        },
        "spellType": {
            "value": "utility"
        },
        "sustained": {
            "value": false
        },
        "target": {
            "value": ""
        },
        "time": {
            "value": "2"
        },
        "traditions": {
            "custom": "",
            "value": [
                "arcane",
                "occult"
            ]
        },
        "traits": {
            "custom": "",
            "rarity": {
                "value": "common"
            },
            "value": [
                "cantrip",
                "emotion",
                "mental"
            ]
        }
    },
    "effects": [],
    "flags": {},
    "img": "systems/pf2e/icons/spells/infectious-enthusiasm.webp",
    "name": "Infectious Enthusiasm",
    "type": "spell"
}
