{
    "_id": "cnbwtbDmlD0KoLqY",
    "data": {
        "actionCategory": {
            "value": "interaction"
        },
        "actionType": {
            "value": "passive"
        },
        "actions": {
            "value": null
        },
        "description": {
            "value": "<p>You've learned to watch for telltale signs of dangerous sentiments to help you avoid trouble. You gain a +1 circumstance bonus to your Perception DC against attempts to Lie to you and your Perception checks to Sense Motive.</p>"
        },
        "featType": {
            "value": "heritage"
        },
        "level": {
            "value": 1
        },
        "location": "",
        "prerequisites": {
            "value": []
        },
        "rules": [
            {
                "key": "FlatModifier",
                "label": "Insightful Goloma",
                "predicate": {
                    "all": [
                        "action:sense-motive"
                    ]
                },
                "selector": "perception",
                "type": "circumstance",
                "value": 1
            }
        ],
        "source": {
            "value": ""
        },
        "traits": {
            "custom": "",
            "rarity": {
                "value": "common"
            },
            "value": [
                "goloma",
                "heritage"
            ]
        }
    },
    "effects": [],
    "flags": {},
    "img": "systems/pf2e/icons/default-icons/feat.svg",
    "name": "Insightful Goloma",
    "type": "feat"
}
