{
    "_id": "a6F2WjYU8D0suT8T",
    "data": {
        "actionCategory": {
            "value": ""
        },
        "actionType": {
            "value": "passive"
        },
        "actions": {
            "value": null
        },
        "description": {
            "value": "<p>Your family's teeth are formidable weapons. You gain a jaws unarmed attack that deals <a class=\"inline-roll roll\" title=\"piercing\" data-mode=\"roll\" data-flavor=\"piercing\" data-formula=\"1d6\"><i class=\"fas fa-dice-d20\"></i> 1d6</a> piercing damage. Your jaws are in the brawling group and have the finesse and unarmed traits.</p>"
        },
        "featType": {
            "value": "heritage"
        },
        "level": {
            "value": 1
        },
        "location": "",
        "prerequisites": {
            "value": []
        },
        "rules": [
            {
                "category": "unarmed",
                "damage": {
                    "base": {
                        "damageType": "piercing",
                        "dice": 1,
                        "die": "d6"
                    }
                },
                "group": "brawling",
                "key": "Strike",
                "label": "Jaws",
                "range": null,
                "traits": [
                    "finesse",
                    "unarmed"
                ]
            }
        ],
        "source": {
            "value": ""
        },
        "traits": {
            "custom": "",
            "rarity": {
                "value": "common"
            },
            "value": [
                "goblin"
            ]
        }
    },
    "effects": [],
    "flags": {},
    "img": "systems/pf2e/icons/features/ancestry/razortooth-goblin.webp",
    "name": "Razortooth Goblin",
    "type": "feat"
}
