{
    "_id": "hxp0fDMrB7BT3y3T",
    "data": {
        "actionCategory": {
            "value": ""
        },
        "actionType": {
            "value": "passive"
        },
        "actions": {
            "value": null
        },
        "description": {
            "value": "<p><strong>[Generic][Slotless]</strong></p>\n<p><strong>Effect</strong>: After the Abyssal influence was driven from Finadar Forest, some of its leshys set out into the wider world. You have gained access to the following background for all of your characters (include a copy of this Chronicle Sheet with any character who selects this background).</p>\n<p>@Compendium[pf2e.backgrounds.Finadar Leshy]{Finadar Leshy}</p>"
        },
        "featType": {
            "value": "pfsboon"
        },
        "level": {
            "value": 0
        },
        "prerequisites": {
            "value": []
        },
        "rules": [],
        "source": {
            "value": ""
        },
        "traits": {
            "custom": "",
            "rarity": {
                "value": "common"
            },
            "selected": {},
            "value": []
        }
    },
    "effects": [],
    "flags": {},
    "img": "systems/pf2e/icons/default-icons/mystery-man.webp",
    "name": "S1-15 - Finadar Leshy",
    "type": "feat"
}
