{
    "_id": "taUqYoHuWH9uEbsn",
    "data": {
        "actionCategory": {
            "value": ""
        },
        "actionType": {
            "value": "passive"
        },
        "actions": {
            "value": null
        },
        "description": {
            "value": "<p><strong>[Generic]</strong></p>\n<p><strong>Effect</strong>: Bhopanese culture has numerous traditions that involve bloodletting as a sign of respect or a show of bravery. You participated in at least one of these traditions. This boon will have an effect in future scenarios.</p>\n<p>@Compendium[pf2e.feats-srd.Fey Influence]{Fey Influence}</p>"
        },
        "featType": {
            "value": "pfsboon"
        },
        "level": {
            "value": 0
        },
        "prerequisites": {
            "value": []
        },
        "rules": [],
        "source": {
            "value": ""
        },
        "traits": {
            "custom": "",
            "rarity": {
                "value": "common"
            },
            "selected": {},
            "value": []
        }
    },
    "effects": [],
    "flags": {},
    "img": "systems/pf2e/icons/default-icons/mystery-man.webp",
    "name": "S1-17 - Fey Influence",
    "type": "feat"
}
