{
    "_id": "sNFBOw4z9KagWUHe",
    "data": {
        "abilities": {
            "cha": {
                "mod": -5
            },
            "con": {
                "mod": 3
            },
            "dex": {
                "mod": -1
            },
            "int": {
                "mod": -5
            },
            "str": {
                "mod": 5
            },
            "wis": {
                "mod": 0
            }
        },
        "attributes": {
            "ac": {
                "details": "",
                "value": 26
            },
            "allSaves": {
                "value": ""
            },
            "hp": {
                "details": "",
                "max": 140,
                "temp": 0,
                "value": 140
            },
            "initiative": {
                "ability": "perception"
            },
            "perception": {
                "value": 12
            },
            "shield": {
                "ac": 0,
                "brokenThreshold": 0,
                "hardness": 0,
                "max": 0,
                "value": 0
            },
            "speed": {
                "details": "",
                "otherSpeeds": [],
                "value": "25"
            }
        },
        "details": {
            "alignment": {
                "value": "N"
            },
            "blurb": "",
            "creatureType": "Construct",
            "level": {
                "value": 8
            },
            "privateNotes": "",
            "publicNotes": "<p>Made of odd scraps of skin and muscle, a flesh golem is a grotesque parody of life. Though it has no mind, it can still go into a berserk rage when harmed, giving it a faint semblance of emotion. Flesh golems guard the laboratories and charnel houses of fleshwarpers and necromancers who feel no compunctions about desecrating corpses for their own ends. Though the first flesh golem is believed to have been a misguided attempt to create from simple base elements, these monstrosities are far from human. In isolated cases, echoes of a personality might rise in a flesh golem if the brain used as part of its construction belonged to a particularly powerful personality, but such tragic instances are (thankfully) rare in the extreme.</p>\n<hr />\n<p>Crafted of base materials and then magically animated into a powerful guardian, the legendary golem is a living construct that mindlessly obeys its creator's commands-often continuing to do so for years or even centuries after its creator's death. There exist two known methods of animating a golem. The traditional method involves harvesting and implanting an elemental soul or essence within the newly crafted host statue, a procedure seen as vile and blasphemous to those who value the sanctity of the soul; evil or amoral golem crafters tend to prefer this method. The other, less disreputable technique involves siphoning pure positive energy into the statue to artificially imitate the creation of a soul. The result does not give the golem a true soul and is generally a more costly and time-consuming method of creation. Regardless of the method used, the resulting golem functions the same. A golem's unique animating force leaves it susceptible to certain forms of magic, but apart from these few weaknesses, it is impervious to magic and difficult to damage with weapons.</p>\n<p>Golems work best in play as foes to vanquish rather than allies to accompany player characters on adventures. The process of creating a golem is time-consuming, expensive, and difficult, and only the most talented spellcasters or artisans can even hope to accomplish such an undertaking. While certain magical texts-so-called \"golem manuals\"-are said to aid golems crafters, for the most part the creation of a golem should be something left in the hands of the Game Master.</p>\n<p>Golems have components that can be harvested as trophies or magical components; the value depends on the golem in question. Examples of components that can be harvested from golems are listed in the sidebars.</p>",
            "source": {
                "author": "",
                "value": "Pathfinder Bestiary"
            }
        },
        "resources": {},
        "saves": {
            "fortitude": {
                "saveDetail": "",
                "value": 18
            },
            "reflex": {
                "saveDetail": "",
                "value": 14
            },
            "will": {
                "saveDetail": "",
                "value": 15
            }
        },
        "traits": {
            "ci": [],
            "di": {
                "custom": "Magic (see Golem Antimagic)",
                "value": [
                    "bleed",
                    "death-effects",
                    "disease",
                    "doomed",
                    "drained",
                    "electricity",
                    "fatigued",
                    "healing",
                    "mental",
                    "necromancy",
                    "nonlethal-attacks",
                    "paralyzed",
                    "poison",
                    "sickened",
                    "unconscious"
                ]
            },
            "dr": [
                {
                    "exceptions": "adamantine",
                    "type": "physical",
                    "value": 5
                }
            ],
            "dv": [],
            "languages": {
                "custom": "",
                "selected": [],
                "value": []
            },
            "rarity": {
                "value": "uncommon"
            },
            "senses": {
                "value": "darkvision"
            },
            "size": {
                "value": "lg"
            },
            "traits": {
                "custom": "",
                "value": [
                    "construct",
                    "golem",
                    "mindless"
                ]
            }
        }
    },
    "effects": [],
    "flags": {},
    "img": "systems/pf2e/icons/default-icons/npc.svg",
    "items": [
        {
            "_id": "k1kPrQ3Krhcipl4E",
            "data": {
                "attack": {
                    "value": ""
                },
                "attackEffects": {
                    "custom": "",
                    "value": []
                },
                "bonus": {
                    "value": 20
                },
                "damageRolls": {
                    "p5d1nbdm06qkq6wsqaq5": {
                        "damage": "2d10+7",
                        "damageType": "bludgeoning"
                    }
                },
                "description": {
                    "value": ""
                },
                "rules": [],
                "slug": null,
                "source": {
                    "value": ""
                },
                "traits": {
                    "custom": "",
                    "rarity": {
                        "value": "common"
                    },
                    "value": [
                        "magical",
                        "reach-10"
                    ]
                },
                "weaponType": {
                    "value": "melee"
                }
            },
            "effects": [],
            "flags": {},
            "img": "systems/pf2e/icons/default-icons/melee.svg",
            "name": "Fist",
            "sort": 100000,
            "type": "melee"
        },
        {
            "_id": "69DgtYVywDs0D5pB",
            "data": {
                "actionCategory": {
                    "value": "interaction"
                },
                "actionType": {
                    "value": "passive"
                },
                "actions": {
                    "value": null
                },
                "description": {
                    "value": "<p>@Localize[PF2E.NPC.Abilities.Glossary.Darkvision]</p>"
                },
                "requirements": {
                    "value": ""
                },
                "rules": [],
                "slug": "darkvision",
                "source": {
                    "value": ""
                },
                "traits": {
                    "custom": "",
                    "rarity": {
                        "value": "common"
                    },
                    "value": []
                },
                "trigger": {
                    "value": ""
                },
                "weapon": {
                    "value": ""
                }
            },
            "effects": [],
            "flags": {
                "core": {
                    "sourceId": "Compendium.pf2e.bestiary-ability-glossary-srd.qCCLZhnp2HhP3Ex6"
                }
            },
            "img": "systems/pf2e/icons/actions/Passive.webp",
            "name": "Darkvision",
            "sort": 200000,
            "type": "action"
        },
        {
            "_id": "95kvqPPSJNio8vAK",
            "data": {
                "actionCategory": {
                    "value": "defensive"
                },
                "actionType": {
                    "value": "passive"
                },
                "actions": {
                    "value": null
                },
                "description": {
                    "value": "<p>A severely damaged flesh golem has a chance of going berserk. If it has 40 or fewer HP at the start of its turn, the golem must succeed at a <span data-pf2-check=\"flat\" data-pf2-dc=\"5\" data-pf2-label=\"Berserk DC\" data-pf2-show-dc=\"gm\">flat check</span> or go berserk. A berserk golem wildly attacks the nearest living creature, or the nearest object if no creatures are nearby.</p>"
                },
                "requirements": {
                    "value": ""
                },
                "rules": [],
                "slug": null,
                "source": {
                    "value": ""
                },
                "traits": {
                    "custom": "",
                    "rarity": {
                        "value": "common"
                    },
                    "value": []
                },
                "trigger": {
                    "value": ""
                },
                "weapon": {
                    "value": ""
                }
            },
            "effects": [],
            "flags": {},
            "img": "systems/pf2e/icons/actions/Passive.webp",
            "name": "Berserk",
            "sort": 300000,
            "type": "action"
        },
        {
            "_id": "WQED2R71AMrx1suT",
            "data": {
                "actionCategory": {
                    "value": "defensive"
                },
                "actionType": {
                    "value": "passive"
                },
                "actions": {
                    "value": null
                },
                "description": {
                    "value": "<p>harmed by fire ([[/r {5d8}]]{5d8 damage}, [[/r {3d4}]]{3d4 damage} from areas or persistent damage); healed by electricity (area [[/r {2d4}[healing]]]{2d4 Hit Points}); slowed by cold</p>\n<hr />\n<p>A golem is immune to spells and magical abilities other than its own, but each type of golem is affected by a few types of magic in special ways. These exceptions are listed in shortened form in the golem's stat block, with the full rules appearing here. If an entry lists multiple types (such as \"cold and water\"), either type of spell can affect the golem.</p>\n<ul>\n<li><strong>Harmed By</strong> Any magic of this type that targets the golem causes it to take the listed amount of damage (this damage has no type) instead of the usual effect. If the golem starts its turn in an area of magic of this type or is affected by a persistent effect of the appropriate type, it takes the damage listed in the parenthetical.</li>\n<li><strong>Healed By</strong> Any magic of this type that targets the golem makes the golem lose the slowed condition and gain HP equal to half the damage the spell would have dealt. If the golem starts its turn in an area of this type of magic, it gains the HP listed in the parenthetical.</li>\n<li><strong>Slowed By</strong> Any magic of this type that targets the golem causes it to be @Compendium[pf2e.conditionitems.Slowed]{Slowed 1} for [[/br 2d6 #rounds]]{2d6 rounds} instead of the usual effect. If the golem starts its turn in an area of this type of magic, it's slowed 1 for that round.</li>\n<li><strong>Vulnerable To</strong> Each golem is vulnerable to one or more specific spells, with the effects described in its stat block.</li>\n</ul>"
                },
                "requirements": {
                    "value": ""
                },
                "rules": [],
                "slug": "golem-golem-antimagic",
                "source": {
                    "value": "Pathfinder Bestiary"
                },
                "traits": {
                    "custom": "",
                    "rarity": {
                        "value": "common"
                    },
                    "value": []
                },
                "trigger": {
                    "value": ""
                },
                "weapon": {
                    "value": ""
                }
            },
            "effects": [],
            "flags": {
                "core": {
                    "sourceId": "Compendium.pf2e.bestiary-family-ability-glossary.r34QDwKiWZoVymJa"
                }
            },
            "img": "systems/pf2e/icons/actions/Passive.webp",
            "name": "Golem Antimagic",
            "sort": 400000,
            "type": "action"
        },
        {
            "_id": "uzwUjI3gD8tO8Chh",
            "data": {
                "actionCategory": {
                    "value": "defensive"
                },
                "actionType": {
                    "value": "passive"
                },
                "actions": {
                    "value": null
                },
                "description": {
                    "value": "<p>Casting a <em>@Compendium[pf2e.spells-srd.Flesh to Stone]{Flesh to Stone}</em> spell on the flesh golem affects the golem normally.</p>"
                },
                "requirements": {
                    "value": ""
                },
                "rules": [],
                "slug": null,
                "source": {
                    "value": ""
                },
                "traits": {
                    "custom": "",
                    "rarity": {
                        "value": "common"
                    },
                    "value": []
                },
                "trigger": {
                    "value": ""
                },
                "weapon": {
                    "value": ""
                }
            },
            "effects": [],
            "flags": {},
            "img": "systems/pf2e/icons/actions/Passive.webp",
            "name": "Vulnerable to Flesh to Stone",
            "sort": 500000,
            "type": "action"
        },
        {
            "_id": "Hss992fc1sCOcDVo",
            "data": {
                "actionCategory": {
                    "value": "defensive"
                },
                "actionType": {
                    "value": "reaction"
                },
                "actions": {
                    "value": null
                },
                "description": {
                    "value": "<p data-visibility=\"gm\"><strong>Trigger</strong> The golem takes electricity damage and a creature is adjacent to it.</p>\n<p><strong>Effect</strong> The golem lashes out and tries to grab a nearby creature. The golem attempts an Athletics check to @Compendium[pf2e.actionspf2e.Grapple]{Grapple} an adjacent creature. The creature also takes [[/r {3d6}[electricity]]]{3d6 electricity damage} on a success, or [[/r {6d6}[electricity]]]{6d6 electricity damage} on a critical success.</p>"
                },
                "requirements": {
                    "value": ""
                },
                "rules": [],
                "slug": null,
                "source": {
                    "value": ""
                },
                "traits": {
                    "custom": "",
                    "rarity": {
                        "value": "common"
                    },
                    "value": []
                },
                "trigger": {
                    "value": ""
                },
                "weapon": {
                    "value": ""
                }
            },
            "effects": [],
            "flags": {},
            "img": "systems/pf2e/icons/actions/Reaction.webp",
            "name": "Electric Reflexes",
            "sort": 600000,
            "type": "action"
        },
        {
            "_id": "hvTnI184eIoLfwPq",
            "data": {
                "actionCategory": {
                    "value": "offensive"
                },
                "actionType": {
                    "value": "action"
                },
                "actions": {
                    "value": 1
                },
                "description": {
                    "value": "<p data-visibility=\"gm\"><strong>Requirement</strong> The flesh golem is berserk.</p>\n<p><strong>Effect</strong> The flesh golem Strikes with its fist at a -1 circumstance penalty. If it hits, it deals an additional [[/r {1d6}[bludgeoning]]]{1d6 bludgeoning damage} and knocks the target @Compendium[pf2e.conditionitems.Prone]{Prone}.</p>"
                },
                "requirements": {
                    "value": ""
                },
                "rules": [
                    {
                        "key": "ToggleProperty",
                        "property": "flags.pf2e.rollOptions.all.berserkSlam"
                    },
                    {
                        "key": "FlatModifier",
                        "predicate": {
                            "all": [
                                "berserkSlam"
                            ]
                        },
                        "selector": "fist-attack",
                        "type": "circumstance",
                        "value": -1
                    },
                    {
                        "diceNumber": 1,
                        "dieSize": "d6",
                        "key": "DamageDice",
                        "predicate": {
                            "all": [
                                "berserkSlam"
                            ]
                        },
                        "selector": "fist-damage"
                    },
                    {
                        "key": "Note",
                        "predicate": {
                            "all": [
                                "berserkSlam"
                            ]
                        },
                        "selector": "fist-attack",
                        "text": "<p data-visibility='gm'>If the attack hits, the target is knocked @Compendium[pf2e.conditionitems.Prone]{Prone}</p>"
                    }
                ],
                "slug": null,
                "source": {
                    "value": ""
                },
                "traits": {
                    "custom": "",
                    "rarity": {
                        "value": "common"
                    },
                    "value": []
                },
                "trigger": {
                    "value": ""
                },
                "weapon": {
                    "value": ""
                }
            },
            "effects": [],
            "flags": {},
            "img": "systems/pf2e/icons/actions/OneAction.webp",
            "name": "Berserk Slam",
            "sort": 700000,
            "type": "action"
        },
        {
            "_id": "mInccpo8OPs89BAi",
            "data": {
                "description": {
                    "value": ""
                },
                "item": {
                    "value": 0
                },
                "mod": {
                    "value": 19
                },
                "proficient": {
                    "value": 0
                },
                "rules": [],
                "slug": null,
                "source": {
                    "value": ""
                },
                "traits": {
                    "custom": "",
                    "rarity": {
                        "value": "common"
                    },
                    "value": []
                }
            },
            "effects": [],
            "flags": {},
            "img": "systems/pf2e/icons/default-icons/lore.svg",
            "name": "Athletics",
            "sort": 800000,
            "type": "lore"
        }
    ],
    "name": "Flesh Golem",
    "token": {
        "disposition": -1,
        "height": 2,
        "img": "systems/pf2e/icons/default-icons/npc.svg",
        "name": "Flesh Golem",
        "width": 2
    },
    "type": "npc"
}
