{
    "_id": "SjrM6XVTLySToS12",
    "data": {
        "description": {
            "value": "<p>An astradaemon draws power from the souls of the recently slain. If a Small or larger living creature dies within its aura, the astradaemon gains 5 temporary Hit Points and a status bonus to attack and damage rolls for 1 round.</p>"
        },
        "duration": {
            "expiry": "turn-start",
            "sustained": false,
            "unit": "rounds",
            "value": 1
        },
        "level": {
            "value": 1
        },
        "rules": [
            {
                "key": "TempHP",
                "value": 5
            },
            {
                "key": "FlatModifier",
                "selector": "attack",
                "type": "status",
                "value": 1
            },
            {
                "key": "FlatModifier",
                "selector": "damage",
                "type": "status",
                "value": 1
            }
        ],
        "source": {
            "value": "Pathfinder Bestiary"
        },
        "start": {
            "initiative": null,
            "value": 0
        },
        "target": null,
        "tokenIcon": {
            "show": true
        },
        "traits": {
            "custom": "",
            "rarity": {
                "value": "common"
            },
            "value": []
        }
    },
    "effects": [],
    "flags": {},
    "img": "systems/pf2e/icons/spells/horrific-visage.webp",
    "name": "Effect: Soul Siphon",
    "type": "effect"
}
