{
    "_id": "7qoZauizAKfPIXeu",
    "data": {
        "description": {
            "value": "<p>The target takes [[/r {4d6}[persistent,fire]]] @Compendium[pf2e.conditionitems.Persistent Damage]{Persistent Fire Damage}, and as long as it has this persistent fire damage, it also takes a -10-foot status penalty to its Speeds.</p>"
        },
        "duration": {
            "expiry": "turn-start",
            "sustained": false,
            "unit": "unlimited",
            "value": -1
        },
        "level": {
            "value": 1
        },
        "rules": [
            {
                "key": "FlatModifier",
                "selector": "speed",
                "type": "status",
                "value": -10
            }
        ],
        "source": {
            "value": "Pathfinder Bestiary 2"
        },
        "start": {
            "initiative": null,
            "value": 0
        },
        "target": null,
        "tokenIcon": {
            "show": true
        },
        "traits": {
            "custom": "",
            "rarity": {
                "value": "common"
            },
            "value": []
        }
    },
    "effects": [],
    "flags": {},
    "img": "systems/pf2e/icons/spells/volcanic-eruption.webp",
    "name": "Effect: Volcanic Purge",
    "type": "effect"
}
