{
    "_id": "lF8Zm7y4U3nT1q3w",
    "content": "<p>Play at the start of your turn.</p>\n<hr />\n<p>Until the end of your turn, you gain the benefits of greater cover after taking the @Compendium[pf2e.actionspf2e.Hide]{Hide} or @Compendium[pf2e.actionspf2e.Sneak]{Sneak} action, allowing you to Hide or Sneak in the open. This effect ends if you do anything other than Hide, Sneak, or Step.</p>",
    "flags": {},
    "name": "Opportune Distraction",
    "permission": {
        "default": 0
    }
}
