{
    "_id": "yXbxHtz3xVIMbxyh",
    "data": {
        "attributes": {
            "ac": {
                "check": 0,
                "details": "",
                "value": 22
            },
            "collisionDC": {
                "value": 24
            },
            "collisionDamage": {
                "value": "5d10"
            },
            "hardness": 10,
            "hp": {
                "brokenThreshold": 5,
                "details": "",
                "max": 100,
                "temp": 0,
                "value": 100
            }
        },
        "details": {
            "AC": 0,
            "crew": "1 pilot",
            "description": "<p>A mobile inn is the next step up from an armored carriage, bringing the limited comforts of a simple (and cramped) inn stay to make long distance journeys more bearable for wealthy travelers. Essentially a tiny inn on wheels, powered by alchemical catalysts and a steam engine, the vehicle is equipped with a stove, storage cupboard, washbasin, table, two benches, and a compact sleeping loft large enough to accommodate four. It can be modified to accommodate a single passenger in significantly more comfort or to easily hold 5 passengers by stripping the accommodations.</p>",
            "level": {
                "value": 8
            },
            "passengers": "3 (can hold up to 5 by stripping accommodations)",
            "pilotingCheck": "Driving Lore (DC 24) or Crafting (DC 26)",
            "price": 1500,
            "space": {
                "high": 13,
                "long": 20,
                "wide": 20
            },
            "speed": "Speed 30 feet (alchemical)"
        },
        "saves": {
            "fortitude": {
                "item": 0,
                "rank": 0,
                "saveDetail": "",
                "value": 18
            }
        },
        "source": {
            "value": "Pathfinder Guns & Gears"
        },
        "traits": {
            "ci": [],
            "di": {
                "custom": "",
                "value": [
                    "critical-hits",
                    "object-immunities",
                    "precision"
                ]
            },
            "dr": [],
            "dv": [],
            "rarity": {
                "value": "rare"
            },
            "size": {
                "value": "huge"
            },
            "traits": {
                "custom": "",
                "value": []
            }
        }
    },
    "effects": [],
    "flags": {},
    "img": "systems/pf2e/icons/default-icons/vehicle.svg",
    "items": [],
    "name": "Mobile Inn",
    "token": {
        "disposition": 0,
        "height": 4,
        "img": "systems/pf2e/icons/default-icons/vehicle.svg",
        "name": "Mobile Inn",
        "width": 4
    },
    "type": "vehicle"
}
