{
    "_id": "FWNxPgsg0cfvrnY0",
    "data": {
        "attributes": {
            "ac": {
                "value": 16
            },
            "hardness": 0,
            "hasHealth": true,
            "hp": {
                "details": "",
                "max": 10,
                "temp": 0,
                "value": 10
            },
            "stealth": {
                "details": "",
                "value": 0
            }
        },
        "creatureType": "",
        "customModifiers": {},
        "details": {
            "description": "<p>The crowd is riled up enough to start throwing garbage at the interlopers, but not riled up enough to risk their lives. The crowd fills nine contiguous squares but can be shaped to fit the streets.</p>\n<p>Characters can move through the crowd, but spaces occupied by the crowd are difficult terrain.</p>",
            "disable": "",
            "isComplex": true,
            "level": {
                "value": 2
            },
            "reset": "<p>After more people in the crowd have become shaken or taken damage than there are crowd leaders left standing, the crowd disperses. For abilities affecting an area, count each affected square as one member of the crowd.</p>",
            "routine": "<p><span class=\"pf2-icon\">3</span> The crowd uses its first action to Stride away from any opponent adjacent to them (or to get within 30 feet), then uses each remaining action to make a trash Strike at a different target.</p>"
        },
        "saves": {
            "fortitude": {
                "saveDetail": "",
                "value": 11
            },
            "reflex": {
                "saveDetail": "",
                "value": 3
            },
            "will": {
                "saveDetail": "",
                "value": 7
            }
        },
        "source": {
            "value": ""
        },
        "statusEffects": [],
        "traits": {
            "ci": [],
            "di": {
                "custom": "",
                "selected": {},
                "value": []
            },
            "dr": [],
            "dv": [],
            "rarity": {
                "value": "common"
            },
            "size": {
                "value": "med"
            },
            "traits": {
                "custom": "",
                "value": [
                    "environmental"
                ]
            }
        }
    },
    "effects": [],
    "flags": {},
    "img": "systems/pf2e/icons/default-icons/hazard.svg",
    "items": [
        {
            "_id": "7UWFRxe9cEgtRX73",
            "data": {
                "actionCategory": {
                    "value": "interaction"
                },
                "actionType": {
                    "value": "passive"
                },
                "actions": {
                    "value": null
                },
                "description": {
                    "value": ""
                },
                "requirements": {
                    "value": ""
                },
                "rules": [],
                "slug": null,
                "source": {
                    "value": ""
                },
                "traits": {
                    "custom": "",
                    "rarity": {
                        "value": "common"
                    },
                    "value": []
                },
                "trigger": {
                    "value": ""
                },
                "weapon": {
                    "value": ""
                }
            },
            "effects": [],
            "flags": {},
            "img": "systems/pf2e/icons/actions/Passive.webp",
            "name": "Speed 25 feet",
            "sort": 100000,
            "type": "action"
        },
        {
            "_id": "EqdzuvPUyXbrDBzm",
            "data": {
                "attack": {
                    "value": ""
                },
                "attackEffects": {
                    "value": []
                },
                "bonus": {
                    "value": 14
                },
                "damageRolls": {
                    "c07qdc9k4jj2ngi6kyk6": {
                        "damage": "1d6+3",
                        "damageType": "bludgeoning"
                    }
                },
                "description": {
                    "value": "<p>@Compendium[pf2e.conditionitems.Sickened]{Sickened 1} (<span data-pf2-check=\"fortitude\" data-pf2-label=\"Trash DC\" data-pf2-dc=\"18\" data-pf2-show-dc=\"gm\">Fortitude</span> save negates sickened).</p>"
                },
                "rules": [],
                "slug": null,
                "source": {
                    "value": ""
                },
                "traits": {
                    "custom": "",
                    "rarity": {
                        "value": "common"
                    },
                    "value": [
                        "range-increment-20"
                    ]
                },
                "weaponType": {
                    "value": "ranged"
                }
            },
            "effects": [],
            "flags": {},
            "img": "systems/pf2e/icons/default-icons/melee.svg",
            "name": "Trash",
            "sort": 200000,
            "type": "melee"
        }
    ],
    "name": "Crowd with Trash",
    "token": {
        "disposition": 0,
        "height": 1,
        "img": "systems/pf2e/icons/default-icons/hazard.svg",
        "name": "Crowd with Trash",
        "width": 1
    },
    "type": "hazard"
}
