{
    "_id": "y14EZYMrfejrAuPI",
    "data": {
        "abilities": {
            "cha": {
                "mod": -3
            },
            "con": {
                "mod": 1
            },
            "dex": {
                "mod": 3
            },
            "int": {
                "mod": -4
            },
            "str": {
                "mod": -2
            },
            "wis": {
                "mod": 1
            }
        },
        "attributes": {
            "ac": {
                "details": "",
                "value": 13
            },
            "allSaves": {
                "value": ""
            },
            "hp": {
                "details": "",
                "max": 12,
                "temp": 0,
                "value": 12
            },
            "initiative": {
                "ability": "perception"
            },
            "perception": {
                "value": 5
            },
            "shield": {
                "ac": 0,
                "brokenThreshold": "0",
                "hardness": 0,
                "max": "0",
                "value": 0
            },
            "speed": {
                "otherSpeeds": [
                    {
                        "label": "Climb",
                        "type": "climb",
                        "value": "30"
                    }
                ],
                "value": "30 feet"
            }
        },
        "details": {
            "alignment": {
                "value": "N"
            },
            "blurb": "",
            "creatureType": "Animal",
            "level": {
                "value": -1
            },
            "privateNotes": "",
            "publicNotes": "<p>Swarms of centipedes are dangerous indeed, ravenous carpets of skittering hunger capable of devouring a traveler whole in a matter of minutes. Some alchemists submerge whole centipedes taken from swarms in their elixirs and some mutagens, claiming such infusions increase potency, though other say this is nothing more than quackish claptrap. Kobolds and mitflits are both known to incorporate swarms of centipedes into cunning traps, from simple pits filled with vermin or more complex affairs involving chutes that dump the vermin onto the heads of unwary intruders.</p>",
            "source": {
                "value": "Pathfinder Society Scenario #1-04: Bandits of Immenwood"
            }
        },
        "resources": {},
        "saves": {
            "fortitude": {
                "saveDetail": "",
                "value": 2
            },
            "reflex": {
                "saveDetail": "",
                "value": 7
            },
            "will": {
                "saveDetail": "",
                "value": 4
            }
        },
        "traits": {
            "ci": [],
            "di": {
                "custom": "",
                "value": [
                    "precision",
                    "swarm-mind"
                ]
            },
            "dr": [
                {
                    "exceptions": "except bludgeoning",
                    "label": "Physical",
                    "type": "physical",
                    "value": "6"
                }
            ],
            "dv": [
                {
                    "exceptions": "",
                    "label": "Area Damage",
                    "type": "area-damage",
                    "value": "3"
                },
                {
                    "exceptions": "",
                    "label": "Splash Damage",
                    "type": "splash-damage",
                    "value": "3"
                }
            ],
            "languages": {
                "custom": "",
                "selected": [],
                "value": []
            },
            "rarity": {
                "value": "common"
            },
            "senses": {
                "value": "low-light vision"
            },
            "size": {
                "value": "lg"
            },
            "traits": {
                "custom": "",
                "value": [
                    "animal",
                    "swarm"
                ]
            }
        }
    },
    "effects": [],
    "flags": {},
    "img": "systems/pf2e/icons/default-icons/npc.svg",
    "items": [
        {
            "_id": "e6gQA5jXDMbCKyDj",
            "data": {
                "actionCategory": {
                    "value": "offensive"
                },
                "actionType": {
                    "value": "action"
                },
                "actions": {
                    "value": 2
                },
                "description": {
                    "value": "<p>Any living creature within the area of a frog swarm must attempt a <span data-pf2-check=\"will\" data-pf2-dc=\"12\" data-pf2-label=\"Distraction DC\" data-pf2-show-dc=\"gm\">Will</span> save. Humanoids that fail this save are stunned 1 (stunned 2 on a critical failure). Animals are frightened 1 on a successful save, frightened 2 and fleeing on a failure, and frightened 3 and fleeing on a critical failure.</p>"
                },
                "requirements": {
                    "value": ""
                },
                "rules": [],
                "slug": null,
                "source": {
                    "value": ""
                },
                "traits": {
                    "custom": "",
                    "rarity": {
                        "value": "common"
                    },
                    "selected": {},
                    "value": []
                },
                "trigger": {
                    "value": ""
                },
                "weapon": {
                    "value": ""
                }
            },
            "effects": [],
            "flags": {},
            "img": "systems/pf2e/icons/actions/TwoActions.webp",
            "name": "Distraction",
            "sort": 100000,
            "type": "action"
        },
        {
            "_id": "9c3g4yNI2sNlNpvD",
            "data": {
                "description": {
                    "value": ""
                },
                "item": {
                    "value": 0
                },
                "mod": {
                    "value": 4
                },
                "proficient": {
                    "value": 0
                },
                "rules": [],
                "slug": null,
                "source": {
                    "value": ""
                },
                "traits": {
                    "custom": "",
                    "rarity": {
                        "value": "common"
                    },
                    "value": []
                }
            },
            "effects": [],
            "flags": {},
            "img": "systems/pf2e/icons/default-icons/lore.svg",
            "name": "Acrobatics",
            "sort": 200000,
            "type": "lore"
        }
    ],
    "name": "Frog Swarm",
    "token": {
        "disposition": -1,
        "height": 2,
        "img": "systems/pf2e/icons/default-icons/npc.svg",
        "name": "Frog Swarm",
        "width": 2
    },
    "type": "npc"
}
