{
    "_id": "rEPnlpuRVCpnQNYP",
    "data": {
        "abilities": {
            "cha": {
                "mod": 0
            },
            "con": {
                "mod": 4
            },
            "dex": {
                "mod": -3
            },
            "int": {
                "mod": 0
            },
            "str": {
                "mod": 5
            },
            "wis": {
                "mod": 1
            }
        },
        "attributes": {
            "ac": {
                "details": "",
                "value": 17
            },
            "allSaves": {
                "value": ""
            },
            "hp": {
                "details": "negative healing",
                "max": 85,
                "temp": 0,
                "value": 85
            },
            "initiative": {
                "ability": "perception"
            },
            "perception": {
                "value": 6
            },
            "shield": {
                "ac": 0,
                "brokenThreshold": 0,
                "hardness": 0,
                "max": 0,
                "value": 0
            },
            "speed": {
                "otherSpeeds": [],
                "value": "40"
            }
        },
        "details": {
            "alignment": {
                "value": "NE"
            },
            "blurb": "",
            "creatureType": "",
            "level": {
                "value": 3
            },
            "privateNotes": "",
            "publicNotes": "",
            "source": {
                "value": "Pathfinder Society: Season 1"
            }
        },
        "resources": {},
        "saves": {
            "fortitude": {
                "saveDetail": "",
                "value": 12
            },
            "reflex": {
                "saveDetail": "",
                "value": 5
            },
            "will": {
                "saveDetail": "",
                "value": 8
            }
        },
        "traits": {
            "ci": [],
            "di": {
                "custom": "",
                "value": [
                    "death-effects",
                    "disease",
                    "mental",
                    "paralyzed",
                    "poison",
                    "unconscious"
                ]
            },
            "dr": [],
            "dv": [],
            "languages": {
                "custom": "",
                "selected": [],
                "value": []
            },
            "rarity": {
                "value": "uncommon"
            },
            "senses": {
                "value": "darkvision"
            },
            "size": {
                "value": "lg"
            },
            "traits": {
                "custom": "",
                "value": [
                    "mindless",
                    "undead",
                    "zombie"
                ]
            }
        }
    },
    "effects": [],
    "flags": {},
    "img": "systems/pf2e/icons/default-icons/npc.svg",
    "items": [
        {
            "_id": "HFHy9Ahmdao51O5F",
            "data": {
                "attack": {
                    "value": ""
                },
                "attackEffects": {
                    "value": []
                },
                "bonus": {
                    "value": 12
                },
                "damageRolls": {
                    "rpmd3vyohaqf7yf7dfts": {
                        "damage": "1d12+7",
                        "damageType": "slashing"
                    }
                },
                "description": {
                    "value": ""
                },
                "rules": [],
                "slug": null,
                "source": {
                    "value": ""
                },
                "traits": {
                    "custom": "",
                    "rarity": {
                        "value": "common"
                    },
                    "value": []
                },
                "weaponType": {
                    "value": "melee"
                }
            },
            "effects": [],
            "flags": {},
            "img": "systems/pf2e/icons/default-icons/melee.svg",
            "name": "Jaws",
            "sort": 100000,
            "type": "melee"
        },
        {
            "_id": "nSq4STtVvCw7GNCY",
            "data": {
                "attack": {
                    "value": ""
                },
                "attackEffects": {
                    "value": []
                },
                "bonus": {
                    "value": 12
                },
                "damageRolls": {
                    "wjg6sw0n6mr9q4iy77hs": {
                        "damage": "1d8+7",
                        "damageType": "bludgeoning"
                    },
                    "n8k2841cpff2pdzvaq5i": {
                        "damage": "",
                        "damageType": "ImprovedPush5feet"
                    }
                },
                "description": {
                    "value": "<p>(agile)</p>"
                },
                "rules": [],
                "slug": null,
                "source": {
                    "value": ""
                },
                "traits": {
                    "custom": "",
                    "rarity": {
                        "value": "common"
                    },
                    "value": [
                        "agile"
                    ]
                },
                "weaponType": {
                    "value": "melee"
                }
            },
            "effects": [],
            "flags": {},
            "img": "systems/pf2e/icons/default-icons/melee.svg",
            "name": "Hoof",
            "sort": 200000,
            "type": "melee"
        },
        {
            "_id": "Cc4ymamS7jlEqUhJ",
            "data": {
                "actionCategory": {
                    "value": "offensive"
                },
                "actionType": {
                    "value": "action"
                },
                "actions": {
                    "value": 2
                },
                "description": {
                    "value": "<p>The zombie warhorse Strikes with its jaws against an adjacent living creature or a creature that has died in the past hour. On a success, the zombie warhorse can feast upon the creature's flesh to heal itself. This restores 2d6 Hit Points.</p>"
                },
                "requirements": {
                    "value": ""
                },
                "rules": [],
                "slug": null,
                "source": {
                    "value": ""
                },
                "traits": {
                    "custom": "",
                    "rarity": {
                        "value": "common"
                    },
                    "value": []
                },
                "trigger": {
                    "value": ""
                },
                "weapon": {
                    "value": ""
                }
            },
            "effects": [],
            "flags": {},
            "img": "systems/pf2e/icons/actions/TwoActions.webp",
            "name": "Feast",
            "sort": 300000,
            "type": "action"
        },
        {
            "_id": "ljhwvKpqZJVVOClT",
            "data": {
                "actionCategory": {
                    "value": "offensive"
                },
                "actionType": {
                    "value": "action"
                },
                "actions": {
                    "value": 2
                },
                "description": {
                    "value": "<p>The zombie warhorse Strides twice. It has a +10- foot circumstance bonus to its Speed during these Strides.</p>"
                },
                "requirements": {
                    "value": ""
                },
                "rules": [],
                "slug": null,
                "source": {
                    "value": ""
                },
                "traits": {
                    "custom": "",
                    "rarity": {
                        "value": "common"
                    },
                    "value": []
                },
                "trigger": {
                    "value": ""
                },
                "weapon": {
                    "value": ""
                }
            },
            "effects": [],
            "flags": {},
            "img": "systems/pf2e/icons/actions/TwoActions.webp",
            "name": "Gallop",
            "sort": 400000,
            "type": "action"
        },
        {
            "_id": "oxtEEJffAhD5P4Nt",
            "data": {
                "description": {
                    "value": ""
                },
                "item": {
                    "value": 0
                },
                "mod": {
                    "value": 11
                },
                "proficient": {
                    "value": 0
                },
                "rules": [],
                "slug": null,
                "source": {
                    "value": ""
                },
                "traits": {
                    "custom": "",
                    "rarity": {
                        "value": "common"
                    },
                    "value": []
                }
            },
            "effects": [],
            "flags": {},
            "img": "systems/pf2e/icons/default-icons/lore.svg",
            "name": "Athletics",
            "sort": 500000,
            "type": "lore"
        }
    ],
    "name": "Zombie Warhorse",
    "token": {
        "disposition": -1,
        "height": 2,
        "img": "systems/pf2e/icons/default-icons/npc.svg",
        "name": "Zombie Warhorse",
        "width": 2
    },
    "type": "npc"
}
